…
  print(names(con)[i])
  print(con[[i]])
}
#> [1] "dimension"
#> # A tibble: 4 × 9
#>   name    len unlim group_index group_id    id create_dimvar .dimension_ .group_
#>   <chr> <int> <lgl>       <int>    <int> <int> <lgl>               <int>   <int>
#> 1 lat    2160 FALSE           1    65536     0 TRUE                    0   65536
#> 2 lon    4320 FALSE           1    65536     1 TRUE                    1   65536
#> 3 rgb       3 FALSE           1    65536     2 FALSE                   2   65536
#> 4 eigh…   256 FALSE           1    65536     3 FALSE                   3   65536
#> [1] "unlimdims"
#> NULL
#> [1] "dimension_values"
#> # A tibble: 6,739 × 3
#>       id  vals .dimension_
#>    <int> <dbl>       <int>
#>  1     0  90.0           0
#>  2     0  89.9           0
#>  3     0  89.8           0
#>  4     0  89.7           0
#>  5     0  89.6           0
#>  6     0  89.5           0
#>  7     0  89.5           0
#>  8     0  89.4           0
#>  9     0  89.3           0
#> 10     0  89.2           0
#> # ℹ 6,729 more rows
…
