# distribution_fit() works

    Code
      distribution_fit(dt, .fit = dist_gamma(.agg, method = "lmoms"))
    Output
      Index pipeline: 
      
      Steps: 
    Message
      temporal: `rolling_window()` -> .agg
      distribution_fit: `distfit_gamma()` -> .fit
    Output
      
      Data: 
      # A tibble: 358 x 13
         id     month       ym  prcp  tmax   tmin  tavg  long   lat name   .agg   .fit
         <chr>  <dbl>    <mth> <dbl> <dbl>  <dbl> <dbl> <dbl> <dbl> <chr> <dbl>  <dbl>
       1 ASN00~    12 1990 Dec   640  30.4 14.7   22.6   152. -29.0 tent~  8382 0.700 
       2 ASN00~     1 1991 Jan  1108  27.5 15.9   21.7   152. -29.0 tent~  8608 0.724 
       3 ASN00~     2 1991 Feb   628  28.0 15.5   21.8   152. -29.0 tent~  7976 0.608 
       4 ASN00~     3 1991 Mar   204  26.2 11.8   19.0   152. -29.0 tent~  7926 0.595 
       5 ASN00~     4 1991 Apr    44  24.2  6.57  15.4   152. -29.0 tent~  6376 0.258 
       6 ASN00~     5 1991 May   630  21.3  7.52  14.4   152. -29.0 tent~  5786 0.178 
       7 ASN00~     6 1991 Jun   242  19.6  3.65  11.6   152. -29.0 tent~  5634 0.152 
       8 ASN00~     7 1991 Jul   580  15.3  0.519  7.91  152. -29.0 tent~  5596 0.139 
       9 ASN00~     8 1991 Aug    14  17.8  1.67   9.76  152. -29.0 tent~  5276 0.0967
      10 ASN00~     9 1991 Sep    78  21.1  3.07  12.1   152. -29.0 tent~  5088 0.0837
      # i 348 more rows
      # i 1 more variable: .fit_obj <list>
---

    Code
      distribution_fit(dt, .fit = dist_gev(.agg, method = "lmoms"))
    Output
      Index pipeline: 
      
      Steps: 
    Message
      temporal: `rolling_window()` -> .agg
      distribution_fit: `distfit_gev()` -> .fit
    Output
      
      Data: 
      # A tibble: 358 x 13
         id      month       ym  prcp  tmax   tmin  tavg  long   lat name   .agg  .fit
         <chr>   <dbl>    <mth> <dbl> <dbl>  <dbl> <dbl> <dbl> <dbl> <chr> <dbl> <dbl>
       1 ASN000~    12 1990 Dec   640  30.4 14.7   22.6   152. -29.0 tent~  8382 0.656
       2 ASN000~     1 1991 Jan  1108  27.5 15.9   21.7   152. -29.0 tent~  8608 0.671
       3 ASN000~     2 1991 Feb   628  28.0 15.5   21.8   152. -29.0 tent~  7976 0.579
       4 ASN000~     3 1991 Mar   204  26.2 11.8   19.0   152. -29.0 tent~  7926 0.569
       5 ASN000~     4 1991 Apr    44  24.2  6.57  15.4   152. -29.0 tent~  6376 0.258
       6 ASN000~     5 1991 May   630  21.3  7.52  14.4   152. -29.0 tent~  5786 0.177
       7 ASN000~     6 1991 Jun   242  19.6  3.65  11.6   152. -29.0 tent~  5634 0.151
       8 ASN000~     7 1991 Jul   580  15.3  0.519  7.91  152. -29.0 tent~  5596 0.143
       9 ASN000~     8 1991 Aug    14  17.8  1.67   9.76  152. -29.0 tent~  5276 0.106
      10 ASN000~     9 1991 Sep    78  21.1  3.07  12.1   152. -29.0 tent~  5088 0.104
      # i 348 more rows
      # i 1 more variable: .fit_obj <list>
---

    Code
      distribution_fit(dt, .fit = dist_glo(.agg, method = "lmoms"))
    Output
      Index pipeline: 
      
      Steps: 
    Message
      temporal: `rolling_window()` -> .agg
      distribution_fit: `distfit_glo()` -> .fit
    Output
      
      Data: 
      # A tibble: 358 x 13
         id     month       ym  prcp  tmax   tmin  tavg  long   lat name   .agg   .fit
         <chr>  <dbl>    <mth> <dbl> <dbl>  <dbl> <dbl> <dbl> <dbl> <chr> <dbl>  <dbl>
       1 ASN00~    12 1990 Dec   640  30.4 14.7   22.6   152. -29.0 tent~  8382 0.680 
       2 ASN00~     1 1991 Jan  1108  27.5 15.9   21.7   152. -29.0 tent~  8608 0.699 
       3 ASN00~     2 1991 Feb   628  28.0 15.5   21.8   152. -29.0 tent~  7976 0.589 
       4 ASN00~     3 1991 Mar   204  26.2 11.8   19.0   152. -29.0 tent~  7926 0.577 
       5 ASN00~     4 1991 Apr    44  24.2  6.57  15.4   152. -29.0 tent~  6376 0.236 
       6 ASN00~     5 1991 May   630  21.3  7.52  14.4   152. -29.0 tent~  5786 0.162 
       7 ASN00~     6 1991 Jun   242  19.6  3.65  11.6   152. -29.0 tent~  5634 0.139 
       8 ASN00~     7 1991 Jul   580  15.3  0.519  7.91  152. -29.0 tent~  5596 0.130 
       9 ASN00~     8 1991 Aug    14  17.8  1.67   9.76  152. -29.0 tent~  5276 0.0978
      10 ASN00~     9 1991 Sep    78  21.1  3.07  12.1   152. -29.0 tent~  5088 0.0936
      # i 348 more rows
      # i 1 more variable: .fit_obj <list>
---

    Code
      distribution_fit(dt, .fit = dist_pe3(.agg, method = "lmoms"))
    Output
      Index pipeline: 
      
      Steps: 
    Message
      temporal: `rolling_window()` -> .agg
      distribution_fit: `distfit_pe3()` -> .fit
    Output
      
      Data: 
      # A tibble: 358 x 13
         id      month       ym  prcp  tmax   tmin  tavg  long   lat name   .agg  .fit
         <chr>   <dbl>    <mth> <dbl> <dbl>  <dbl> <dbl> <dbl> <dbl> <chr> <dbl> <dbl>
       1 ASN000~    12 1990 Dec   640  30.4 14.7   22.6   152. -29.0 tent~  8382 0.663
       2 ASN000~     1 1991 Jan  1108  27.5 15.9   21.7   152. -29.0 tent~  8608 0.679
       3 ASN000~     2 1991 Feb   628  28.0 15.5   21.8   152. -29.0 tent~  7976 0.580
       4 ASN000~     3 1991 Mar   204  26.2 11.8   19.0   152. -29.0 tent~  7926 0.569
       5 ASN000~     4 1991 Apr    44  24.2  6.57  15.4   152. -29.0 tent~  6376 0.256
       6 ASN000~     5 1991 May   630  21.3  7.52  14.4   152. -29.0 tent~  5786 0.178
       7 ASN000~     6 1991 Jun   242  19.6  3.65  11.6   152. -29.0 tent~  5634 0.152
       8 ASN000~     7 1991 Jul   580  15.3  0.519  7.91  152. -29.0 tent~  5596 0.141
       9 ASN000~     8 1991 Aug    14  17.8  1.67   9.76  152. -29.0 tent~  5276 0.105
      10 ASN000~     9 1991 Sep    78  21.1  3.07  12.1   152. -29.0 tent~  5088 0.101
      # i 348 more rows
      # i 1 more variable: .fit_obj <list>
…
    Code
      res
    Output
      Index pipeline: 
      
      Steps: 
    Message
      temporal: `rolling_window()` -> .agg
      distribution_fit: `distfit_gamma()` -> .fit
      normalise: `norm_quantile()` -> .index
    Output
      
      Data: 
      # A tibble: 36,500 x 16
         id     .boot .period       ym  prcp  tmax  tmin  tavg  long   lat name  month
         <chr>  <int>   <dbl>    <mth> <dbl> <dbl> <dbl> <dbl> <dbl> <dbl> <chr> <dbl>
       1 ASN00~     1      12 1991 Dec  1340  31.7  16.1  23.9  151. -28.9 TEXA~    12
       2 ASN00~     2      12 1991 Dec  1340  31.7  16.1  23.9  151. -28.9 TEXA~    12
       3 ASN00~     3      12 1991 Dec  1340  31.7  16.1  23.9  151. -28.9 TEXA~    12
       4 ASN00~     4      12 1991 Dec  1340  31.7  16.1  23.9  151. -28.9 TEXA~    12
       5 ASN00~     5      12 1991 Dec  1340  31.7  16.1  23.9  151. -28.9 TEXA~    12
       6 ASN00~     6      12 1991 Dec  1340  31.7  16.1  23.9  151. -28.9 TEXA~    12
       7 ASN00~     7      12 1991 Dec  1340  31.7  16.1  23.9  151. -28.9 TEXA~    12
       8 ASN00~     8      12 1991 Dec  1340  31.7  16.1  23.9  151. -28.9 TEXA~    12
       9 ASN00~     9      12 1991 Dec  1340  31.7  16.1  23.9  151. -28.9 TEXA~    12
      10 ASN00~    10      12 1991 Dec  1340  31.7  16.1  23.9  151. -28.9 TEXA~    12
      # i 36,490 more rows
      # i 4 more variables: .agg <dbl>, .fit <dbl>, .fit_obj <list>, .index <dbl>
…
