ntdr
…
ntdr.R

get_ntd()

get_ntd() is the main function of the package. It
doesn’t have any required parameters:

ntd_data <- get_ntd()
ntd_data
#> # A tibble: 623,424 × 13
#>    ntd_id_5 ntd_id_4 agency      active reporter_type uace  uza_name modes tos  
#>    <chr>    <chr>    <chr>       <chr>  <chr>         <chr> <chr>    <chr> <chr>
#>  1 00001    0001     King County Active Full Reporter 80389 Seattle… DR    PT   
#>  2 00001    0001     King County Active Full Reporter 80389 Seattle… DR    PT   
#>  3 00001    0001     King County Active Full Reporter 80389 Seattle… DR    PT   
#>  4 00001    0001     King County Active Full Reporter 80389 Seattle… DR    PT   
#>  5 00001    0001     King County Active Full Reporter 80389 Seattle… DR    PT   
#>  6 00001    0001     King County Active Full Reporter 80389 Seattle… DR    PT   
#>  7 00001    0001     King County Active Full Reporter 80389 Seattle… DR    PT   
#>  8 00001    0001     King County Active Full Reporter 80389 Seattle… DR    PT   
#>  9 00001    0001     King County Active Full Reporter 80389 Seattle… DR    PT   
#> 10 00001    0001     King County Active Full Reporter 80389 Seattle… DR    PT   
#> # ℹ 623,414 more rows
#> # ℹ 4 more variables: modes_simplified <chr>, month <date>, value <dbl>,
#> #   ntd_variable <chr>
…
