Plotting Crunch Objects
…
Autoplots are great, but cubes can quickly become too complex for a
general plotting method to do a good job at representing the plot. If we
include lots of dimensions in a cube, or include a dimension with a lot
of categories the plot becomes unreadable. We can still work with these
types of cubes by using the as_tibble method to convert it
into a long data frame. This lets us further process the data to produce
a readable plot.

cube <- crtabs(~ Country + Professional + TabsSpaces, ds)
cube_tbl <- as_tibble(cube)
cube_tbl

## # A tibble: 4,848 × 6
##    Country             Professional  TabsSpaces is_missing count row_count
##    <fct>               <fct>         <fct>      <lgl>      <dbl>     <dbl>
##  1 Afghanistan         None of these Both       FALSE          0         0
##  2 Aland Islands       None of these Both       FALSE          0         0
##  3 Albania             None of these Both       FALSE          0         0
##  4 Algeria             None of these Both       FALSE          0         0
##  5 American Samoa      None of these Both       FALSE          0         0
##  6 Andorra             None of these Both       FALSE          0         0
##  7 Angola              None of these Both       FALSE          0         0
##  8 Anguilla            None of these Both       FALSE          0         0
##  9 Antarctica          None of these Both       FALSE          0         0
## 10 Antigua and Barbuda None of these Both       FALSE          0         0
## # ℹ 4,838 more rows
…
Array Variables in tibbles

Array variables are treated slightly differently from regular Crunch
variables both in the cube itself and the tbl_df which is produced by
as_tibble. Array variables add two dimensions to the
tibble, in the case of categorical array variables these will be the
subvariables and their categories, and for multiple response this will
be the options and whether or not each option was selected.

cube <- crtabs(~ WantWorkMR + ImportantHiring, ds)
cube_tbl <- as_tibble(cube)
cube_tbl

## # A tibble: 6,120 × 7
##    WantWorkMR_items WantWorkMR_selections ImportantHiring_items    
##    <fct>            <lgl>                 <fct>                    
##  1 VBA              TRUE                  ImportantHiringAlgorithms
##  2 TypeScript       TRUE                  ImportantHiringAlgorithms
##  3 Java             TRUE                  ImportantHiringAlgorithms
##  4 Scala            TRUE                  ImportantHiringAlgorithms
##  5 JavaScript       TRUE                  ImportantHiringAlgorithms
##  6 Perl             TRUE                  ImportantHiringAlgorithms
##  7 Lua              TRUE                  ImportantHiringAlgorithms
##  8 Matlab           TRUE                  ImportantHiringAlgorithms
##  9 Erlang           TRUE                  ImportantHiringAlgorithms
## 10 Assembly         TRUE                  ImportantHiringAlgorithms
## # ℹ 6,110 more rows
## # ℹ 4 more variables: ImportantHiring_categories <fct>, is_missing <lgl>,
## #   count <dbl>, row_count <dbl>
…
