…
PTSD[,5] <-  ifelse(PTSD[,5] >= 6 , 1, 0)
PTSD <- data.frame(lapply(PTSD, function(x) as.factor(x)))
str(PTSD)
#> 'data.frame':	948 obs. of  7 variables:
#>  $ subject : Factor w/ 316 levels "15","18","19",..: 1 1 1 2 2 2 3 3 3 4 ...
#>  $ control : Factor w/ 2 levels "0","1": 2 2 2 1 2 2 1 1 1 2 ...
#>  $ problems: Factor w/ 2 levels "0","1": 2 2 2 2 2 1 2 2 2 2 ...
#>  $ stress  : Factor w/ 2 levels "0","1": 1 1 1 1 1 1 1 1 1 1 ...
#>  $ cohesion: Factor w/ 2 levels "0","1": 2 2 2 2 2 2 2 2 2 2 ...
#>  $ time    : Factor w/ 3 levels "1","2","3": 1 2 3 1 2 3 1 2 3 1 ...
#>  $ ptsd    : Factor w/ 2 levels "0","1": 1 1 1 2 1 1 2 2 1 1 ...
fit <- vlda(x = PTSD, object = "subject", time = "time", type = "long")
fit
#> $obs.coordinate
#> # A tibble: 57 x 3
#> # Groups:   x [57]
#>         x      y obs_list    
#>     <dbl>  <dbl> <named list>
#>  1 -1.49  -1.20  <chr [2]>   
#>  2 -1.26  -0.283 <chr [21]>  
#>  3 -1.03  -1.14  <chr [5]>   
#>  4 -1.03  -1.01  <chr [1]>   
#>  5 -1.02  -0.379 <chr [13]>  
#>  6 -0.92   0.233 <chr [30]>  
#>  7 -0.916 -0.784 <chr [2]>   
#>  8 -0.858 -0.808 <chr [4]>   
#>  9 -0.801 -0.215 <chr [11]>  
#> 10 -0.799 -0.088 <chr [7]>   
#> # ... with 47 more rows
…
