tidy xgboost
…
get shapley values

tidy_shap has similar syntax to
tidy_predict and can be used to get shapley values from
xgboost models on a validation set.

xgb_base %>% 
  tidy_shap(newdata = iris_val, form = petal_form) -> shap_list

shap_list$shap_tbl
#> # A tibble: 38 × 5
#>    Sepal.Length Sepal.Width Petal.Width species_versicolor species_virginica
#>           <dbl>       <dbl>       <dbl>              <dbl>             <dbl>
#>  1      -0.472      -0.0284       -1.54             0.0326            -0.108
#>  2      -0.472      -0.0284       -1.54             0.0326            -0.108
#>  3      -0.0873     -0.270        -1.58             0.0378            -0.108
#>  4      -0.470      -0.0284       -1.52             0.0326            -0.108
#>  5      -0.472      -0.0284       -1.54             0.0326            -0.108
#>  6      -0.418      -0.0817       -1.54             0.0308            -0.107
#>  7      -0.468      -0.0284       -1.46             0.0326            -0.108
#>  8      -0.472      -0.0284       -1.54             0.0326            -0.108
#>  9      -0.472      -0.0284       -1.54             0.0326            -0.108
#> 10      -0.409       0.156        -1.51             0.0326            -0.108
#> # ℹ 28 more rows
…
