…
      attr(,"effect")$mpg$ale$d1$am
      # A tibble: 2 x 7
        am.bin    .n    .y .y_lo .y_mean .y_median .y_hi
        <ord>  <int> <dbl> <dbl>   <dbl>     <dbl> <dbl>
      1 FALSE     38 -1.98 -5.10   -1.98     -1.52 0.758
      2 TRUE      26  2.72 -1.13    2.72      1.72 7.43 
      
      attr(,"effect")$mpg$ale$d1$model
      # A tibble: 32 x 7
         model.bin              .n     .y  .y_lo .y_mean .y_median .y_hi
         <ord>               <int>  <dbl>  <dbl>   <dbl>     <dbl> <dbl>
       1 Camaro Z28              2 -0.817 -3.79   -0.817    -1.05   2.36
       2 Cadillac Fleetwood      2 -0.741 -9.66   -0.741    -0.437  7.92
       3 Lincoln Continental     2  6.79  -9.61    6.79      6.67  23.3 
       4 Chrysler Imperial       2 15.7   -5.02   15.7      14.0   37.9 
       5 Duster 360              2 21.1   -0.717  21.1      19.6   44.3 
       6 Hornet Sportabout       2 26.2    4.52   26.2      29.0   45.5 
       7 Pontiac Firebird        2 20.9    2.89   20.9      20.9   38.9 
       8 Dodge Challenger        2 18.2    0.485  18.2      16.6   37.2 
       9 AMC Javelin             2 18.7    0.691  18.7      18.4   36.9 
      10 Merc 450SL              2 20.4    0.938  20.4       8.30  50.3 
      # i 22 more rows
…
      attr(,"effect")$mpg$ale$d2$`vs:am`
      # A tibble: 4 x 8
        vs.bin am.bin    .n    .y .y_lo .y_mean .y_median .y_hi
        <ord>  <ord>  <int> <dbl> <dbl>   <dbl>     <dbl> <dbl>
      1 FALSE  FALSE     24     0     0       0         0     0
      2 TRUE   FALSE     14     0     0       0         0     0
      3 FALSE  TRUE      12     0     0       0         0     0
      4 TRUE   TRUE      14     0     0       0         0     0
      
      attr(,"effect")$mpg$ale$d2$`vs:model`
      # A tibble: 64 x 8
         vs.bin model.bin              .n    .y .y_lo .y_mean .y_median .y_hi
         <ord>  <ord>               <int> <dbl> <dbl>   <dbl>     <dbl> <dbl>
       1 FALSE  Camaro Z28              2     0     0       0         0     0
       2 TRUE   Camaro Z28              0     0     0       0         0     0
       3 FALSE  Cadillac Fleetwood      2     0     0       0         0     0
       4 TRUE   Cadillac Fleetwood      0     0     0       0         0     0
       5 FALSE  Lincoln Continental     2     0     0       0         0     0
       6 TRUE   Lincoln Continental     0     0     0       0         0     0
       7 FALSE  Chrysler Imperial       2     0     0       0         0     0
       8 TRUE   Chrysler Imperial       0     0     0       0         0     0
       9 FALSE  Duster 360              2     0     0       0         0     0
      10 TRUE   Duster 360              0     0     0       0         0     0
      # i 54 more rows
…
      attr(,"effect")$mpg$ale$d2$`continent:am`
      # A tibble: 6 x 8
        continent.bin am.bin    .n    .y .y_lo .y_mean .y_median .y_hi
        <ord>         <ord>  <int> <dbl> <dbl>   <dbl>     <dbl> <dbl>
      1 North America FALSE     22     0     0       0         0     0
      2 Europe        FALSE     14     0     0       0         0     0
      3 Asia          FALSE      2     0     0       0         0     0
      4 North America TRUE       2     0     0       0         0     0
      5 Europe        TRUE      14     0     0       0         0     0
      6 Asia          TRUE      10     0     0       0         0     0
      
      attr(,"effect")$mpg$ale$d2$`continent:model`
      # A tibble: 96 x 8
         continent.bin model.bin              .n    .y .y_lo .y_mean .y_median .y_hi
         <ord>         <ord>               <int> <dbl> <dbl>   <dbl>     <dbl> <dbl>
       1 North America Camaro Z28              2     0     0       0         0     0
       2 Europe        Camaro Z28              0     0     0       0         0     0
       3 Asia          Camaro Z28              0     0     0       0         0     0
       4 North America Cadillac Fleetwood      2     0     0       0         0     0
       5 Europe        Cadillac Fleetwood      0     0     0       0         0     0
       6 Asia          Cadillac Fleetwood      0     0     0       0         0     0
       7 North America Lincoln Continental     2     0     0       0         0     0
       8 Europe        Lincoln Continental     0     0     0       0         0     0
       9 Asia          Lincoln Continental     0     0     0       0         0     0
      10 North America Chrysler Imperial       2     0     0       0         0     0
      # i 86 more rows
…
      attr(,"effect")$mpg$ale$d2$`continent:wt`
      # A tibble: 30 x 8
         continent.bin wt.ceil    .n    .y .y_lo .y_mean .y_median .y_hi
         <ord>           <dbl> <int> <dbl> <dbl>   <dbl>     <dbl> <dbl>
       1 North America    1.50     0     0     0       0         0     0
       2 Europe           1.50     1     0     0       0         0     0
       3 Asia             1.50     0     0     0       0         0     0
       4 North America    1.94     0     0     0       0         0     0
       5 Europe           1.94     3     0     0       0         0     0
       6 Asia             1.94     4     0     0       0         0     0
       7 North America    2.46     0     0     0       0         0     0
       8 Europe           2.46     4     0     0       0         0     0
       9 Asia             2.46     3     0     0       0         0     0
      10 North America    2.79     0     0     0       0         0     0
      # i 20 more rows
      
      attr(,"effect")$mpg$ale$d2$`am:model`
      # A tibble: 64 x 8
         am.bin model.bin         .n        .y     .y_lo   .y_mean .y_median     .y_hi
         <ord>  <ord>          <int>     <dbl>     <dbl>     <dbl>     <dbl>     <dbl>
       1 FALSE  Camaro Z28         2 -3.41e-15 -3.41e-15 -3.41e-15 -3.41e-15 -3.41e-15
       2 TRUE   Camaro Z28         0  1.75e-14  1.75e-14  1.75e-14  1.75e-14  1.75e-14
       3 FALSE  Cadillac Flee~     2 -2.82e-15 -3.41e-15 -2.82e-15 -3.41e-15 -1.72e-15
       4 TRUE   Cadillac Flee~     0  1.81e-14  1.75e-14  1.81e-14  1.75e-14  1.92e-14
       5 FALSE  Lincoln Conti~     2 -2.08e-15 -3.41e-15 -2.08e-15 -3.41e-15  3.86e-16
       6 TRUE   Lincoln Conti~     0  1.88e-14  1.75e-14  1.88e-14  1.75e-14  2.13e-14
       7 FALSE  Chrysler Impe~     2 -2.37e-15 -4.25e-15 -2.37e-15 -3.41e-15  3.86e-16
       8 TRUE   Chrysler Impe~     0  1.85e-14  1.67e-14  1.85e-14  1.75e-14  2.13e-14
       9 FALSE  Duster 360         2 -2.37e-15 -4.25e-15 -2.37e-15 -3.41e-15  3.86e-16
      10 TRUE   Duster 360         0  1.85e-14  1.67e-14  1.85e-14  1.75e-14  2.13e-14
      # i 54 more rows
…
      attr(,"effect")$mpg$ale$d2$`model:gear`
      # A tibble: 96 x 8
         model.bin       gear.bin    .n       .y     .y_lo  .y_mean .y_median    .y_hi
         <ord>           <ord>    <int>    <dbl>     <dbl>    <dbl>     <dbl>    <dbl>
       1 Camaro Z28      three        2 4.38e-15  3.20e-15 4.38e-15  3.20e-15 6.57e-15
       2 Cadillac Fleet~ three        2 4.38e-15  3.20e-15 4.38e-15  3.20e-15 6.57e-15
       3 Lincoln Contin~ three        2 4.38e-15  3.20e-15 4.38e-15  3.20e-15 6.57e-15
       4 Chrysler Imper~ three        2 2.90e-15  2.36e-15 2.90e-15  3.20e-15 3.20e-15
       5 Duster 360      three        2 2.90e-15  2.36e-15 2.90e-15  3.20e-15 3.20e-15
       6 Hornet Sportab~ three        2 2.31e-15  1.47e-15 2.31e-15  2.31e-15 3.15e-15
       7 Pontiac Firebi~ three        2 1.42e-15 -1.06e-15 1.42e-15  2.31e-15 3.15e-15
       8 Dodge Challeng~ three        2 1.42e-15 -1.06e-15 1.42e-15  2.31e-15 3.15e-15
       9 AMC Javelin     three        2 2.02e-15  6.24e-16 2.02e-15  2.31e-15 3.15e-15
      10 Merc 450SL      three        2 1.72e-15 -2.20e-16 1.72e-15  2.31e-15 3.15e-15
      # i 86 more rows
      
      attr(,"effect")$mpg$ale$d2$`model:carb`
      # A tibble: 160 x 8
         model.bin   carb.ceil    .n        .y     .y_lo   .y_mean .y_median     .y_hi
         <ord>           <dbl> <int>     <dbl>     <dbl>     <dbl>     <dbl>     <dbl>
       1 Camaro Z28          1     0 -1.23e-14 -1.23e-14 -1.23e-14 -1.23e-14 -1.23e-14
       2 Cadillac F~         1     0 -1.40e-14 -1.40e-14 -1.40e-14 -1.40e-14 -1.40e-14
       3 Lincoln Co~         1     0 -1.58e-14 -1.58e-14 -1.58e-14 -1.58e-14 -1.58e-14
       4 Chrysler I~         1     0 -1.82e-14 -1.82e-14 -1.82e-14 -1.82e-14 -1.82e-14
       5 Duster 360          1     0 -1.92e-14 -1.92e-14 -1.92e-14 -1.92e-14 -1.92e-14
       6 Hornet Spo~         1     0 -2.01e-14 -2.01e-14 -2.01e-14 -2.01e-14 -2.01e-14
       7 Pontiac Fi~         1     0 -2.01e-14 -2.01e-14 -2.01e-14 -2.01e-14 -2.01e-14
       8 Dodge Chal~         1     0 -2.01e-14 -2.01e-14 -2.01e-14 -2.01e-14 -2.01e-14
       9 AMC Javelin         1     0 -2.01e-14 -2.01e-14 -2.01e-14 -2.01e-14 -2.01e-14
      10 Merc 450SL          1     0 -2.01e-14 -2.01e-14 -2.01e-14 -2.01e-14 -2.01e-14
      # i 150 more rows
      
      attr(,"effect")$mpg$ale$d2$`model:wt`
      # A tibble: 320 x 8
         model.bin     wt.ceil    .n        .y     .y_lo   .y_mean .y_median     .y_hi
         <ord>           <dbl> <int>     <dbl>     <dbl>     <dbl>     <dbl>     <dbl>
       1 Camaro Z28       1.50     0 -7.17e-16 -7.17e-16 -7.17e-16 -7.17e-16 -7.17e-16
       2 Cadillac Fle~    1.50     0 -7.17e-16 -7.17e-16 -7.17e-16 -7.17e-16 -7.17e-16
       3 Lincoln Cont~    1.50     0 -1.38e-15 -1.38e-15 -1.38e-15 -1.38e-15 -1.38e-15
       4 Chrysler Imp~    1.50     0 -1.94e-15 -1.94e-15 -1.94e-15 -1.94e-15 -1.94e-15
       5 Duster 360       1.50     0 -2.83e-15 -2.83e-15 -2.83e-15 -2.83e-15 -2.83e-15
       6 Hornet Sport~    1.50     0 -2.83e-15 -2.83e-15 -2.83e-15 -2.83e-15 -2.83e-15
       7 Pontiac Fire~    1.50     0 -1.64e-15 -1.64e-15 -1.64e-15 -1.64e-15 -1.64e-15
       8 Dodge Challe~    1.50     0  1.02e-15  1.02e-15  1.02e-15  1.02e-15  1.02e-15
       9 AMC Javelin      1.50     0  1.02e-15  1.02e-15  1.02e-15  1.02e-15  1.02e-15
      10 Merc 450SL       1.50     0  2.09e-15  2.09e-15  2.09e-15  2.09e-15  2.09e-15
      # i 310 more rows
…
      attr(,"effect")$mpg$ale$d2$`gear:wt`
      # A tibble: 30 x 8
         gear.bin wt.ceil    .n        .y     .y_lo   .y_mean .y_median     .y_hi
         <ord>      <dbl> <int>     <dbl>     <dbl>     <dbl>     <dbl>     <dbl>
       1 three       1.50     0 -1.81e-15 -1.81e-15 -1.81e-15 -1.81e-15 -1.81e-15
       2 four        1.50     0  1.59e-15  1.59e-15  1.59e-15  1.59e-15  1.59e-15
       3 five        1.50     1  3.37e-15  3.37e-15  3.37e-15  3.37e-15  3.37e-15
       4 three       1.94     0 -1.19e-16 -4.50e-15 -1.19e-16  2.25e-15  2.25e-15
       5 four        1.94     6 -3.23e-15 -6.51e-15 -3.23e-15 -1.45e-15 -1.45e-15
       6 five        1.94     1 -1.45e-15 -4.74e-15 -1.45e-15  3.25e-16  3.25e-16
       7 three       2.46     1 -1.49e-15 -4.80e-15 -1.49e-15 -1.61e-16  6.83e-16
       8 four        2.46     4 -3.65e-15 -7.45e-15 -3.65e-15 -2.97e-15 -4.42e-16
       9 five        2.46     2 -1.88e-15 -5.67e-15 -1.88e-15 -1.20e-15  1.33e-15
      10 three       2.79     1 -9.01e-16 -3.11e-15 -9.01e-16 -1.61e-16  6.83e-16
      # i 20 more rows
      
      attr(,"effect")$mpg$ale$d2$`carb:wt`
      # A tibble: 50 x 8
         carb.ceil wt.ceil    .n        .y     .y_lo   .y_mean .y_median     .y_hi
             <dbl>   <dbl> <int>     <dbl>     <dbl>     <dbl>     <dbl>     <dbl>
       1         1    1.50     0 -2.01e-16 -2.01e-16 -2.01e-16 -2.01e-16 -2.01e-16
       2         2    1.50     1 -2.01e-16 -2.01e-16 -2.01e-16 -2.01e-16 -2.01e-16
       3         3    1.50     0  8.35e-16  8.35e-16  8.35e-16  8.35e-16  8.35e-16
       4         4    1.50     0  9.19e-16  9.19e-16  9.19e-16  9.19e-16  9.19e-16
       5         8    1.50     0 -3.52e-15 -3.52e-15 -3.52e-15 -3.52e-15 -3.52e-15
       6         1    1.94     4 -2.01e-16 -2.01e-16 -2.01e-16 -2.01e-16 -2.01e-16
       7         2    1.94     3 -2.01e-16 -2.01e-16 -2.01e-16 -2.01e-16 -2.01e-16
       8         3    1.94     0  8.35e-16  8.35e-16  8.35e-16  8.35e-16  8.35e-16
       9         4    1.94     0  9.19e-16  9.19e-16  9.19e-16  9.19e-16  9.19e-16
      10         8    1.94     0 -3.52e-15 -3.52e-15 -3.52e-15 -3.52e-15 -3.52e-15
      # i 40 more rows
      
      
      
      attr(,"effect")$mpg$stats
      attr(,"effect")$mpg$stats$d1
      # A tibble: 42 x 7
         term      statistic estimate conf.low  mean median conf.high
         <chr>     <chr>        <dbl>    <dbl> <dbl>  <dbl>     <dbl>
       1 vs        aled             0        0     0      0         0
       2 vs        aler_min         0        0     0      0         0
       3 vs        aler_max         0        0     0      0         0
       4 vs        naled            0        0     0      0         0
       5 vs        naler_min        0        0     0      0         0
       6 vs        naler_max        0        0     0      0         0
       7 continent aled             0        0     0      0         0
       8 continent aler_min         0        0     0      0         0
       9 continent aler_max         0        0     0      0         0
      10 continent naled            0        0     0      0         0
      # i 32 more rows
      
      attr(,"effect")$mpg$stats$d2
      # A tibble: 126 x 7
         term         statistic estimate conf.low  mean median conf.high
         <chr>        <chr>        <dbl>    <dbl> <dbl>  <dbl>     <dbl>
       1 vs:continent aled             0        0     0      0         0
       2 vs:continent aler_min         0        0     0      0         0
       3 vs:continent aler_max         0        0     0      0         0
       4 vs:continent naled            0        0     0      0         0
       5 vs:continent naler_min        0        0     0      0         0
       6 vs:continent naler_max        0        0     0      0         0
       7 vs:am        aled             0        0     0      0         0
       8 vs:am        aler_min         0        0     0      0         0
       9 vs:am        aler_max         0        0     0      0         0
      10 vs:am        naled            0        0     0      0         0
      # i 116 more rows
…
      
      attr(,"params")$data
      attr(,"params")$data$data_sample
      # A tibble: 64 x 8
           mpg vs    continent     am    model             gear   carb    wt
         <dbl> <lgl> <fct>         <lgl> <chr>             <ord> <int> <dbl>
       1  21   FALSE Asia          TRUE  Mazda RX4         four      4  2.62
       2  21   FALSE Asia          TRUE  Mazda RX4 Wag     four      4  2.88
       3  22.8 TRUE  Asia          TRUE  Datsun 710        four      1  2.32
       4  21.4 TRUE  North America FALSE Hornet 4 Drive    three     1  3.22
       5  18.7 FALSE North America FALSE Hornet Sportabout three     2  3.44
       6  18.1 TRUE  North America FALSE Valiant           three     1  3.46
       7  14.3 FALSE North America FALSE Duster 360        three     4  3.57
       8  24.4 TRUE  Europe        FALSE Merc 240D         four      2  3.19
       9  22.8 TRUE  Europe        FALSE Merc 230          four      2  3.15
      10  19.2 TRUE  Europe        FALSE Merc 280          four      4  3.44
      # i 54 more rows
…
