…
      attr(,"effect")$mpg$ale$d1$am
      # A tibble: 2 x 7
        am.bin    .n    .y .y_lo .y_mean .y_median .y_hi
        <ord>  <int> <dbl> <dbl>   <dbl>     <dbl> <dbl>
      1 FALSE     38 -1.61 -5.01   -1.61    -1.01  0.775
      2 TRUE      26  1.60 -1.75    1.60     0.219 7.28 
      
      attr(,"effect")$mpg$ale$d1$model
      # A tibble: 32 x 7
         model.bin              .n     .y  .y_lo .y_mean .y_median .y_hi
         <ord>               <int>  <dbl>  <dbl>   <dbl>     <dbl> <dbl>
       1 Camaro Z28              2 -1.22  -3.83   -1.22     -1.74   2.27
       2 Cadillac Fleetwood      2 -0.330 -9.42   -0.330     0.233  7.80
       3 Lincoln Continental     2  7.05  -9.18    7.05      7.26  22.9 
       4 Chrysler Imperial       2 15.5   -4.52   15.5      14.3   37.4 
       5 Duster 360              2 21.7   -0.182  21.7      21.6   43.9 
       6 Hornet Sportabout       2 31.8    5.16   31.8      37.6   48.4 
       7 Pontiac Firebird        2 25.1    3.36   25.1      29.3   39.7 
       8 Dodge Challenger        2 20.3    0.910  20.3      21.6   37.4 
       9 AMC Javelin             2 20.4    1.16   20.4      22.0   36.9 
      10 Merc 450SL              2 20.8    1.13   20.8      15.1   50.2 
      # i 22 more rows
…
      
      
      attr(,"effect")$mpg$stats
      attr(,"effect")$mpg$stats$d1
      # A tibble: 42 x 8
         statistic estimate p.value term      conf.low  mean median conf.high
         <chr>        <dbl>   <dbl> <chr>        <dbl> <dbl>  <dbl>     <dbl>
       1 aled             0     1   vs               0     0      0         0
       2 aler_min         0     1   vs               0     0      0         0
       3 aler_max         0     1   vs               0     0      0         0
       4 naled            0     0.6 vs               0     0      0         0
       5 naler_min        0     1   vs               0     0      0         0
       6 naler_max        0     0.6 vs               0     0      0         0
       7 aled             0     1   continent        0     0      0         0
       8 aler_min         0     1   continent        0     0      0         0
       9 aler_max         0     1   continent        0     0      0         0
      10 naled            0     0.6 continent        0     0      0         0
      # i 32 more rows
…
      
      attr(,"params")$data
      attr(,"params")$data$data_sample
      # A tibble: 64 x 8
           mpg vs    continent     am    model             gear   carb    wt
         <dbl> <lgl> <fct>         <lgl> <chr>             <ord> <int> <dbl>
       1  21   FALSE Asia          TRUE  Mazda RX4         four      4  2.62
       2  21   FALSE Asia          TRUE  Mazda RX4 Wag     four      4  2.88
       3  22.8 TRUE  Asia          TRUE  Datsun 710        four      1  2.32
       4  21.4 TRUE  North America FALSE Hornet 4 Drive    three     1  3.22
       5  18.7 FALSE North America FALSE Hornet Sportabout three     2  3.44
       6  18.1 TRUE  North America FALSE Valiant           three     1  3.46
       7  14.3 FALSE North America FALSE Duster 360        three     4  3.57
       8  24.4 TRUE  Europe        FALSE Merc 240D         four      2  3.19
       9  22.8 TRUE  Europe        FALSE Merc 230          four      2  3.15
      10  19.2 TRUE  Europe        FALSE Merc 280          four      4  3.44
      # i 54 more rows
…
    Output
      <object>
      attr(,"S7_class")
      <ale::ALEpDist> class
      @ parent     : <S7_object>
      @ constructor: function(model, data, ..., y_col, rand_it, surrogate, parallel, model_packages, random_model_call_string, random_model_call_string_vars, positive, pred_fun, pred_type, output_residuals, seed, silent, .skip_validation) {...}
      @ validator  : <NULL>
      @ properties :
       $ rand_stats           : <list>            
       $ residual_distribution: S3<univariateML>  
       $ residuals            : <double> or <NULL>
       $ params               : <list>            
      attr(,"rand_stats")
      attr(,"rand_stats")$mpg
      # A tibble: 100 x 6
            aled aler_min aler_max naled naler_min naler_max
           <dbl>    <dbl>    <dbl> <dbl>     <dbl>     <dbl>
       1 0.00199  -0.0112  0.00727 0.366     -1.56      1.56
       2 0.00394  -0.0118  0.0148  0.708     -1.56      1.56
       3 0.00425  -0.0170  0.0126  0.708     -1.56      1.56
       4 0.00647  -0.0215  0.0304  0.708     -1.56      1.56
       5 0.00365  -0.0149  0.0124  0.537     -1.56      1.56
       6 0.00281  -0.0121  0.0100  0.366     -1.56      1.56
       7 0.00599  -0.0172  0.0227  0.879     -1.56      1.56
       8 0.00574  -0.0333  0.0175  0.708     -1.56      1.56
       9 0.00733  -0.0321  0.0203  0.879     -1.56      1.56
      10 0.00729  -0.0228  0.0257  1.05      -1.56      1.56
      # i 90 more rows
…
