…
      
      attr(,"params")$data
      attr(,"params")$data$data_sample
      # A tibble: 64 x 8
           mpg vs    continent     am    model             gear   carb    wt
         <dbl> <lgl> <fct>         <lgl> <chr>             <ord> <int> <dbl>
       1  21   FALSE Asia          TRUE  Mazda RX4         four      4  2.62
       2  21   FALSE Asia          TRUE  Mazda RX4 Wag     four      4  2.88
       3  22.8 TRUE  Asia          TRUE  Datsun 710        four      1  2.32
       4  21.4 TRUE  North America FALSE Hornet 4 Drive    three     1  3.22
       5  18.7 FALSE North America FALSE Hornet Sportabout three     2  3.44
       6  18.1 TRUE  North America FALSE Valiant           three     1  3.46
       7  14.3 FALSE North America FALSE Duster 360        three     4  3.57
       8  24.4 TRUE  Europe        FALSE Merc 240D         four      2  3.19
       9  22.8 TRUE  Europe        FALSE Merc 230          four      2  3.15
      10  19.2 TRUE  Europe        FALSE Merc 280          four      4  3.44
      # i 54 more rows
…
      
      attr(,"params")$data
      attr(,"params")$data$data_sample
      # A tibble: 64 x 8
           mpg vs    continent     am    model             gear   carb    wt
         <dbl> <lgl> <fct>         <lgl> <chr>             <ord> <int> <dbl>
       1  21   FALSE Asia          TRUE  Mazda RX4         four      4  2.62
       2  21   FALSE Asia          TRUE  Mazda RX4 Wag     four      4  2.88
       3  22.8 TRUE  Asia          TRUE  Datsun 710        four      1  2.32
       4  21.4 TRUE  North America FALSE Hornet 4 Drive    three     1  3.22
       5  18.7 FALSE North America FALSE Hornet Sportabout three     2  3.44
       6  18.1 TRUE  North America FALSE Valiant           three     1  3.46
       7  14.3 FALSE North America FALSE Duster 360        three     4  3.57
       8  24.4 TRUE  Europe        FALSE Merc 240D         four      2  3.19
       9  22.8 TRUE  Europe        FALSE Merc 230          four      2  3.15
      10  19.2 TRUE  Europe        FALSE Merc 280          four      4  3.44
      # i 54 more rows
…
      
      attr(,"params")$data
      attr(,"params")$data$data_sample
      # A tibble: 64 x 8
           mpg vs    continent     am    model             gear   carb    wt
         <dbl> <lgl> <fct>         <lgl> <chr>             <ord> <int> <dbl>
       1  21   FALSE Asia          TRUE  Mazda RX4         four      4  2.62
       2  21   FALSE Asia          TRUE  Mazda RX4 Wag     four      4  2.88
       3  22.8 TRUE  Asia          TRUE  Datsun 710        four      1  2.32
       4  21.4 TRUE  North America FALSE Hornet 4 Drive    three     1  3.22
       5  18.7 FALSE North America FALSE Hornet Sportabout three     2  3.44
       6  18.1 TRUE  North America FALSE Valiant           three     1  3.46
       7  14.3 FALSE North America FALSE Duster 360        three     4  3.57
       8  24.4 TRUE  Europe        FALSE Merc 240D         four      2  3.19
       9  22.8 TRUE  Europe        FALSE Merc 230          four      2  3.15
      10  19.2 TRUE  Europe        FALSE Merc 280          four      4  3.44
      # i 54 more rows
…
      
      attr(,"params")$data
      attr(,"params")$data$data_sample
      # A tibble: 64 x 8
           mpg vs    continent     am    model             gear   carb    wt
         <dbl> <lgl> <fct>         <lgl> <chr>             <ord> <int> <dbl>
       1  21   FALSE Asia          TRUE  Mazda RX4         four      4  2.62
       2  21   FALSE Asia          TRUE  Mazda RX4 Wag     four      4  2.88
       3  22.8 TRUE  Asia          TRUE  Datsun 710        four      1  2.32
       4  21.4 TRUE  North America FALSE Hornet 4 Drive    three     1  3.22
       5  18.7 FALSE North America FALSE Hornet Sportabout three     2  3.44
       6  18.1 TRUE  North America FALSE Valiant           three     1  3.46
       7  14.3 FALSE North America FALSE Duster 360        three     4  3.57
       8  24.4 TRUE  Europe        FALSE Merc 240D         four      2  3.19
       9  22.8 TRUE  Europe        FALSE Merc 230          four      2  3.15
      10  19.2 TRUE  Europe        FALSE Merc 280          four      4  3.44
      # i 54 more rows
…
