passport
…
convert them to other languages with as_country_name()

# NATO member defense expenditure data; see `?nato`
data("nato", package = "passport")

nato %>% 
    select(country_stanag) %>% 
    distinct() %>%
    mutate(
        country_iso = as_country_code(country_stanag, from = "stanag"),
        country_name = as_country_name(country_stanag, from = "stanag", short = FALSE),
        country_name_thai = as_country_name(country_stanag, from = "stanag", to = "ta-my")
    )
#> # A tibble: 29 x 4
#>    country_stanag country_iso country_name country_name_thai
#>    <chr>          <chr>       <chr>        <chr>            
#>  1 ALB            AL          Albania      அல்பேனியா         
#>  2 BEL            BE          Belgium      பெல்ஜியம்          
#>  3 BGR            BG          Bulgaria     பல்கேரியா         
#>  4 CAN            CA          Canada       கனடா             
#>  5 CZE            CZ          Czechia      செசியா           
#>  6 DEU            DE          Germany      ஜெர்மனி           
#>  7 DNK            DK          Denmark      டென்மார்க்          
#>  8 ESP            ES          Spain        ஸ்பெயின்           
#>  9 EST            EE          Estonia      எஸ்டோனியா         
#> 10 FRA            FR          France       பிரான்ஸ்           
#> # … with 19 more rows
…
