Get started with cancerscreening
…
get_lab_fna(): Retrieve data on fine-needle aspiration
done in the lab. They include breast, liver, lymph node and
thyroid.

get_lab_smears()Retrieve data on smears done in the
lab. They include pap smear, tissue impressions, and touch
preparation.

To get the data the following calls can be made

# Get data for those screening for cervical cancer
cervical_screened <- get_cervical_screened('2022-01-01', end_date = '2022-06-30')
cervical_screened
#> # A tibble: 192 × 11
#>    value country element   category   period     month  year quarter fiscal_year
#>    <dbl> <chr>   <fct>     <fct>      <date>     <ord> <dbl> <fct>   <fct>      
#>  1    99 Kenya   Pap Smear Initial S… 2022-01-01 Janu…  2022 Q3      2021/2022  
#>  2     4 Kenya   HPV       Routine S… 2022-01-01 Janu…  2022 Q3      2021/2022  
#>  3   133 Kenya   Pap Smear Initial S… 2022-04-01 April  2022 Q4      2021/2022  
#>  4    19 Kenya   VIA       Post-trea… 2022-06-01 June   2022 Q4      2021/2022  
#>  5   127 Kenya   HPV       <NA>       2022-03-01 March  2022 Q3      2021/2022  
#>  6   231 Kenya   Pap Smear Initial S… 2022-05-01 May    2022 Q4      2021/2022  
#>  7     1 Kenya   HPV       Routine S… 2022-05-01 May    2022 Q4      2021/2022  
#>  8    27 Kenya   HPV       Initial S… 2022-03-01 March  2022 Q3      2021/2022  
#>  9   274 Kenya   Pap Smear Initial S… 2022-06-01 June   2022 Q4      2021/2022  
#> 10   444 Kenya   HPV       <NA>       2022-01-01 Janu…  2022 Q3      2021/2022  
#> # ℹ 182 more rows
#> # ℹ 2 more variables: age_group <fct>, source <fct>

# Get data for those screening for colorectal cancer using FOBT
colorectal_screened <- get_colorectal_fobt('2022-01-01', end_date = '2022-06-30')
colorectal_screened
#> # A tibble: 29 × 10
#>    value country element  age_group period     month    year quarter fiscal_year
#>    <dbl> <chr>   <fct>    <fct>     <date>     <ord>   <dbl> <fct>   <fct>      
#>  1     4 Kenya   Positive 65-75     2022-02-01 Februa…  2022 Q3      2021/2022  
#>  2     5 Kenya   Positive 65-75     2022-04-01 April    2022 Q4      2021/2022  
#>  3     9 Kenya   Positive 65-75     2022-03-01 March    2022 Q3      2021/2022  
#>  4    13 Kenya   Negative 45-54     2022-03-01 March    2022 Q3      2021/2022  
#>  5     2 Kenya   Positive 45-54     2022-02-01 Februa…  2022 Q3      2021/2022  
#>  6    24 Kenya   Negative 55-64     2022-03-01 March    2022 Q3      2021/2022  
#>  7     5 Kenya   Negative 55-64     2022-04-01 April    2022 Q4      2021/2022  
#>  8     5 Kenya   Negative 45-54     2022-02-01 Februa…  2022 Q3      2021/2022  
#>  9    44 Kenya   Negative 45-54     2022-04-01 April    2022 Q4      2021/2022  
#> 10    39 Kenya   Positive 55-64     2022-04-01 April    2022 Q4      2021/2022  
#> # ℹ 19 more rows
#> # ℹ 1 more variable: source <chr>
…
If these function do not meet your criteria you can make your target
population using the get_filtered_population().

# Get the cervical screening target population for 2022
cervical_target_population <- get_cervical_target_population(2022)
cervical_target_population
#> # A tibble: 1 × 2
#>   country   target
#>   <chr>      <dbl>
#> 1 Kenya   1112735.

# Get the colorectal cancer screening target population for 20223 by county
colorectal_target_population <- get_colorectal_target_population(2023, level = 'county')
colorectal_target_population
#> # A tibble: 47 × 3
#> # Groups:   country [1]
#>    country county          target
#>    <chr>   <fct>            <dbl>
#>  1 Kenya   Baringo          8277.
#>  2 Kenya   Bomet           10887.
#>  3 Kenya   Bungoma         21427.
#>  4 Kenya   Busia           12263.
#>  5 Kenya   Elgeyo Marakwet  6050.
#>  6 Kenya   Embu            12288.
#>  7 Kenya   Garissa          6872.
#>  8 Kenya   Homa Bay        14163.
#>  9 Kenya   Isiolo           2848.
#> 10 Kenya   Kajiado         12606.
#> # ℹ 37 more rows
…
