Making maps using geofi-package
…
pop_data <- bind_rows(
  tibble(
    municipality_code = polygon$municipality_code
  ) %>% 
    mutate(population = rnorm(n = nrow(.), mean = 2000, sd = 250),
           time = 2020),
  tibble(
    municipality_code = polygon$municipality_code
  ) %>% 
    mutate(population = rnorm(n = nrow(.), mean = 2000, sd = 250),
           time = 2021)
  )
pop_data
#> # A tibble: 618 × 3
#>    municipality_code population  time
#>                <int>      <dbl> <dbl>
#>  1                 5      2021.  2020
#>  2                 9      1621.  2020
#>  3                10      2138.  2020
#>  4                16      1756.  2020
#>  5                18      1980.  2020
#>  6                19      2270.  2020
#>  7                20      1611.  2020
#>  8                35      2135.  2020
#>  9                43      2283.  2020
#> 10                46      1829.  2020
#> # ℹ 608 more rows
…
