forImage vignette
…
         species ind      h d_one  d_two     area       pco
1 aparkinsoniana   1 124.36    52 121.34 11279.95 1.0000000
2 aparkinsoniana   2 113.33    64 111.67  9732.05 1.0000000
3 aparkinsoniana   3  99.88    46  99.43  7507.66 0.6341257
4 aparkinsoniana   4  98.68    40  93.24  6800.34 0.7330045
5 aparkinsoniana   5 189.64    75 184.05 25241.95 0.5468639
6 aparkinsoniana   6 160.18    72 162.75 20475.33 0.5011773

Volumetric calculations

The ammonia data contains test height (h), minor (d_one) and major diameter (d_two), surface area (area) and percent of cell occupancy of 867 individuals from two species of genus Ammonia that were previously measured individually. We calculate the test volume for this genus using the ellipsoid model as follows:

volume.total(ammonia, model = '10hl')

# A tibble: 867 x 8
   species          ind     h d_one d_two   area   pco      vol
   <chr>          <dbl> <dbl> <dbl> <dbl>  <dbl> <dbl>    <dbl>
 1 aparkinsoniana     1 124.     52 121.  11280. 1      410853.
 2 aparkinsoniana     2 113.     64 112.   9732. 1      424092.
 3 aparkinsoniana     3  99.9    46  99.4  7508. 0.634  239195.
 4 aparkinsoniana     4  98.7    40  93.2  6800. 0.733  192704.
 5 aparkinsoniana     5 190.     75 184.  25242. 0.547 1370647.
 6 aparkinsoniana     6 160.     72 163.  20475. 0.501  982789.
 7 aparkinsoniana     7 109.     42 105.   8357. 1      253071.
 8 aparkinsoniana     8 133.     53 118.  10862. 0.335  433931.
 9 aparkinsoniana     9 122.     42 117.  10333. 0.698  312459.
10 aparkinsoniana    10 113.     49 111.   9135. 0.810  321234.
# ... with 857 more rows

total <- dplyr::bind_rows("ammonia" = ammonia, "bolivina" = bolivina, .id = "genus")
total$model[total$genus == "ammonia"] <- "10hl"
total$model[total$genus == "bolivina"] <- "13hlsl"

volume.total(total)

# A tibble: 1,495 x 10
   genus   species          ind     h d_one d_two   area   pco model      vol
   <chr>   <chr>          <dbl> <dbl> <dbl> <dbl>  <dbl> <dbl> <chr>    <dbl>
 1 ammonia aparkinsoniana     1 124.     52 121.  11280. 1     10hl   410853.
 2 ammonia aparkinsoniana     2 113.     64 112.   9732. 1     10hl   424092.
 3 ammonia aparkinsoniana     3  99.9    46  99.4  7508. 0.634 10hl   239195.
 4 ammonia aparkinsoniana     4  98.7    40  93.2  6800. 0.733 10hl   192704.
 5 ammonia aparkinsoniana     5 190.     75 184.  25242. 0.547 10hl  1370647.
 6 ammonia aparkinsoniana     6 160.     72 163.  20475. 0.501 10hl   982789.
 7 ammonia aparkinsoniana     7 109.     42 105.   8357. 1     10hl   253071.
 8 ammonia aparkinsoniana     8 133.     53 118.  10862. 0.335 10hl   433931.
 9 ammonia aparkinsoniana     9 122.     42 117.  10333. 0.698 10hl   312459.
10 ammonia aparkinsoniana    10 113.     49 111.   9135. 0.810 10hl   321234.
# ... with 1,485 more rows
…
