…
`pmc_text` splits paragraphs into sentences and removes any tables,
figures or formulas that are nested within paragraph tags, replaces
superscripted references with brackets, adds carets and underscores to
other superscripts and subscripts and includes the full path to the
subsection title.

``` r
library(dplyr)
txt <- pmc_text(doc)
txt
#  # A tibble: 194 × 4
#     section    paragraph sentence text                                                               
#     <chr>          <int>    <int> <chr>                                                              
#   1 Title              1        1 Comparative transcriptomics in Yersinia pestis: a global view of e…
#   2 Abstract           1        1 Background - Environmental modulation of gene expression in Yersin…
#   3 Abstract           1        2 Using cDNA microarray technology, we have analyzed the global gene…
#   4 Abstract           2        1 Results - To provide us with a comprehensive view of environmental…
#   5 Abstract           2        2 Almost all known virulence genes of Y. pestis were differentially …
#   6 Abstract           2        3 Clustering enabled us to functionally classify co-expressed genes,…
#   7 Abstract           2        4 Collections of operons were predicted from the microarray data, an…
#   8 Abstract           2        5 Several regulatory DNA motifs, probably recognized by the regulato…
#   9 Abstract           3        1 Conclusion - The comparative transcriptomics analysis we present h…
#  10 Background         1        1 Yersinia pestis is the etiological agent of plague, alternatively …
#  # ℹ 184 more rows
count(txt, section)
#  # A tibble: 21 × 2
#     section                                                  n
#     <chr>                                                <int>
#   1 Abstract                                                 8
#   2 Authors' contributions                                   6
#   3 Background                                              20
#   4 Conclusion                                               3
#   5 Methods; Clustering analysis                             7
#   6 Methods; Collection of microarray expression data       17
#   7 Methods; Discovery of regulatory DNA motifs              8
#   8 Methods; Gel mobility shift analysis of Fur binding     13
#   9 Methods; Operon prediction                               5
#  10 Methods; Verification of predicted operons by RT-PCR     7
#  # ℹ 11 more rows
```
…
`pmc_table` formats tables by collapsing multiline headers, expanding
rowspan and colspan attributes and adding subheadings into a new column.

``` r
tab1 <- pmc_table(doc)
#  Parsing 4 tables
#  Adding footnotes to Table 1
sapply(tab1, nrow)
#  Table 1 Table 2 Table 3 Table 4 
#       39      23       4      34
tab1[[1]]
#  # A tibble: 39 × 5
#     subheading                Potential operon (r …¹ `Gene ID` Putative or predicte…² `Reference (s)`
#     <chr>                     <chr>                  <chr>     <chr>                  <chr>          
#   1 Iron uptake or heme synt… yfeABCD operon* (r > … YPO2439-… Transport/binding che… yfeABCD [54]   
#   2 Iron uptake or heme synt… hmuRSTUV operon (r > … YPO0279-… Transport/binding hem… hmuRSTUV [55]  
#   3 Iron uptake or heme synt… ysuJIHG* (r > 0.95)    YPO1529-… Iron uptake            -              
#   4 Iron uptake or heme synt… sufABCDS* (r > 0.90)   YPO2400-… Iron-regulated Fe-S c… -              
#   5 Iron uptake or heme synt… YPO1854-1856* (r > 0.… YPO1854-… Iron uptake or heme s… -              
#   6 Sulfur metabolism         tauABCD operon (r > 0… YPO0182-… Transport/binding tau… tauABCD [56]   
#   7 Sulfur metabolism         ssuEADCB operon (r > … YPO3623-… Sulphur metabolism     ssu operon [57]
#   8 Sulfur metabolism         cys operon (r > 0.92)  YPO3010-… Cysteine synthesis     -              
#   9 Sulfur metabolism         YPO1317-1319 (r > 0.9… YPO1317-… Sulfur metabolism?     -              
#  10 Sulfur metabolism         YPO4109-4111 (r > 0.9… YPO4109-… Sulfur metabolism?     -              
#  # ℹ 29 more rows
#  # ℹ abbreviated names: ¹​`Potential operon (r value)`, ²​`Putative or predicted function`
```
…
Use `collapse_rows` to join column names and cell values in a semi-colon
delimited string (and then search using functions in the next section).

``` r
collapse_rows(tab1, na.string="-")
#  # A tibble: 100 × 3
#     table     row text                                                                               
#     <chr>   <int> <chr>                                                                              
#   1 Table 1     1 subheading=Iron uptake or heme synthesis; Potential operon (r value)=yfeABCD opero…
#   2 Table 1     2 subheading=Iron uptake or heme synthesis; Potential operon (r value)=hmuRSTUV oper…
#   3 Table 1     3 subheading=Iron uptake or heme synthesis; Potential operon (r value)=ysuJIHG* (r >…
#   4 Table 1     4 subheading=Iron uptake or heme synthesis; Potential operon (r value)=sufABCDS* (r …
#   5 Table 1     5 subheading=Iron uptake or heme synthesis; Potential operon (r value)=YPO1854-1856*…
#   6 Table 1     6 subheading=Sulfur metabolism; Potential operon (r value)=tauABCD operon (r > 0.90)…
#   7 Table 1     7 subheading=Sulfur metabolism; Potential operon (r value)=ssuEADCB operon (r > 0.97…
#   8 Table 1     8 subheading=Sulfur metabolism; Potential operon (r value)=cys operon (r > 0.92); Ge…
#   9 Table 1     9 subheading=Sulfur metabolism; Potential operon (r value)=YPO1317-1319 (r > 0.97); …
#  10 Table 1    10 subheading=Sulfur metabolism; Potential operon (r value)=YPO4109-4111 (r > 0.90); …
#  # ℹ 90 more rows
```

`pmc_reference` extracts the id, pmid, authors, year, title, journal,
volume, pages, and DOIs from reference tags.

``` r
ref1 <- pmc_reference(doc)
#  Found 76 citation tags
ref1
#  # A tibble: 76 × 9
#        id pmid     authors                                      year title journal volume pages doi  
#     <int> <chr>    <chr>                                       <int> <chr> <chr>   <chr>  <chr> <chr>
#   1     1 8993858  Perry RD, Fetherston JD                      1997 Yers… Clin M… 10     35-66 <NA> 
#   2     2 16053250 Hinnebusch BJ                                2005 The … Curr I… 7      197-… <NA> 
#   3     3 6469352  Straley SC, Harmon PA                        1984 Yers… Infect… 45     655-… <NA> 
#   4     4 15557646 Huang XZ, Lindler LE                         2004 The … Infect… 72     7212… 10.1…
#   5     5 15721832 Pujol C, Bliska JB                           2005 Turn… Clin I… 114    216-… 10.1…
#   6     6 12732299 Rhodius VA, LaRossa RA                       2003 Uses… Curr O… 6      114-… 10.1…
#   7     7 15342600 Motin VL, Georgescu AM, Fitch JP, Gu PP, N…  2004 Temp… J Bact… 186    6298… 10.1…
#   8     8 15557737 Han Y, Zhou D, Pang X, Song Y, Zhang L, Ba…  2004 Micr… Microb… 48     791-… <NA> 
#   9     9 15777740 Han Y, Zhou D, Pang X, Zhang L, Song Y, To…  2005 DNA … Microb… 7      335-… 10.1…
#  10    10 15808945 Han Y, Zhou D, Pang X, Zhang L, Song Y, To…  2005 Comp… Res Mi… 156    403-… 10.1…
#  # ℹ 66 more rows
```
…
A few wrappers search pre-defined patterns and add an extra step to
expand matched ranges. `separate_refs` matches references within
brackets using `\\[[0-9, -]+\\]` and expands ranges like `[7-9]`.

``` r
x <- separate_refs(txt)
x
#  # A tibble: 93 × 6
#        id match section    paragraph sentence text                                                   
#     <dbl> <chr> <chr>          <int>    <int> <chr>                                                  
#   1     1 [1]   Background         1        1 Yersinia pestis is the etiological agent of plague, al…
#   2     2 [2]   Background         1        3 To produce a transmissible infection, Y. pestis coloni…
#   3     3 [3]   Background         1        9 However, a few bacilli are taken up by tissue macropha…
#   4     4 [4,5] Background         1       10 Residence in this niche also facilitates the bacteria'…
#   5     5 [4,5] Background         1       10 Residence in this niche also facilitates the bacteria'…
#   6     6 [6]   Background         2        1 A DNA microarray is able to determine simultaneous cha…
#   7     7 [7-9] Background         2        2 We and others have measured the gene expression profil…
#   8     8 [7-9] Background         2        2 We and others have measured the gene expression profil…
#   9     9 [7-9] Background         2        2 We and others have measured the gene expression profil…
#  10    10 [10]  Background         2        2 We and others have measured the gene expression profil…
#  # ℹ 83 more rows
…
`separate_tags` expands locus tag ranges.

``` r
collapse_rows(tab1, na="-") %>%
  separate_tags("YPO")
#  # A tibble: 270 × 5
#     id      match        table     row text                                                          
#     <chr>   <chr>        <chr>   <int> <chr>                                                         
#   1 YPO2439 YPO2439-2442 Table 1     1 subheading=Iron uptake or heme synthesis; Potential operon (r…
#   2 YPO2440 YPO2439-2442 Table 1     1 subheading=Iron uptake or heme synthesis; Potential operon (r…
#   3 YPO2441 YPO2439-2442 Table 1     1 subheading=Iron uptake or heme synthesis; Potential operon (r…
#   4 YPO2442 YPO2439-2442 Table 1     1 subheading=Iron uptake or heme synthesis; Potential operon (r…
#   5 YPO0279 YPO0279-0283 Table 1     2 subheading=Iron uptake or heme synthesis; Potential operon (r…
#   6 YPO0280 YPO0279-0283 Table 1     2 subheading=Iron uptake or heme synthesis; Potential operon (r…
#   7 YPO0281 YPO0279-0283 Table 1     2 subheading=Iron uptake or heme synthesis; Potential operon (r…
#   8 YPO0282 YPO0279-0283 Table 1     2 subheading=Iron uptake or heme synthesis; Potential operon (r…
#   9 YPO0283 YPO0279-0283 Table 1     2 subheading=Iron uptake or heme synthesis; Potential operon (r…
#  10 YPO1529 YPO1529-1532 Table 1     3 subheading=Iron uptake or heme synthesis; Potential operon (r…
#  # ℹ 260 more rows
```
…
Genes, species and many other terms are often included within italic
tags. You can mark these nodes using the same code above or simply list
all the names in italics and search text or tables for matches, for
example three letter gene names in text below.

``` r
library(tibble)
x <- xml_name(xml_find_all(doc, "//*"))
tibble(tag=x) %>%
  count(tag, sort=TRUE)
#  # A tibble: 84 × 2
#     tag               n
#     <chr>         <int>
#   1 td              398
#   2 given-names     388
#   3 name            388
#   4 surname         388
#   5 italic          235
#   6 pub-id          129
#   7 tr              117
#   8 xref            108
#   9 year             80
#  10 article-title    77
#  # ℹ 74 more rows
it <- xml_text(xml_find_all(doc, "//sec//p//italic"), trim=TRUE)
it2 <- tibble(italic=it) %>%
  count(italic, sort=TRUE)
it2
#  # A tibble: 53 × 2
#     italic              n
#     <chr>           <int>
#   1 Y. pestis          46
#   2 in vitro            5
#   3 E. coli             4
#   4 psaEFABC            3
#   5 r                   3
#   6 Yersinia            2
#   7 Yersinia pestis     2
#   8 cis                 2
#   9 fur                 2
#  10 n                   2
#  # ℹ 43 more rows
…
