MSCA
…
Our toy dataset is composed of 4856 records 35 long term conditions
and two absorbing states (death of censoring).

EHR %>%
  group_by( reg ) %>%
  tally
#> # A tibble: 37 × 2
#>    reg        n
#>    <chr>  <int>
#>  1 cens    1225
#>  2 death    927
#>  3 ltc_1     88
#>  4 ltc_10   171
#>  5 ltc_11    21
#>  6 ltc_12    83
#>  7 ltc_13   122
#>  8 ltc_14    11
#>  9 ltc_15    91
#> 10 ltc_16   259
#> # ℹ 27 more rows
…
