…
Extract weights for downstream analysis:

``` r
augmented <- augment(result)
augmented[, c("sex", "race", ".weight")]
#> # A tibble: 966 × 3
#>    sex    race     .weight
#>    <chr>  <chr>      <dbl>
#>  1 Female White      0.885
#>  2 Male   White      0.898
#>  3 Female White      0.885
#>  4 Male   <NA>       1.01 
#>  5 Female Black      1.13 
#>  6 Male   White      0.898
#>  7 Male   Black      1.14 
#>  8 Male   Hispanic   1.60 
#>  9 Male   White      0.898
#> 10 Female White      0.885
#> # ℹ 956 more rows
```
…
