Introduction to casabourse
…
La fonction get_info(ticker)

Elle permet d’obtenir des informations rapides sur une
entreprise.

get_info('ATW')

La fonction bySector() :

Elle renvoie une table contenant des données par secteur d’activités.
Elle est une fonction sans argument.

#>Afichage des données par secteur d'activité
bySector()
#> # A tibble: 23 × 4
#>    Secteur                                 Valeur    `Var %` `Var % 31/12`
#>    <chr>                                   <chr>     <chr>   <chr>        
#>  1 SYLVICULTURE & PAPIER                   41,81     1,97 %  40,25 %      
#>  2 ELECTRICITE                             2 645,81  1,20 %  12,76 %      
#>  3 PETROLE & GAZ                           20 241,82 1,14 %  -5,76 %      
#>  4 PARTICIPATION ET PROMOTION IMMOBILIERES 3 265,21  0,80 %  -4,99 %      
#>  5 DISTRIBUTEURS                           43 787,47 0,52 %  -8,45 %      
#>  6 ASSURANCES                              4 974,06  0,49 %  -9,92 %      
#>  7 BANQUES                                 12 982,59 0,35 %  -7,97 %      
#>  8 BOISSONS                                15 140,20 -       -5,54 %      
#>  9 AGROALIMENTAIRE / PRODUCTION            32 907,80 -       -11,14 %     
#> 10 SERVICES AUX COLLECTIVITES              1 067,29  -       8,52 %       
#> # … with 13 more rows

La fonction instruments() :

Elle est sans argument et nous donne les informations sur les
instruments financiers du marché, telles que le code ISIN, le
compartiment, le nombre de titres etc.

#>Afichage les instruments financiers du marché
instruments()
#> # A tibble: 76 × 5
#>    `Code ISIN`  `Libelle instru…` `Secteur/Catég…` Compartiment `Nombre de tit…`
#>    <chr>        <chr>             <chr>            <chr>        <chr>           
#>  1 MA0000012296 AFMA              ACTIONS 1ERE LI… Principal B  1000000         
#>  2 MA0000012114 AFRIC INDUSTRIES… ACTIONS 1ERE LI… Principal B  291500          
#>  3 MA0000010951 AFRIQUIA GAZ      ACTIONS 1ERE LI… Principal A  3437500         
#>  4 MA0000010944 AGMA              ACTIONS 1ERE LI… Alternatif A 200000          
#>  5 MA0000011819 ALLIANCES         ACTIONS 1ERE LI… Principal B  22078588        
#>  6 MA0000010936 ALUMINIUM DU MAR… ACTIONS 1ERE LI… Principal B  465954          
#>  7 MA0000012460 ARADEI CAPITAL    ACTIONS 1ERE LI… Principal F  10645783        
#>  8 MA0000011710 ATLANTASANAD      ACTIONS 1ERE LI… Principal A  60283595        
#>  9 MA0000012445 ATTIJARIWAFA BANK ACTIONS 1ERE LI… Principal A  215140839       
#> 10 MA0000010969 AUTO HALL         ACTIONS 1ERE LI… Principal A  50294528        
#> # … with 66 more rows

La classe de fonctions today. :

C’est une classe de fonctions permettant d’obtenir des informations
de la date d’aujourd’hui. Nous pouvons y trouver les fonctions suivantes
:

today.prizelist(“up_or_down”) : reçoit ‘’up’’ ou
‘’down’’ et renvoie respectivement une table de palmarès de hausse ou de
baisse des cours des instruments du marché

#>Afichage du palmares de hausse des cours de la journée
today.prizelist('up')
#> # A tibble: 38 × 7
#>    Nom          Cours `1 sem. perf.%` `Max 1 sem.` `Min 1 sem.` `Quantité 1 se…`
#>    <chr>        <chr> <chr>           <chr>        <chr>        <chr>           
#>  1 Med Paper P  30,49 +17,27%         31,40        24,94        117 629,00      
#>  2 PROMOPHARM   1 07… +10,03%         1 075,00     977,00       17,00           
#>  3 Ennakl N     32,94 +7,65%          33,00        30,60        4 251,00        
#>  4 Colorado P   50,22 +6,04%          51,50        45,14        16 970,00       
#>  5 Alliances P  64,80 +5,87%          65,30        57,10        170 698,00      
#>  6 EQDOM P      1 17… +5,77%          1 174,00     1 110,00     22,00           
#>  7 S2M P        200,… +4,17%          200,00       190,00       1 595,00        
#>  8 Afric Indus. 379,… +4,12%          382,00       364,00       407,00          
#>  9 Sanlam Maro… 1 30… +4,00%          1 360,00     1 243,00     2 338,00        
#> 10 DISWAY P     736,… +3,66%          768,90       700,50       12 909,00       
#> # … with 28 more rows, and 1 more variable: `Volume 1 sem.` <chr>

today.market() : est sans argument et renvoie le
cours actuel des instruments financier ainsi que leurs variations, leurs
cours à l’ouverture, leurs max etc.

#>Affichage des données du marché d'aujourd'hui
today.market()
#> # A tibble: 76 × 9
#>    Valeur    `Date/Heure` Ouverture Cours `Variation %` Quantité Volume `+ Haut`
#>    <chr>     <chr>        <chr>     <chr> <chr>         <chr>    <chr>  <chr>   
#>  1 Addoha    15:30:11     8,24      8,21  +0,12%        39 070   320 1… 8,29    
#>  2 AFMA      15:30:37     1 500,00  1 50… +1,42%        1        1 500… 1 500,00
#>  3 Afric In… 15:30:30     379,00    379,… 0,00%         5        1 895… 379,00  
#>  4 Afriquia… 15:30:39     4 996,00  4 99… +1,96%        10       49 96… 4 996,00
#>  5 Agma      14:30:47     5 600,00  5 60… 0,00%         30       168 0… 5 600,00
#>  6 Alliances 15:30:11     64,50     64,80 +1,58%        51 803   3 342… 65,30   
#>  7 Aluminiu… 15:30:25     1 557,00  1 59… +0,06%        30       47 88… 1 599,00
#>  8 Aradei C… 15:30:43     445,90    445,… +0,20%        152      67 76… 445,90  
#>  9 ATLANTAS… 15:30:42     127,80    131,… -0,38%        1 181    155 0… 131,95  
#> 10 Attijari… 15:30:46     444,00    445,… +0,34%        11 034   4 889… 445,00  
#> # … with 66 more rows, and 1 more variable: `+ Bas` <chr>

today.transactions() : permet d’obtenir une table
des transactions de la journée. Elle est une fonction sans
argument.

#>Affichages des transactions de la journée
today.transactions()
#> # A tibble: 50 × 5
#>    Heure    `Insturment financier`  Cours  Quantité Volume    
#>    <chr>    <chr>                   <chr>  <chr>    <chr>     
#>  1 15:39:41 SODEP-Marsa Maroc       260,00 84,00    21 840,00 
#>  2 15:39:41 DELATTRE LEVIVIER MAROC 55,00  13,00    715,00    
#>  3 15:39:32 MUTANDIS SCA            230,00 454,00   104 420,00
#>  4 15:39:10 MUTANDIS SCA            230,00 177,00   40 710,00 
#>  5 15:39:07 MUTANDIS SCA            230,00 1 054,00 242 420,00
#>  6 15:38:49 ALLIANCES               64,80  23,00    1 490,40  
#>  7 15:38:49 ALLIANCES               64,80  12,00    777,60    
#>  8 15:38:45 DELATTRE LEVIVIER MAROC 55,00  2,00     110,00    
#>  9 15:38:34 MUTANDIS SCA            230,00 2 000,00 460 000,00
#> 10 15:37:53 DELATTRE LEVIVIER MAROC 55,00  242,00   13 310,00 
#> # … with 40 more rows
…
