Using rcldf to work with Cross-Linguistic Data Format datasets
…
For example, this dataset has a FormTable which connects
to the ParameterTable via Parameter_ID and the
LanguageTable via Language_ID.

Using as.cldf.wide we can combine all the information
from ParameterTable and LanguageTable into the
FormTable:

as.cldf.wide(ds, 'FormTable')
#> Joining Language_ID -> LanguageTable -> ID
#> Joining Parameter_ID -> ParameterTable -> ID
#> # A tibble: 1,960 × 22
#>    ID      Local_ID Language_ID Parameter_ID Value Form  Segments Comment Source
#>    <chr>   <chr>    <chr>       <chr>        <chr> <chr> <chr>    <chr>   <chr> 
#>  1 borong… 90452    borong      i            ni    ni    n i      I       McElh…
#>  2 borong… 91684    borong      where        daaŋ… daaŋ… d a a ŋ… where   McElh…
#>  3 borong… 90466    borong      thou         gi    gi    g i      thou    McElh…
#>  4 borong… 91978    borong      itsflower    dzur… dzur… d z u r… (its) … McElh…
#>  5 borong… 90480    borong      we           nono  nono  n o n o  we      McElh…
#>  6 borong… 91810    borong      hethrows     mesa… mesa… m e s a… (he) t… McElh…
#>  7 borong… 90578    borong      hesays       dzo-  dzo-  d z o -  (he) s… McElh…
#>  8 borong… 92076    borong      itswing      eŋga… eŋga… e ŋ g a… (its) … McElh…
#>  9 borong… 90704    borong      hegivesme    non-  non-  n o n -  (he) g… McElh…
#> 10 borong… 92202    borong      dull         dzit… dzit… d z i t… dull    McElh…
#> # ℹ 1,950 more rows
#> # ℹ 13 more variables: Cognacy <chr>, Loan <lgl>, Name.LanguageTable <chr>,
#> #   Glottocode <chr>, Glottolog_Name <chr>, ISO639P3code <chr>,
#> #   Macroarea <chr>, Latitude <dbl>, Longitude <dbl>, Family <chr>,
#> #   Name.ParameterTable <chr>, Concepticon_ID <chr>, Concepticon_Gloss <chr>
…
glott <- load_glottolog()
conc <- load_concepticon()
clts <- load_clts()
dplace <- load_dplace()

Finding Datasets

rcldf has functions to find other datasets and load them
easily using the CLDF-META project:

datasets()
#> # A tibble: 819 × 21
#>    ID       Dataset  Organisation Version Name  Description Contributor Citation
#>    <chr>    <chr>    <chr>        <chr>   <chr> <chr>       <chr>       <chr>   
#>  1 18439527 rantane… Glottography v1.0.1  "Glo… "<p>Cite t… <NA>        <NA>    
#>  2 18439506 asher20… Glottography v1.0.1  "Glo… "<p>Cite t… <NA>        <NA>    
#>  3 18439497 tarble1… Glottography v1.0.1  "Glo… "<p>Cite t… <NA>        <NA>    
#>  4 18439437 suttles… Glottography v1.0.1  "Glo… "<p>Cite t… <NA>        <NA>    
#>  5 18439377 hochste… Glottography v1.0.1  "Glo… "<p>Cite t… <NA>        <NA>    
#>  6 18439251 haynie2… Glottography v1.0.1  "Glo… "<p>Cite t… <NA>        <NA>    
#>  7 18439221 goddard… Glottography v1.0.1  "Glo… "<p>Cite t… <NA>        <NA>    
#>  8 18439153 zucchi2… Glottography v1.0.1  "Glo… "<p>Cite t… <NA>        <NA>    
#>  9 18439140 wurm198… Glottography v1.0.1  "Glo… "<p>Cite t… <NA>        <NA>    
#> 10 18439091 wikiped… Glottography v1.0.1  "Glo… "<p>Cite t… <NA>        <NA>    
#> # ℹ 809 more rows
#> # ℹ 13 more variables: Creators <chr>, Contributors <chr>, DOI <chr>,
#> #   Concept_DOI <chr>, Concept_ID <chr>, Date <chr>, Communities <chr>,
#> #   License <chr>, Zenodo_Link <chr>, Zenodo_ID <chr>, Zenodo_Keyword <chr>,
#> #   Zenodo_Type <chr>, GitHub_Link <chr>
…
To see what languages we have, let’s use rcldf’s
plotting functionality:

plot_languages(grambank, color_by='Macroarea')

Ok, let’s start by extracting a list of languages in this
dataset:

languages <- grambank$tables$LanguageTable |>
    select(ID, Name, Macroarea, Latitude, Longitude)    
    # only selecting some columns above to make it easier to see    
languages    
#> # A tibble: 2,467 × 5
#>    ID       Name         Macroarea     Latitude Longitude
#>    <chr>    <chr>        <chr>            <dbl>     <dbl>
#>  1 abad1241 Abadi        Papunesia       -9.03     147.  
#>  2 abar1238 Mungbam      Africa           6.58      10.2 
#>  3 abau1245 Abau         Papunesia       -3.97     141.  
#>  4 abee1242 Abé          Africa           5.60      -4.38
#>  5 aben1249 Abenlen Ayta Papunesia       15.4      120.  
#>  6 abip1241 Abipon       South America  -29        -61   
#>  7 abkh1244 Abkhaz       Eurasia         43.1       41.2 
#>  8 abua1245 Abu' Arapesh Papunesia       -3.46     143.  
#>  9 abui1241 Abui         Papunesia       -8.31     125.  
#> 10 abun1252 Abun         Papunesia       -0.571    132.  
#> # ℹ 2,457 more rows
…
Great, let’s get the values for the parameter we want. D-PLACE
indexes the variables in a column Var_ID:

dplace$tables$ValueTable |> filter(Var_ID=='EA113')
#> # A tibble: 1,291 × 11
#>    ID        Soc_ID Var_ID Value    Code_ID  Comment Source sub_case       year 
#>    <chr>     <chr>  <chr>  <chr>    <chr>    <chr>   <chr>  <chr>          <chr>
#>  1 ea-117482 Aa1    EA113  Flexible EA113-2  <NA>    <NA>   Nyai Nyae reg… 1950 
#>  2 ea-117483 Aa2    EA113  <NA>     EA113-NA <NA>    <NA>   <NA>           <NA> 
#>  3 ea-117484 Aa3    EA113  <NA>     EA113-NA <NA>    <NA>   <NA>           <NA> 
#>  4 ea-117485 Aa4    EA113  <NA>     EA113-NA <NA>    <NA>   <NA>           <NA> 
#>  5 ea-117486 Aa5    EA113  Flexible EA113-2  <NA>    <NA>   Epulu net-hun… 1930 
#>  6 ea-117487 Aa6    EA113  <NA>     EA113-NA <NA>    <NA>   <NA>           <NA> 
#>  7 ea-117488 Aa7    EA113  <NA>     EA113-NA <NA>    <NA>   <NA>           <NA> 
#>  8 ea-117489 Aa8    EA113  <NA>     EA113-NA <NA>    <NA>   <NA>           <NA> 
#>  9 ea-117490 Aa9    EA113  <NA>     EA113-NA <NA>    <NA>   <NA>           <NA> 
#> 10 ea-117491 Ab1    EA113  <NA>     EA113-NA <NA>    <NA>   <NA>           <NA> 
#> # ℹ 1,281 more rows
#> # ℹ 2 more variables: source_coded_data <chr>, admin_comment <chr>
…
