…
# Let's rename some columns for convenience
names(tidy_data)[names(tidy_data) == 'Position'] <- 'Pos'
names(tidy_data)[names(tidy_data) == 'Value'] <- 'Val'
names(tidy_data)[names(tidy_data) == 'Treatment'] <- 'Treat'
names(tidy_data)[names(tidy_data) == 'Concentration'] <- 'Conc'
names(tidy_data)[names(tidy_data) == 'Timepoint'] <- 'TP'
```

This is the resulting table:

``` r
tidy_data
#> # A tibble: 96 × 9
#>    Pos     Val Validity Treat  Conc TP    File             Group   Experiment  
#>    <chr> <dbl> <chr>    <chr> <dbl> <chr> <chr>            <chr>   <chr>       
#>  1 A-1   0.342 valid    10%     100 T0    bma_grp1_exp2_T0 Group 1 Experiment A
#>  2 A-2   0.354 valid    10%     100 T0    bma_grp1_exp2_T0 Group 1 Experiment A
#>  3 A-3   0.36  invalid  10%     100 T0    bma_grp1_exp2_T0 Group 1 Experiment A
#>  4 A-4   0.36  invalid  10%     100 T0    bma_grp1_exp2_T0 Group 1 Experiment A
#>  5 A-5   0.352 valid    10%     100 T0    bma_grp1_exp2_T0 Group 1 Experiment A
#>  6 A-6   0.363 invalid  10%     100 T0    bma_grp1_exp2_T0 Group 1 Experiment A
#>  7 A-7   0.361 invalid  10%     100 T0    bma_grp1_exp2_T0 Group 1 Experiment A
#>  8 A-8   0.352 valid    10%     100 T0    bma_grp1_exp2_T0 Group 1 Experiment A
#>  9 A-9   0.356 invalid  10%     100 T0    bma_grp1_exp2_T0 Group 1 Experiment A
#> 10 A-10  0.351 valid    10%     100 T0    bma_grp1_exp2_T0 Group 1 Experiment A
#> # ℹ 86 more rows
```
…
