3-way crosstabs
…
moe_wave_crosstab_3way(df = illinois, x = sex, y = educ6, z = year, weight = weight)
#> Your data includes weights equal to zero. These are removed before calculating the design effect.
#> Your data includes weights equal to zero. These are removed before calculating the design effect.
#> Your data includes weights equal to zero. These are removed before calculating the design effect.
#> Your data includes weights equal to zero. These are removed before calculating the design effect.
#> Your data includes weights equal to zero. These are removed before calculating the design effect.
#> Your data includes weights equal to zero. These are removed before calculating the design effect.
#> Your data includes weights equal to zero. These are removed before calculating the design effect.
#> Your data includes weights equal to zero. These are removed before calculating the design effect.
#> Your data includes weights equal to zero. These are removed before calculating the design effect.
#> Your data includes weights equal to zero. These are removed before calculating the design effect.
#> Your data includes weights equal to zero. These are removed before calculating the design effect.
#> Joining with `by = join_by(year)`
#> # A tibble: 144 × 6
#>     year sex    educ6      pct   moe        n
#>    <dbl> <fct>  <fct>    <dbl> <dbl>    <dbl>
#>  1  1996 Male   LT HS    15.1   1.80 3889089.
#>  2  1996 Male   HS       32.5   2.35 3889089.
#>  3  1996 Male   Some Col 20.3   2.02 3889089.
#>  4  1996 Male   AA        6.11  1.20 3889089.
#>  5  1996 Male   BA       17.7   1.91 3889089.
#>  6  1996 Male   Post-BA   8.38  1.39 3889089.
#>  7  1996 Female LT HS    14.2   1.65 4193383.
#>  8  1996 Female HS       34.8   2.25 4193383.
#>  9  1996 Female Some Col 22.8   1.98 4193383.
#> 10  1996 Female AA        6.72  1.18 4193383.
#> # … with 134 more rows
