crosstabs
…
moe_wave_crosstab(df = illinois, x = year, y = rv, weight = weight)
#> Your data includes weights equal to zero. These are removed before calculating the design effect.
#> Your data includes weights equal to zero. These are removed before calculating the design effect.
#> Your data includes weights equal to zero. These are removed before calculating the design effect.
#> Your data includes weights equal to zero. These are removed before calculating the design effect.
#> Your data includes weights equal to zero. These are removed before calculating the design effect.
#> Your data includes weights equal to zero. These are removed before calculating the design effect.
#> Your data includes weights equal to zero. These are removed before calculating the design effect.
#> Your data includes weights equal to zero. These are removed before calculating the design effect.
#> Your data includes weights equal to zero. These are removed before calculating the design effect.
#> Your data includes weights equal to zero. These are removed before calculating the design effect.
#> Your data includes weights equal to zero. These are removed before calculating the design effect.
#> Joining with `by = join_by(year)`
#> # A tibble: 24 × 5
#>     year rv               pct   moe        n
#>    <dbl> <fct>          <dbl> <dbl>    <dbl>
#>  1  1996 Registered      77.7  1.49 7485319.
#>  2  1996 Not Registered  22.3  1.49 7485319.
#>  3  1998 Registered      75.1  1.57 7364191.
#>  4  1998 Not Registered  24.9  1.57 7364191.
#>  5  2000 Registered      81.2  1.44 7276876.
#>  6  2000 Not Registered  18.8  1.44 7276876.
#>  7  2002 Registered      77.7  1.56 7185545.
#>  8  2002 Not Registered  22.3  1.56 7185545.
#>  9  2004 Registered      83.4  1.38 7719084.
#> 10  2004 Not Registered  16.6  1.38 7719084.
#> # … with 14 more rows
