nzelect - convenient access to New Zealand election-related data
…
## The following objects are masked from 'package:base':
## 
##     intersect, setdiff, setequal, union

nzge %>%
    filter(election_year == 2011) %>%
    mutate(voting_type = paste0(voting_type, " Vote")) %>%
    group_by(party, voting_type) %>%
    summarise(votes = sum(votes)) %>%
    spread(voting_type, votes) %>%
    ungroup() %>%
    arrange(desc(`Party Vote`))

## # A tibble: 25 x 3
##                      party `Candidate Vote` `Party Vote`
##                      <chr>            <dbl>        <dbl>
##  1          National Party          1027696      1058636
##  2            Labour Party           762897       614937
##  3             Green Party           155492       247372
##  4 New Zealand First Party            39892       147544
##  5      Conservative Party            51678        59237
##  6             Maori Party            39320        31982
##  7                    Mana            29872        24168
##  8         ACT New Zealand            31001        23889
##  9    Informal Party Votes               NA        19872
## 10           United Future            18792        13443
## # ... with 15 more rows
…
