dataset_df: Create Datasets that are Easy to Share Exchange and Extend
…
as_tibble() behaves the same way as
as.data.frame() but returns a tibble:

as_tibble(orange_df)
#> # A tibble: 35 × 4
#>    rowid     tree    age circumference
#>    <chr>     <chr> <dbl>         <dbl>
#>  1 orange:1  1       118            30
#>  2 orange:2  1       484            58
#>  3 orange:3  1       664            87
#>  4 orange:4  1      1004           115
#>  5 orange:5  1      1231           120
#>  6 orange:6  1      1372           142
#>  7 orange:7  1      1582           145
#>  8 orange:8  2       118            33
#>  9 orange:9  2       484            69
#> 10 orange:10 2       664           111
#> # ℹ 25 more rows
…
