tidycode
…
The call is library(tidyverse).

Unnest calls into individual functions

Similar to the tidytext package that will unnest groups of words by token using the unnest_tokens() function, such as by word or sentence, we can unnest these calls into individual functions using the unnest_calls() function. To do this, we can pipe the data frame we just created, d into the unnest_calls() function and specify the column that contains the R calls, in this case expr.

library(dplyr)

d_funcs <- d %>%
  unnest_calls(expr)

d_funcs
#> # A tibble: 35 x 4
#>    file                                                     line func   args    
#>    <chr>                                                   <int> <chr>  <list>  
#>  1 /private/var/folders/9x/fpr7_fbn4ln194by50dnpgyw0000gn…     1 libra… <list […
#>  2 /private/var/folders/9x/fpr7_fbn4ln194by50dnpgyw0000gn…     2 +      <list […
#>  3 /private/var/folders/9x/fpr7_fbn4ln194by50dnpgyw0000gn…     2 %>%    <list […
#>  4 /private/var/folders/9x/fpr7_fbn4ln194by50dnpgyw0000gn…     2 %>%    <list […
#>  5 /private/var/folders/9x/fpr7_fbn4ln194by50dnpgyw0000gn…     2 %>%    <list […
#>  6 /private/var/folders/9x/fpr7_fbn4ln194by50dnpgyw0000gn…     2 select <list […
#>  7 /private/var/folders/9x/fpr7_fbn4ln194by50dnpgyw0000gn…     2 filter <list […
#>  8 /private/var/folders/9x/fpr7_fbn4ln194by50dnpgyw0000gn…     2 !      <list […
#>  9 /private/var/folders/9x/fpr7_fbn4ln194by50dnpgyw0000gn…     2 is.na  <list […
#> 10 /private/var/folders/9x/fpr7_fbn4ln194by50dnpgyw0000gn…     2 !      <list […
#> # … with 25 more rows
…
Notice we know have one classification per function. If we left the incude_duplicates parameter to its default, TRUE, we would end up with more than one classification per function along with a score column.

d_funcs %>%
  anti_join(get_stopfuncs()) %>%
  inner_join(get_classifications("crowdsource")) %>%
  select(func, classification, score)
#> Joining, by = "func"Joining, by = "func"
#> # A tibble: 115 x 3
#>    func    classification   score
#>    <chr>   <chr>            <dbl>
#>  1 library setup          0.687  
#>  2 library import         0.213  
#>  3 library visualization  0.0339 
#>  4 library data cleaning  0.0278 
#>  5 library modeling       0.0134 
#>  6 library exploratory    0.0128 
#>  7 library communication  0.00835
#>  8 library evaluation     0.00278
#>  9 library export         0.00111
#> 10 select  data cleaning  0.636  
#> # … with 105 more rows
