Using the Fully Bayesian Model in rubias
…
Note that the output generated by “BR” is still a list of four tidy
data frames, but the bootstrapped_proportions data frame of
methods “MCMC” and “PB” is replaced with an
allele_frequencies data frame. This data frame contains the
posterior mean allele frequencies (theta) for each population, updated
based on the allocations of mixture individuals throughout MCMC. The
first three columns specify the mixture collection, locus and allele in
question, and all subsequent columns report the frequency for a
particular population.

full_model$allele_frequencies

## # A tibble: 546 × 9
##    mixture_collection locus   allele Deer_Cr_sp Feather_H_fa Sacramento_H  Eel_R
##    <chr>              <chr>   <chr>       <dbl>        <dbl>        <dbl>  <dbl>
##  1 rec3               AldB1.… 2          0.834       0.916       0.895    0.933 
##  2 rec3               AldB1.… 4          0.166       0.0838      0.105    0.0667
##  3 rec3               AldoB4… 1          0.0342      0.00128     0.000721 0.0492
##  4 rec3               AldoB4… 4          0.966       0.999       0.999    0.951 
##  5 rec3               OTNAML… 1          0.233       0.203       0.448    0.254 
##  6 rec3               OTNAML… 3          0.767       0.797       0.552    0.746 
##  7 rec3               OTSBMP… 2          0.850       0.772       0.551    0.977 
##  8 rec3               OTSBMP… 4          0.150       0.228       0.449    0.0230
##  9 rec3               OTSTF1… 3          0.888       0.888       0.685    0.865 
## 10 rec3               OTSTF1… 4          0.112       0.112       0.315    0.135 
## # ℹ 536 more rows
## # ℹ 2 more variables: Klamath_IGH_fa <dbl>, Umpqua_sp <dbl>
…
