Getting started with dhis2r
…
Get access rights information about the account

dhis2_play_connection$access_rights
#>      manage externalize       write        read      update      delete 
#>        TRUE       FALSE        TRUE        TRUE        TRUE        TRUE

Get metadata

Get all resources on which you can get metadata on.

 dhis2_play_connection$get_metadata()
#> # A tibble: 87 × 4
#>    displayName              singular              plural                 href   
#>    <chr>                    <chr>                 <chr>                  <chr>  
#>  1 Program Sections         programSection        programSections        https:…
#>  2 Program Data Elements    programDataElement    programDataElements    https:…
#>  3 Organisation Unit Levels organisationUnitLevel organisationUnitLevels https:…
#>  4 Indicator Group Sets     indicatorGroupSet     indicatorGroupSets     https:…
#>  5 Map Views                mapView               mapViews               https:…
#>  6 Tracked Entity Types     trackedEntityType     trackedEntityTypes     https:…
#>  7 Relationship Types       relationshipType      relationshipTypes      https:…
#>  8 Min Max Data Elements    minMaxDataElement     minMaxDataElements     https:…
#>  9 Program Indicator Groups programIndicatorGroup programIndicatorGroups https:…
#> 10 Sections                 section               sections               https:…
#> # … with 77 more rows

Get metadata on Data Elements using the plural name
dataElements.

dhis2_play_connection$get_metadata(endpoint = "dataElements")
#> # A tibble: 1,046 × 2
#>    name                                      id         
#>    <chr>                                     <chr>      
#>  1 Accute Flaccid Paralysis (Deaths < 5 yrs) FTRrcoaog83
#>  2 Acute Flaccid Paralysis (AFP) follow-up   P3jJH5Tu5VC
#>  3 Acute Flaccid Paralysis (AFP) new         FQ2o8UBlcrS
#>  4 Acute Flaccid Paralysis (AFP) referrals   M62VHgYT2n0
#>  5 Additional medication                     WO8yRIZb7nb
#>  6 Additional notes related to facility      uF1DLnZNlWe
#>  7 Admission Date                            eMyVanycQSC
#>  8 Age in years                              qrur9Dvnyt5
#>  9 Age of LLINs                              JuTpJ2Ywq5b
#> 10 Albendazole given at ANC (2nd trimester)  hCVSHjcml9g
#> # … with 1,036 more rows
…
Getting metadata fields beyond ID and Name

dataElements

 dhis2_play_connection$get_metadata(endpoint = "dataElements", fields = c("name","id","aggregationType"))
#> # A tibble: 1,046 × 3
#>    name                                      aggregationType id         
#>    <chr>                                     <chr>           <chr>      
#>  1 Accute Flaccid Paralysis (Deaths < 5 yrs) SUM             FTRrcoaog83
#>  2 Acute Flaccid Paralysis (AFP) follow-up   SUM             P3jJH5Tu5VC
#>  3 Acute Flaccid Paralysis (AFP) new         SUM             FQ2o8UBlcrS
#>  4 Acute Flaccid Paralysis (AFP) referrals   SUM             M62VHgYT2n0
#>  5 Additional medication                     NONE            WO8yRIZb7nb
#>  6 Additional notes related to facility      SUM             uF1DLnZNlWe
#>  7 Admission Date                            AVERAGE         eMyVanycQSC
#>  8 Age in years                              AVERAGE         qrur9Dvnyt5
#>  9 Age of LLINs                              SUM             JuTpJ2Ywq5b
#> 10 Albendazole given at ANC (2nd trimester)  SUM             hCVSHjcml9g
#> # … with 1,036 more rows

organisationUnits

dhis2_play_connection$get_metadata(endpoint = "organisationUnits",
                                                        fields =  c("name","id", "level"))
#> # A tibble: 1,334 × 3
#>    name                        id          level
#>    <chr>                       <chr>       <int>
#>  1 "Adonkia CHP"               Rp268JB6Ne4     4
#>  2 "Afro Arab Clinic"          cDw53Ej8rju     4
#>  3 "Agape CHP"                 GvFqTavdpGE     4
#>  4 "Ahamadyya Mission Cl"      plnHVbJR6p4     4
#>  5 "Ahmadiyya Muslim Hospital" BV4IomHvri4     4
#>  6 "Air Port Centre, Lungi"    qjboFI0irVu     4
#>  7 "Alkalia CHP"               dWOAzMcK2Wt     4
#>  8 "Allen Town Health Post"    kbGqmM6ZWWV     4
#>  9 "Amhara Health Office "     t5C2hAOPhYF     2
#> 10 "Approved School CHP"       eoYV2p74eVz     4
#> # … with 1,324 more rows
…
indicators

dhis2_play_connection$get_metadata(endpoint = "indicators")
#> # A tibble: 77 × 2
#>    name                                 id         
#>    <chr>                                <chr>      
#>  1 ANC 1-3 Dropout Rate                 ReUHfIn0pTQ
#>  2 ANC 1 Coverage                       Uvn6LCg7dVU
#>  3 ANC 2 Coverage                       OdiHJayrsKo
#>  4 ANC 3 Coverage                       sB79w2hiLp8
#>  5 ANC => 4 Coverage                    AUqdhY4mpvp
#>  6 ANC IPT 1 Coverage                   dwEq7wi6nXV
#>  7 ANC IPT 2 Coverage                   c8fABiNpT0B
#>  8 ANC LLITN coverage                   Tt5TAvdfdVK
#>  9 ANC TT2 coverage                     puykO1tbcdi
#> 10 ANC visits per clinical professional Lzg9LtG1xg3
#> # … with 67 more rows
…
