tidybins
…
tibble::tibble(SALES = as.integer(rnorm(1000L, mean = 10000L, sd = 3000))) -> sales_data

sales_data %>% 
  bin_cols(SALES, bin_type = "value") -> sales_data1
#> Warning: SALES contains negative values. Negative values are treated as 0.

sales_data1
#> # A tibble: 1,000 × 2
#>    SALES SALES_va10
#>    <int>      <int>
#>  1 10609          5
#>  2  8370          2
#>  3 10786          6
#>  4 12320          8
#>  5 11110          6
#>  6 10797          6
#>  7 10213          5
#>  8  7287          2
#>  9  9904          4
#> 10  6460          1
#> # ℹ 990 more rows
…
