Aligning Data to a Specific Sample Message
…
check_all_msgs(data = aligndat)

## # A tibble: 2 x 1
##   SAMPLE_MESSAGE
##   <fct>         
## 1 TIMER_1       
## 2 PLAY_target

## Set ReturnData to TRUE to output full, event-specific information.

Using the function check_msg_time you can see that the TIMESTAMP values associated with the message are not the same for each event. This indicates that alignment is required. Note that a regular expression (regex) can be used here as the message string.

check_msg_time(data = aligndat, Msg = "TIMER_1")

## # A tibble: 75 x 2
##    SAMPLE_MESSAGE TIMESTAMP
##    <fct>              <dbl>
##  1 TIMER_1          3658426
##  2 TIMER_1          3714594
##  3 TIMER_1          3725422
##  4 TIMER_1          3736366
##  5 TIMER_1          3794430
##  6 TIMER_1          3805278
##  7 TIMER_1          3859118
##  8 TIMER_1          3882002
##  9 TIMER_1          3903726
## 10 TIMER_1          3960078
## # … with 65 more rows
…
