BETYdb Tutorial
…
Traits

Get trait data for Miscanthus giganteus

out <- betydb_search(query = "Switchgrass Yield")

Summarise data from the output data.frame

suppressPackageStartupMessages(library("dplyr"))
out %>%
  group_by(id) %>%
  summarise(mean_result = mean(as.numeric(mean), na.rm = TRUE)) %>%
  arrange(desc(mean_result))

#> # A tibble: 449 x 2
#>       id mean_result
#>    <int>       <dbl>
#>  1  1666        27.4
#>  2 16845        27  
#>  3  1669        26.4
#>  4 16518        26  
#>  5  1663        25.4
#>  6 16742        25  
#>  7  1594        24.8
#>  8  1674        22.7
#>  9  1606        22.5
#> 10  1665        22.5
#> # … with 439 more rows
…
