An example with simulated data
…
sfa_boundaries
#> Simple feature collection with 4 features and 2 fields
#> Geometry type: MULTIPOLYGON
#> Dimension:     XY
#> Bounding box:  xmin: -64.18658 ymin: 46.00004 xmax: -46.6269 ymax: 60.84333
#> Geodetic CRS:  WGS 84
#>   sfa                       geometry               area
#> 1   4 MULTIPOLYGON (((-59.36453 5...  47575648300 [m^2]
#> 2   5 MULTIPOLYGON (((-55 53.75, ...  62857719164 [m^2]
#> 3   6 MULTIPOLYGON (((-49.9269 49... 178716060645 [m^2]
#> 4   7 MULTIPOLYGON (((-54.48779 4... 147799572836 [m^2]
borealis_simulated
#> # A tibble: 1,800 × 8
#>    year_f sfa   weight_per_km2 temp_at_bottom lon_dec lat_dec   row uniqueID  
#>    <fct>  <chr>          <dbl>          <dbl>   <dbl>   <dbl> <int> <chr>     
#>  1 1995   7               14.7          1.31    -62.8    59.2     1 y1995s7r1 
#>  2 1995   7              366.           0       -56.7    55.2     2 y1995s7r2 
#>  3 1995   7              108.           0.982   -60.6    56.9     3 y1995s7r3 
#>  4 1995   7               62.3          0       -58.0    56.4     4 y1995s7r4 
#>  5 1995   7                0            0.698   -59.0    57.1     5 y1995s7r5 
#>  6 1995   7                0            1.45    -58.8    56.3     6 y1995s7r6 
#>  7 1995   7              236.           1.05    -51.1    50.7     7 y1995s7r7 
#>  8 1995   7               68.2          0       -54.1    54.5     8 y1995s7r8 
#>  9 1995   7               93.6          1.86    -54.9    53.7     9 y1995s7r9 
#> 10 1995   7               25.4          1.74    -54.7    50.5    10 y1995s7r10
#> # ℹ 1,790 more rows
predator_simulated
#> # A tibble: 10,200 × 7
#>    year_f sfa   weight_per_km2 lon_dec lat_dec   row uniqueID  
#>    <fct>  <chr>          <dbl>   <dbl>   <dbl> <int> <chr>     
#>  1 1995   7               9.90   -61.0    60.0     1 y1995s7r1 
#>  2 1995   7             128.     -60.0    57.6     2 y1995s7r2 
#>  3 1995   7             358.     -58.0    55.6     3 y1995s7r3 
#>  4 1995   7               0      -58.0    55.9     4 y1995s7r4 
#>  5 1995   7             103.     -60.5    57.2     5 y1995s7r5 
#>  6 1995   7              57.3    -53.7    51.8     6 y1995s7r6 
#>  7 1995   7              58.6    -53.6    50.7     7 y1995s7r7 
#>  8 1995   7               0      -50.2    50.1     8 y1995s7r8 
#>  9 1995   7               0      -54.6    54.0     9 y1995s7r9 
#> 10 1995   7             131.     -52.8    51.0    10 y1995s7r10
#> # ℹ 10,190 more rows
catch_simulated
#> # A tibble: 2,020 × 7
#>    year_f sfa   catch lon_dec lat_dec   row uniqueID  
#>    <fct>  <chr> <dbl>   <dbl>   <dbl> <int> <chr>     
#>  1 1991   4     2527.   -62.2    59.5     1 y1991s4r1 
#>  2 1991   4     4194.   -61.0    58.0     2 y1991s4r2 
#>  3 1991   4     7438.   -62.4    60.3     3 y1991s4r3 
#>  4 1991   4        0    -58.2    55.2     4 y1991s4r4 
#>  5 1991   4     3837.   -57.8    55.5     5 y1991s4r5 
#>  6 1991   4     3196.   -58.6    56.3     6 y1991s4r6 
#>  7 1991   4     3214.   -57.9    55.7     7 y1991s4r7 
#>  8 1991   4        0    -56.4    54.4     8 y1991s4r8 
#>  9 1991   4      539.   -58.9    55.6     9 y1991s4r9 
#> 10 1991   4     4234.   -55.2    53.2    10 y1991s4r10
#> # ℹ 2,010 more rows
…
## Not run
plot(bounds_delaunay)

The results of the discretization can also be explored with
spm_patches() and spm_points().

spm_patches(bounds_voronoi)
#> Simple feature collection with 85 features and 3 fields
#> Geometry type: POLYGON
#> Dimension:     XY
#> Bounding box:  xmin: -64.18658 ymin: 46.00004 xmax: -46.6269 ymax: 60.84489
#> Geodetic CRS:  WGS 84
#> # A tibble: 85 × 4
#>    sfa   patch_id patch_area                                            geometry
#>  * <fct> <fct>        [km^2]                                       <POLYGON [°]>
#>  1 4     P1            3328. ((-63.11402 59.66424, -62.83338 60.43615, -63 60.8…
#>  2 4     P2            4099. ((-62.00856 58.53059, -61.78999 58.61768, -61.4823…
#>  3 4     P3            3308. ((-61.80265 59.43396, -61.97171 59.81804, -62.0892…
#>  4 4     P4            6814. ((-61.48231 59.06057, -61.78999 58.61768, -61.1115…
#>  5 4     P5            1677. ((-59.37831 57.67423, -59.43377 57.71988, -59.4892…
#>  6 4     P6            2282. ((-59.70893 58.16354, -60.11445 58.34307, -60.2929…
#>  7 4     P7            9080. ((-60.07796 59.21579, -60.11318 59.24152, -60.1409…
#>  8 4     P8            3003. ((-62.7581 59.09816, -62.49637 59.37714, -62.69224…
#>  9 4     P9           10478. ((-62.08921 59.41056, -61.97171 59.81804, -61.8026…
#> 10 4     P10           1601. ((-61.38138 58.03343, -61.11151 58.34397, -61.7899…
#> # ℹ 75 more rows
spm_points(bounds_voronoi)
#> Simple feature collection with 120 features and 9 fields
#> Geometry type: POINT
#> Dimension:     XY
#> Bounding box:  xmin: -63.35709 ymin: 46.12884 xmax: -47.23827 ymax: 60.77991
#> Geodetic CRS:  WGS 84
#> # A tibble: 120 × 10
#> # Groups:   sfa [4]
#>    year_f weight_per_km2 temp_at_bottom lon_dec lat_dec   row uniqueID   
#>  * <fct>       [kg/km^2]          <dbl>   <dbl>   <dbl> <int> <chr>      
#>  1 1995               0           0.676   -49.0    47.6    16 y1995s7r16 
#>  2 1995               0           0.808   -60.2    57.3    46 y1995s5r46 
#>  3 1995               0           0       -60.0    57.4    47 y1995s5r47 
#>  4 1996               0           1.36    -60.5    57.7    81 y1996s6r81 
#>  5 1996           14731.          2.46    -55.5    54.8    86 y1996s6r86 
#>  6 1996            9112.          3.47    -56.1    55.2   104 y1996s5r104
#>  7 1996            5442.          1.74    -55.8    50.0   109 y1996s5r109
#>  8 1996           19154.          0.747   -54.8    53.1   112 y1996s5r112
#>  9 1996           11333.          3.43    -47.2    46.5   120 y1996s5r120
#> 10 1996            2746.          1.51    -55.9    54.5   123 y1996s4r123
#> # ℹ 110 more rows
#> # ℹ 3 more variables: geometry <POINT [°]>, sfa <fct>, area_sfa [km^2]
…
