Getting started with ARUtools
…
First things first, we’ll clean up the meta data associated with the
files.

m <- clean_metadata(project_files = example_files)
#> Extracting ARU info...
#> Extracting Dates and Times...

Because our example files follow the standard formats for Site ID,
ARU Id, and date/time, we can extract all the information without having
to change any of the default arguments.

m
#> # A tibble: 42 × 11
#>   file_name     type  path  aru_id manufacturer model aru_type site_id tz_offset
#>   <chr>         <chr> <chr> <chr>  <chr>        <chr> <chr>    <chr>   <chr>    
#> 1 P01_1_202005… wav   a_BA… BARLT… Frontier La… BAR-… BARLT    P01_1   -0400    
#> 2 P01_1_202005… wav   a_BA… BARLT… Frontier La… BAR-… BARLT    P01_1   -0400    
#> 3 P02_1_202005… wav   a_S4… S4A01… Wildlife Ac… Song… SongMet… P02_1   <NA>     
#> 4 P02_1_202005… wav   a_S4… S4A01… Wildlife Ac… Song… SongMet… P02_1   <NA>     
#> # ℹ 38 more rows
#> # ℹ 2 more variables: date_time <dttm>, date <date>
…
Hmm, that’s an interesting message! This means that some of our
deployment dates overlap. ARUtools assumes that if you set out an ARU on
a specific day, you probably didn’t set it out at midnight (i.e. the
very start of that day). Since we assume you are likely using ARUs for
recording in the early morning or late at night, we shift the dates
start/end times to noon as an estimate of when the ARU was likely
deployed.

If your ARU was deployed at midnight, use
resolve_ovelaps = FALSE. Or, if you know the exact time
your ARU was deployed, use a date/time rather than just a date in your
site index.

sites
#> # A tibble: 10 × 8
#>   site_id aru_id   date_time_start     date_time_end       date_start date_end  
#>   <chr>   <chr>    <dttm>              <dttm>              <date>     <date>    
#> 1 P01_1   BARLT10… 2020-05-01 12:00:00 2020-05-03 12:00:00 2020-05-01 2020-05-03
#> 2 P02_1   S4A01234 2020-05-03 12:00:00 2020-05-05 12:00:00 2020-05-03 2020-05-05
#> 3 P03_1   BARLT10… 2020-05-05 12:00:00 2020-05-06 12:00:00 2020-05-05 2020-05-06
#> 4 P04_1   BARLT11… 2020-05-05 12:00:00 2020-05-07 12:00:00 2020-05-05 2020-05-07
#> # ℹ 6 more rows
#> # ℹ 2 more variables: longitude <dbl>, latitude <dbl>
…
We can retain these by specifying cols_extra.

sites <- clean_site_index(example_sites,
  name_aru_id = "ARU",
  name_site_id = "Sites",
  name_date_time = c("Date_set_out", "Date_removed"),
  name_coords = c("lon", "lat"),
  name_extra = c("Plots", "Subplot")
)
#> There are overlapping date ranges
#> • Shifting start/end times to 'noon'
#> • Skip this with `resolve_overlaps = FALSE`
sites
#> # A tibble: 10 × 10
#>   site_id aru_id   date_time_start     date_time_end       date_start date_end  
#>   <chr>   <chr>    <dttm>              <dttm>              <date>     <date>    
#> 1 P01_1   BARLT10… 2020-05-01 12:00:00 2020-05-03 12:00:00 2020-05-01 2020-05-03
#> 2 P02_1   S4A01234 2020-05-03 12:00:00 2020-05-05 12:00:00 2020-05-03 2020-05-05
#> 3 P03_1   BARLT10… 2020-05-05 12:00:00 2020-05-06 12:00:00 2020-05-05 2020-05-06
#> 4 P04_1   BARLT11… 2020-05-05 12:00:00 2020-05-07 12:00:00 2020-05-05 2020-05-07
#> # ℹ 6 more rows
#> # ℹ 4 more variables: longitude <dbl>, latitude <dbl>, Plots <chr>,
#> #   Subplot <chr>
We can even be fancy and rename them for consistency by using named
vectors.

sites <- clean_site_index(example_sites,
  name_aru_id = "ARU",
  name_site_id = "Sites",
  name_date_time = c("Date_set_out", "Date_removed"),
  name_coords = c("lon", "lat"),
  name_extra = c("plot" = "Plots", "subplot" = "Subplot")
)
#> There are overlapping date ranges
#> • Shifting start/end times to 'noon'
#> • Skip this with `resolve_overlaps = FALSE`
sites
#> # A tibble: 10 × 10
#>   site_id aru_id   date_time_start     date_time_end       date_start date_end  
#>   <chr>   <chr>    <dttm>              <dttm>              <date>     <date>    
#> 1 P01_1   BARLT10… 2020-05-01 12:00:00 2020-05-03 12:00:00 2020-05-01 2020-05-03
#> 2 P02_1   S4A01234 2020-05-03 12:00:00 2020-05-05 12:00:00 2020-05-03 2020-05-05
#> 3 P03_1   BARLT10… 2020-05-05 12:00:00 2020-05-06 12:00:00 2020-05-05 2020-05-06
#> 4 P04_1   BARLT11… 2020-05-05 12:00:00 2020-05-07 12:00:00 2020-05-05 2020-05-07
#> # ℹ 6 more rows
#> # ℹ 4 more variables: longitude <dbl>, latitude <dbl>, plot <chr>,
#> #   subplot <chr>

Now let’s add this site-related information to our metadata.

m <- add_sites(m, sites)
#> Joining by columns `date_time_start` and `date_time_end`
m
#> # A tibble: 42 × 15
#>   file_name     type  path  aru_id manufacturer model aru_type site_id tz_offset
#>   <chr>         <chr> <chr> <chr>  <chr>        <chr> <chr>    <chr>   <chr>    
#> 1 P01_1_202005… wav   a_BA… BARLT… Frontier La… BAR-… BARLT    P01_1   -0400    
#> 2 P01_1_202005… wav   a_BA… BARLT… Frontier La… BAR-… BARLT    P01_1   -0400    
#> 3 P02_1_202005… wav   a_S4… S4A01… Wildlife Ac… Song… SongMet… P02_1   <NA>     
#> 4 P02_1_202005… wav   a_S4… S4A01… Wildlife Ac… Song… SongMet… P02_1   <NA>     
#> # ℹ 38 more rows
#> # ℹ 6 more variables: date_time <dttm>, date <date>, longitude <dbl>,
#> #   latitude <dbl>, plot <chr>, subplot <chr>
…
