Working with spatial data
…
library(ARUtools)
library(sf)
library(dplyr)

Here we’ll cover some workflows using spatial data. For a general
workflow, best take a look at the “Getting started with ARUtools”
first.

We’ll start with our metadata data frame.

m <- clean_metadata(project_files = example_files)
#> Extracting ARU info...
#> Extracting Dates and Times...
m
#> # A tibble: 42 × 11
#>   file_name     type  path  aru_id manufacturer model aru_type site_id tz_offset
#>   <chr>         <chr> <chr> <chr>  <chr>        <chr> <chr>    <chr>   <chr>    
#> 1 P01_1_202005… wav   a_BA… BARLT… Frontier La… BAR-… BARLT    P01_1   -0400    
#> 2 P01_1_202005… wav   a_BA… BARLT… Frontier La… BAR-… BARLT    P01_1   -0400    
#> 3 P02_1_202005… wav   a_S4… S4A01… Wildlife Ac… Song… SongMet… P02_1   <NA>     
#> 4 P02_1_202005… wav   a_S4… S4A01… Wildlife Ac… Song… SongMet… P02_1   <NA>     
#> # ℹ 38 more rows
#> # ℹ 2 more variables: date_time <dttm>, date <date>
…
sites <- clean_site_index(s,
  name_aru_id = "ARU",
  name_site_id = "Sites",
  name_date_time = c("Date_set_out", "Date_removed")
)
#> There are overlapping date ranges
#> • Shifting start/end times to 'noon'
#> • Skip this with `resolve_overlaps = FALSE`
sites
#> Simple feature collection with 10 features and 6 fields
#> Geometry type: POINT
#> Dimension:     XY
#> Bounding box:  xmin: -91.38 ymin: 45 xmax: -84.45 ymax: 52.68
#> Geodetic CRS:  WGS 84
#> # A tibble: 10 × 7
#>   site_id aru_id   date_time_start     date_time_end       date_start date_end  
#> * <chr>   <chr>    <dttm>              <dttm>              <date>     <date>    
#> 1 P01_1   BARLT10… 2020-05-01 12:00:00 2020-05-03 12:00:00 2020-05-01 2020-05-03
#> 2 P02_1   S4A01234 2020-05-03 12:00:00 2020-05-05 12:00:00 2020-05-03 2020-05-05
#> 3 P03_1   BARLT10… 2020-05-05 12:00:00 2020-05-06 12:00:00 2020-05-05 2020-05-06
#> 4 P04_1   BARLT11… 2020-05-05 12:00:00 2020-05-07 12:00:00 2020-05-05 2020-05-07
#> # ℹ 6 more rows
#> # ℹ 1 more variable: geometry <POINT [°]>

Note that we still have a spatial data set.

Now let’s add this site-related information to our metadata.

m <- add_sites(m, sites)
#> Joining by columns `date_time_start` and `date_time_end`
m
#> Simple feature collection with 42 features and 11 fields
#> Geometry type: POINT
#> Dimension:     XY
#> Bounding box:  xmin: -91.38 ymin: 45 xmax: -84.45 ymax: 52.68
#> Geodetic CRS:  WGS 84
#> # A tibble: 42 × 12
#>   file_name     type  path  aru_id manufacturer model aru_type site_id tz_offset
#> * <chr>         <chr> <chr> <chr>  <chr>        <chr> <chr>    <chr>   <chr>    
#> 1 P01_1_202005… wav   a_BA… BARLT… Frontier La… BAR-… BARLT    P01_1   -0400    
#> 2 P01_1_202005… wav   a_BA… BARLT… Frontier La… BAR-… BARLT    P01_1   -0400    
#> 3 P02_1_202005… wav   a_S4… S4A01… Wildlife Ac… Song… SongMet… P02_1   <NA>     
#> 4 P02_1_202005… wav   a_S4… S4A01… Wildlife Ac… Song… SongMet… P02_1   <NA>     
#> # ℹ 38 more rows
#> # ℹ 3 more variables: date_time <dttm>, date <date>, geometry <POINT [°]>

Again our output is as a spatial data set.

Let’s continue by adding times to sunrise/sunset.

m <- calc_sun(m)
m
#> Simple feature collection with 42 features and 14 fields
#> Geometry type: POINT
#> Dimension:     XY
#> Bounding box:  xmin: -91.38 ymin: 45 xmax: -84.45 ymax: 52.68
#> Geodetic CRS:  WGS 84
#> # A tibble: 42 × 15
#>   file_name     type  path  aru_id manufacturer model aru_type site_id tz_offset
#>   <chr>         <chr> <chr> <chr>  <chr>        <chr> <chr>    <chr>   <chr>    
#> 1 P01_1_202005… wav   a_BA… BARLT… Frontier La… BAR-… BARLT    P01_1   -0400    
#> 2 P01_1_202005… wav   a_BA… BARLT… Frontier La… BAR-… BARLT    P01_1   -0400    
#> 3 P02_1_202005… wav   a_S4… S4A01… Wildlife Ac… Song… SongMet… P02_1   <NA>     
#> 4 P02_1_202005… wav   a_S4… S4A01… Wildlife Ac… Song… SongMet… P02_1   <NA>     
#> # ℹ 38 more rows
#> # ℹ 6 more variables: date_time <dttm>, date <date>, tz <chr>, t2sr <dbl>,
#> #   t2ss <dbl>, geometry <POINT [°]>
…
sites <- sites[-1, ] # Omit that first site

m <- add_sites(m, sites)
#> Joining by columns `date_time_start` and `date_time_end`
#> Identified possible problems with metadata extraction:
#> ✖ Not all files were matched to a site reference (6/42)
#> • Consider adjusting the `by` argument
#> Warning in add_sites(m, sites): Cannot have missing coordinates in spatial data frames
#> • Returning non-spatial data frame
m
#> # A tibble: 42 × 13
#>   file_name     type  path  aru_id manufacturer model aru_type site_id tz_offset
#>   <chr>         <chr> <chr> <chr>  <chr>        <chr> <chr>    <chr>   <chr>    
#> 1 P01_1_202005… wav   a_BA… BARLT… Frontier La… BAR-… BARLT    P01_1   -0400    
#> 2 P01_1_202005… wav   a_BA… BARLT… Frontier La… BAR-… BARLT    P01_1   -0400    
#> 3 P02_1_202005… wav   a_S4… S4A01… Wildlife Ac… Song… SongMet… P02_1   <NA>     
#> 4 P02_1_202005… wav   a_S4… S4A01… Wildlife Ac… Song… SongMet… P02_1   <NA>     
#> # ℹ 38 more rows
#> # ℹ 4 more variables: date_time <dttm>, date <date>, longitude <dbl>,
#> #   latitude <dbl>
…
m <- clean_metadata(project_files = example_files) |>
  filter(date > "2020-05-03") # Filter out recordings that don't match a site
#> Extracting ARU info...
#> Extracting Dates and Times...

m <- add_sites(m, sites)
#> Joining by columns `date_time_start` and `date_time_end`
m
#> Simple feature collection with 36 features and 11 fields
#> Geometry type: POINT
#> Dimension:     XY
#> Bounding box:  xmin: -91.38 ymin: 45 xmax: -84.45 ymax: 52.68
#> Geodetic CRS:  WGS 84
#> # A tibble: 36 × 12
#>   file_name     type  path  aru_id manufacturer model aru_type site_id tz_offset
#> * <chr>         <chr> <chr> <chr>  <chr>        <chr> <chr>    <chr>   <chr>    
#> 1 P02_1_202005… wav   a_S4… S4A01… Wildlife Ac… Song… SongMet… P02_1   <NA>     
#> 2 P02_1_202005… wav   a_S4… S4A01… Wildlife Ac… Song… SongMet… P02_1   <NA>     
#> 3 P03_1_202005… wav   a_BA… BARLT… Frontier La… BAR-… BARLT    P03_1   -0400    
#> 4 P04_1_202005… wav   a_BA… BARLT… Frontier La… BAR-… BARLT    P04_1   -0400    
#> # ℹ 32 more rows
#> # ℹ 3 more variables: date_time <dttm>, date <date>, geometry <POINT [°]>
…
