Subsampling recordings
…
simple_deploy
#> # A tibble: 2,160 × 16
#>   site_id plot  site    doy times Date_set_out Date_removed ARU        lon   lat
#>   <chr>   <chr> <chr> <dbl> <dbl> <chr>        <chr>        <chr>    <dbl> <dbl>
#> 1 P01_1   P01   1       121   -30 2020-05-01   2020-05-03   BARLT10… -85.0  50.0
#> 2 P01_1   P01   1       121     0 2020-05-01   2020-05-03   BARLT10… -85.0  50.0
#> 3 P01_1   P01   1       121    30 2020-05-01   2020-05-03   BARLT10… -85.0  50.0
#> 4 P01_1   P01   1       121    60 2020-05-01   2020-05-03   BARLT10… -85.0  50.0
#> # ℹ 2,156 more rows
#> # ℹ 6 more variables: Plots <chr>, Subplot <chr>, date <date>,
#> #   date_time <dttm>, date_time_chr <chr>, file_name <glue>
…
Format output filename

Finally we can format the filenames for Wildtrax, which processes sites,
dates, and times based on file name.

Code

final_selection <- random_sample_with_lengths |>
  add_wildtrax()

final_selection |>
  head() |>
  dplyr::select(path, wildtrax_file_name)
#> # A tibble: 6 × 2
#>   path                                         wildtrax_file_name   
#>   <chr>                                        <glue>               
#> 1 P01/P01_1/BARLT10962_2028-07-06T07:00:00.wav P01_1_20280706_070000
#> 2 P01/P01_1/BARLT10962_2028-06-02T07:00:00.wav P01_1_20280602_070000
#> 3 P01/P01_1/BARLT10962_2028-05-15T06:30:00.wav P01_1_20280515_063000
#> 4 P01/P01_1/BARLT10962_2028-07-04T06:30:00.wav P01_1_20280704_063000
#> # ℹ 2 more rows
…
