Dealing with Timezones
…
If we now calculate the time to sunrise/sunset (t2sr and
t2ss) we find that the difference between these sites is
about 15min, accounting for the fact that site P06_1 is farther west
than P01_1 and so the recording at 6am occurs 28.8min before sunrise,
whereas P01_1’s 6am recording occurs only 14.9 min before sunrise.

calc_sun(m_mini, aru_tz = "America/Toronto") |>
  arrange(date_time)
#> # A tibble: 6 × 10
#>   aru_id   site_id longitude latitude date_time           date       path  tz   
#>   <chr>    <chr>       <dbl>    <dbl> <dttm>              <date>     <chr> <chr>
#> 1 BARLT10… P01_1       -85.0     50.0 2020-05-02 05:00:00 2020-05-02 BARL… Amer…
#> 2 BARLT10… P06_1       -90.1     52   2020-05-02 05:00:00 2020-05-02 BARL… Amer…
#> 3 BARLT10… P01_1       -85.0     50.0 2020-05-02 06:00:00 2020-05-02 BARL… Amer…
#> 4 BARLT10… P06_1       -90.1     52   2020-05-02 06:00:00 2020-05-02 BARL… Amer…
#> # ℹ 2 more rows
#> # ℹ 2 more variables: t2sr <dbl>, t2ss <dbl>

However, if we were to incorrectly assume that the ARU unit located
in the central timezone was recording in that timezone, we would get
very different results.

calc_sun(m_mini, aru_tz = "local") |>
  arrange(date_time)
#> # A tibble: 6 × 10
#>   aru_id   site_id longitude latitude date_time           date       path  tz   
#>   <chr>    <chr>       <dbl>    <dbl> <dttm>              <date>     <chr> <chr>
#> 1 BARLT10… P01_1       -85.0     50.0 2020-05-02 05:00:00 2020-05-02 BARL… Amer…
#> 2 BARLT10… P06_1       -90.1     52   2020-05-02 05:00:00 2020-05-02 BARL… Amer…
#> 3 BARLT10… P01_1       -85.0     50.0 2020-05-02 06:00:00 2020-05-02 BARL… Amer…
#> 4 BARLT10… P06_1       -90.1     52   2020-05-02 06:00:00 2020-05-02 BARL… Amer…
#> # ℹ 2 more rows
#> # ℹ 2 more variables: t2sr <dbl>, t2ss <dbl>
…
