Conducting a simulation study
…
At last, we can run the simulations and post-hoc summary
computations:

result <- simTool::eval_tibbles(
  data_grid = dataGrid, 
  proc_grid = methodGrid,
  post_analyze = analyzeModel
)

The result table contains a results column
containing the fitted models.

result
#> # A tibble: 48 × 15
#>    fun     numTraj randomScales data.seed replications proc    method  nClusters
#>    <chr>     <dbl>        <dbl>     <int>        <int> <chr>   <chr>       <int>
#>  1 dataGen      50          0.1         1            1 latrend lcMeth…         1
#>  2 dataGen      50          0.1         1            1 latrend lcMeth…         2
#>  3 dataGen      50          0.1         1            1 fitGCKM lcMeth…         1
#>  4 dataGen      50          0.1         1            1 fitGCKM lcMeth…         1
#>  5 dataGen      50          0.1         1            1 fitGCKM lcMeth…         2
#>  6 dataGen      50          0.1         1            1 fitGCKM lcMeth…         2
#>  7 dataGen     250          0.1         1            1 latrend lcMeth…         1
#>  8 dataGen     250          0.1         1            1 latrend lcMeth…         2
#>  9 dataGen     250          0.1         1            1 fitGCKM lcMeth…         1
#> 10 dataGen     250          0.1         1            1 fitGCKM lcMeth…         1
#> # ℹ 38 more rows
#> # ℹ 7 more variables: seed <dbl>, response <chr>, type <chr>, BIC <dbl>,
#> #   APPA <dbl>, WMAE <dbl>, ARI <dbl>
…
