The dataset S3 Class
…
full_weather <- ds_weather %>%
  fill_gaps(precip = 0) %>% 
  group_by_key() %>% 
  tidyr::fill(temp, humid, .direction = "down")

full_weather %>%
  group_by_key() %>%
  index_by(year_month = ~ yearmonth(.)) %>% # monthly aggregates
  summarise(
    avg_temp = mean(temp, na.rm = TRUE),
    ttl_precip = sum(precip, na.rm = TRUE)
  )
#> # A tsibble: 36 x 4 [1M]
#> # Key:       origin [3]
#>    origin year_month avg_temp ttl_precip
#>    <chr>       <mth>    <dbl>      <dbl>
#>  1 EWR      2013 Jan     35.6       3.53
#>  2 EWR      2013 Feb     34.2       3.83
#>  3 EWR      2013 Mar     40.1       3   
#>  4 EWR      2013 Apr     53.0       1.47
#>  5 EWR      2013 May     63.3       5.44
#>  6 EWR      2013 Jun     73.3       8.73
#>  7 EWR      2013 Jul     80.7       3.74
#>  8 EWR      2013 Aug     74.5       4.57
#>  9 EWR      2013 Sep     67.3       1.54
#> 10 EWR      2013 Oct     59.7       0.5 
#> # ℹ 26 more rows
…
