Outputs: Relative effects, forest plots and rankings
…
#> # A tibble: 29 × 3
#>    treatment parameter sucra
#>    <fct>     <chr>     <dbl>
#>  1 Pl_0      auc        3.39
#>  2 Ce_100    auc        8.14
#>  3 Ce_200    auc       15.7 
#>  4 Ce_400    auc       16.1 
#>  5 Du_90     auc       13.5 
#>  6 Et_10     auc        2.27
#>  7 Et_30     auc       22.9 
#>  8 Et_5      auc       15.9 
#>  9 Et_60     auc       25.4 
#> 10 Et_90     auc       21.7 
#> # … with 19 more rows
…
