…
Once you’ve established your credentials, you’re ready to leverage
khisr’s functions to download data from your DHIS2 instance.

For this overview, we’ve logged into DHIS2 as a specific user in a
hidden chunk.

## Basic Overview

This is a basic example which shows you how to solve a common problem:

``` r
# Retrieve the organisation units by county (level 2)
counties <- get_organisation_units(level %.eq% '2')
counties
#> # A tibble: 47 × 2
#>    name                   id         
#>    <chr>                  <chr>      
#>  1 Baringo County         vvOK1BxTbet
#>  2 Bomet County           HMNARUV2CW4
#>  3 Bungoma County         KGHhQ5GLd4k
#>  4 Busia County           Tvf1zgVZ0K4
#>  5 Elgeyo Marakwet County MqnLxQBigG0
#>  6 Embu County            PFu8alU2KWG
#>  7 Garissa County         uyOrcHZBpW0
#>  8 Homa Bay County        nK0A12Q7MvS
#>  9 Isiolo County          bzOfj0iwfDH
#> 10 Kajiado County         Hsk1YV8kHkT
#> # ℹ 37 more rows

# Retrieve organisation units by name (level included to ensure it refers to county)
kiambu_county <- get_organisation_units(level %.eq% '2', 
                                        name %.like% 'Kiambu')
kiambu_county
#> # A tibble: 1 × 2
#>   name          id         
#>   <chr>         <chr>      
#> 1 Kiambu County qKzosKQPl6G

# Retrieve all data elements by data element group for outpatient (data element group name MOH 705)
moh_705 <- get_data_elements(dataElementGroups.name %.like% 'moh 705')
moh_705
#> # A tibble: 96 × 2
#>    name                         id         
#>    <chr>                        <chr>      
#>  1 Abortion                     IrWSgk9GsUm
#>  2 All other diseases           KxT47tbKHsd
#>  3 Anaemia cases                kkUHOwGMawD
#>  4 Arthritis, Joint pains etc.  waNhWrS3HL6
#>  5 Asthma                       L82lvvxVaqt
#>  6 Autism                       L529r3Wvtcf
#>  7 Bilharzia  (Schistosomiasis) ojFSHMwbkHK
#>  8 Brucellosis                  nb9cfWgxYFc
#>  9 Burns                        dkEYL9Sous9
#> 10 Cardiovascular conditions    sZETzNe1To8
#> # ℹ 86 more rows
…
