…
#>                                           
#>             Sensitivity : 0.8403          
#>             Specificity : 0.9570          
#>          Pos Pred Value : 0.9167          
#>          Neg Pred Value : 0.9142          
#>              Prevalence : 0.3600          
#>          Detection Rate : 0.3025          
#>    Detection Prevalence : 0.3300          
#>       Balanced Accuracy : 0.8987          
#>                                           
#>        'Positive' Class : No              
#>                                           
#> 
#> $data_proj
#> # A tibble: 8,000 × 21
#>    province regency id_ind   num weight    x1    x2    x3    x4    x5    x6
#>       <dbl>   <dbl>  <dbl> <dbl>  <dbl> <dbl> <dbl> <dbl> <dbl> <dbl> <dbl>
#>  1       31      19  18362     1      5     0     2     1    70     3     9
#>  2       31      25  24661     2      5     1     2     1    35     4     1
#>  3       31      30  29630     3      5     0     2     0    57     5     6
#>  4       31      18  17536     4      5     1     1     0    49     2     3
#>  5       31       2   1967     5      5     1     2     0    45     5     4
#>  6       31      14  13395     6      5     1     1     1    42     1     5
#>  7       31       5   4673     7      5     0     2     1    19     4     9
#>  8       31      27  26950     8      5     0     2     0    39     4    10
#>  9       31       5   4701     9      5     1     1     1    40     3     1
#> 10       31      22  21696    10      5     0     1     1    64     2     4
#> # ℹ 7,990 more rows
#> # ℹ 10 more variables: x7 <dbl>, x8 <dbl>, x9 <dbl>, x10 <dbl>, x11 <dbl>,
#> #   x12 <dbl>, x13 <dbl>, x14 <dbl>, x15 <dbl>, Est_Y <fct>
…
#> 
#> $metadata$model_params$nthread
#> [1] 4
#> 
#> $metadata$model_params$validate_parameters
#> [1] TRUE
#> 
#> 
#> $metadata$features_selected
#> [1] "x1"  "x2"  "x4"  "x6"  "x10" "x11"
#> 
#> 
#> $estimation
#> $estimation$projected_data
#> # A tibble: 8,000 × 20
#>    province regency   num weight    x1    x2    x3    x4    x5    x6    x7    x8
#>       <dbl>   <dbl> <dbl>  <dbl> <dbl> <dbl> <dbl> <dbl> <dbl> <dbl> <dbl> <dbl>
#>  1       31      19     1      5     0     2     1    70     3     9     0   429
#>  2       31      25     2      5     1     2     1    35     4     1     0   469
#>  3       31      30     3      5     0     2     0    57     5     6     0    95
#>  4       31      18     4      5     1     1     0    49     2     3     0   295
#>  5       31       2     5      5     1     2     0    45     5     4     0   129
#>  6       31      14     6      5     1     1     1    42     1     5     0   269
#>  7       31       5     7      5     0     2     1    19     4     9     1   172
#>  8       31      27     8      5     0     2     0    39     4    10     1   555
#>  9       31       5     9      5     1     1     1    40     3     1     0   150
#> 10       31      22    10      5     0     1     1    64     2     4     0   277
#> # ℹ 7,990 more rows
#> # ℹ 8 more variables: x9 <dbl>, x10 <dbl>, x11 <dbl>, x12 <dbl>, x13 <dbl>,
#> #   x14 <dbl>, x15 <dbl>, P.hat <dbl>
…
