Using the CEOdata package
…
library(CEOdata)
d <- CEOdata()

This provides a cleaned and merged version of all the available
Barometers, since 2017, providing easy access to the following number of
responses and variables:

dim(d)

## [1] 43838  1231

d

## # A tibble: 43,838 × 1,231
##    PONDERA ORDRECINE ORDRE_REVISADA   REO METODOLOGIA BOP_NUM    ANY   MES   DIA
##      <dbl>     <dbl>          <dbl> <dbl> <fct>       <fct>    <dbl> <dbl> <dbl>
##  1    1.86         1             NA   746 <NA>        Març 14…  2014     3    27
##  2    1.86         2             NA   746 <NA>        Març 14…  2014     3     5
##  3    1.86         3             NA   746 <NA>        Març 14…  2014     3    11
##  4    1.86         4             NA   746 <NA>        Març 14…  2014     3    11
##  5    1.86         5             NA   746 <NA>        Març 14…  2014     3    27
##  6    1.86         6             NA   746 <NA>        Març 14…  2014     3    28
##  7    1.86         7             NA   746 <NA>        Març 14…  2014     3     3
##  8    1.86         9             NA   746 <NA>        Març 14…  2014     3     7
##  9    1.86         8             NA   746 <NA>        Març 14…  2014     3    25
## 10    1.86        10             NA   746 <NA>        Març 14…  2014     3    27
## # ℹ 43,828 more rows
## # ℹ 1,222 more variables: HORA_INI <time>, HORA_FIN <time>, DATA_INI <date>,
## #   DATA_FIN <date>, DURADA <dbl>, FASE <fct>, ENQUESTADOR_CODI <dbl>,
## #   ENQUESTADOR_SEXE <fct>, ENQUESTADOR_EDAT <dbl>, ENQUESTADOR_ESTUDIS <fct>,
## #   ENQUESTADOR_NACIONALITAT <fct>, NUM_QUEST_CAMP <dbl>, PROVINCIA <fct>,
## #   HABITAT <fct>, MUNICIPI <fct>, COMARCA <fct>, CLUSTER_21 <dbl>,
## #   ID_RUTA <dbl>, SECCIO_TEORICA <dbl>, CONF_SECC <fct>, SECCIO_REAL <dbl>, …
…
For instance, to get only the data of the study with register “746”
(corresponding to March 2013):

d746 <- CEOdata(reo = "746")

## Converting the original data into R. This may take a while.

d746

## # A tibble: 2,000 × 475
##      NUM NUM_CINE BOP_NUM    MES   ANY   DIA CODI_ENQ HOR_INI HOR_FIN DURADA
##    <dbl>    <dbl> <fct>    <dbl> <dbl> <dbl> <fct>    <time>  <time>   <dbl>
##  1    NA        1 Març. 14     4    14    NA G3          NA      NA     1203
##  2    NA        2 Març. 14     4    14    NA T4          NA      NA      997
##  3    NA        3 Març. 14     4    14    NA G3          NA      NA     1127
##  4    NA        4 Març. 14     4    14    NA B5          NA      NA     1792
##  5    NA        5 Març. 14     4    14    NA B6          NA      NA     1418
##  6    NA        6 Març. 14     3    14    NA L1          NA      NA     1964
##  7    NA        7 Març. 14     4    14    NA G4          NA      NA     2283
##  8    NA        8 Març. 14     4    14    NA B3          NA      NA     1322
##  9    NA        9 Març. 14     3    14    NA B2          NA      NA     1778
## 10    NA       10 Març. 14     3    14    NA T4          NA      NA     1119
## # ℹ 1,990 more rows
## # ℹ 465 more variables: num_quest <dbl>, sexe_enq <fct>, edat_enq <dbl>,
## #   estudis_enq <fct>, nacionalitat_enq <fct>, PROVI <fct>, HABITAT <fct>,
## #   MUN <fct>, ADRECA <chr>, COMARCA <fct>, SEXE <fct>, EDAT <dbl>, SE <chr>,
## #   GR_EDAT <fct>, Edat_CEO <fct>, F01 <fct>, F02 <fct>, F03 <fct>, F04 <fct>,
## #   PRE_P1 <fct>, P1_LITERALS <chr>, P1_100_R <dbl>, P1_200_R <dbl>,
## #   P1_300_R <dbl>, P1_400_R <dbl>, P1_500_R <dbl>, P1_600_R <dbl>, …
…
b2019 <- CEOdata(date_start = "2019-01-01", date_end = "2019-12-31")

## Downloading the barometer.

## Converting the original data into R. This may take a while.

## Post-processing the data. This may take a while.

b2019

## # A tibble: 4,500 × 1,231
##    PONDERA ORDRECINE ORDRE_REVISADA   REO METODOLOGIA BOP_NUM    ANY   MES   DIA
##      <dbl>     <dbl>          <dbl> <dbl> <fct>       <fct>    <dbl> <dbl> <dbl>
##  1       1     23339             NA   919 <NA>        Març 19…  2019     3     4
##  2       1     23340             NA   919 <NA>        Març 19…  2019     3     4
##  3       1     23341             NA   919 <NA>        Març 19…  2019     3     4
##  4       1     23342             NA   919 <NA>        Març 19…  2019     3     4
##  5       1     23343             NA   919 <NA>        Març 19…  2019     3     4
##  6       1     23344             NA   919 <NA>        Març 19…  2019     3     4
##  7       1     23345             NA   919 <NA>        Març 19…  2019     3     4
##  8       1     23346             NA   919 <NA>        Març 19…  2019     3     4
##  9       1     23347             NA   919 <NA>        Març 19…  2019     3     4
## 10       1     23348             NA   919 <NA>        Març 19…  2019     3     4
## # ℹ 4,490 more rows
## # ℹ 1,222 more variables: HORA_INI <time>, HORA_FIN <time>, DATA_INI <date>,
## #   DATA_FIN <date>, DURADA <dbl>, FASE <fct>, ENQUESTADOR_CODI <dbl>,
## #   ENQUESTADOR_SEXE <fct>, ENQUESTADOR_EDAT <dbl>, ENQUESTADOR_ESTUDIS <fct>,
## #   ENQUESTADOR_NACIONALITAT <fct>, NUM_QUEST_CAMP <dbl>, PROVINCIA <fct>,
## #   HABITAT <fct>, MUNICIPI <fct>, COMARCA <fct>, CLUSTER_21 <dbl>,
## #   ID_RUTA <dbl>, SECCIO_TEORICA <dbl>, CONF_SECC <fct>, SECCIO_REAL <dbl>, …
…
CEOmeta(): Access to the metadata of studies and
surveys

The function CEOmeta allows to easily retrieve, search
and restrict by time the list of all the surveys produced by the CEO,
which amounts to more than a thousand as of early 2022.

When called alone, the function downloads the latest version of the
metadata published by the center, in a transparent way, and caching its
content so that any subsequent calls in the same R session
do not need to download it again.

CEOmeta()

## # A tibble: 1,201 × 28
##    REO   `Titol enquesta`                  `Titol estudi` `Metodologia enquesta`
##    <fct> <chr>                             <chr>          <fct>                 
##  1 1051  Índex de Satisfacció del Client … Índex de Sati… quantitativa          
##  2 1050  Baròmetre d'Opinió Política (BOP… Baròmetre d'O… quantitativa          
##  3 1049  Enquesta sobre les prioritats en… Enquesta sobr… quantitativa          
##  4 1048  Enquesta sociopolítica. 2022      Enquesta soci… quantitativa          
##  5 1047  Enquesta sobre la percepció de l… Enquesta sobr… quantitativa          
##  6 1046  Enquesta de satisfacció dels usu… Enquesta de s… quantitativa          
##  7 1045  Avaluació del servei d'atenció c… Avaluació del… quantitativa          
##  8 1044  Enquesta de valoració del Govern… Enquesta de v… quantitativa          
##  9 1043  La corrupció a Catalunya: percep… La corrupció … quantitativa          
## 10 1042  La corrupció a Catalunya: percep… La corrupció … quantitativa          
## # ℹ 1,191 more rows
## # ℹ 24 more variables: `Metode de recollida de dades` <fct>, Objectius <chr>,
## #   `Ambit territorial` <fct>, Cost <dbl>, `Promotors enquesta` <chr>,
## #   `Executors enquesta` <chr>, `Promotors estudi` <chr>,
## #   `Executors estudi` <chr>, `Data de treball de camp` <chr>,
## #   `Dia inici treball de camp` <date>, `Dia final treball de camp` <date>,
## #   Univers <chr>, Mostra <chr>, `Mostra estudis quantitatius` <dbl>, …
…
Search for specific topics though keywords

The first relevant argument for CEOmeta() is
search, which is a built-in simple search engine that goes
through the columns of the metadata containing potential descriptive
information (title, summary, objectives and tags -descriptors-) and
returns the studies that contain such keyword.

CEOmeta(search = "Medi ambient")

## Looking for entries with: medi ambient

## # A tibble: 46 × 28
##    REO   `Titol enquesta`                  `Titol estudi` `Metodologia enquesta`
##    <fct> <chr>                             <chr>          <fct>                 
##  1 1017  Seguiment d'indicadors de percep… Seguiment d'i… quantitativa          
##  2 1010  Enquesta metodològica i d'actitu… Enquesta meto… quantitativa          
##  3 1006  Seguiment d'indicadors de sosten… Seguiment d'i… quantitativa          
##  4 973   Seguiment d'indicadors de sosten… Seguiment d'i… quantitativa          
##  5 941   Seguiment d'indicadors de sosten… Seguiment d'i… quantitativa          
##  6 876   Baròmetre de la bicicleta 2017    Baròmetre de … quantitativa          
##  7 875   Seguiment d'indicadors de sosten… Seguiment d'i… quantitativa          
##  8 865   Seguiment d'indicadors de percep… Seguiment d'i… quantitativa          
##  9 819   Baròmetre 2015 de percepció i co… Baròmetre 201… quantitativa          
## 10 807   Seguiment d'Indicadors de Sosten… Seguiment d'i… quantitativa          
## # ℹ 36 more rows
## # ℹ 24 more variables: `Metode de recollida de dades` <fct>, Objectius <chr>,
## #   `Ambit territorial` <fct>, Cost <dbl>, `Promotors enquesta` <chr>,
## #   `Executors enquesta` <chr>, `Promotors estudi` <chr>,
## #   `Executors estudi` <chr>, `Data de treball de camp` <chr>,
## #   `Dia inici treball de camp` <date>, `Dia final treball de camp` <date>,
## #   Univers <chr>, Mostra <chr>, `Mostra estudis quantitatius` <dbl>, …

It is also possible to pass more than one value to
search, so that the search includes them (either one of
them OR any other).

CEOmeta(search = c("Medi ambient", "Municipi"))

## Looking for entries with: medi ambient OR municipi

## # A tibble: 50 × 28
##    REO   `Titol enquesta`                  `Titol estudi` `Metodologia enquesta`
##    <fct> <chr>                             <chr>          <fct>                 
##  1 1017  Seguiment d'indicadors de percep… Seguiment d'i… quantitativa          
##  2 1010  Enquesta metodològica i d'actitu… Enquesta meto… quantitativa          
##  3 1006  Seguiment d'indicadors de sosten… Seguiment d'i… quantitativa          
##  4 973   Seguiment d'indicadors de sosten… Seguiment d'i… quantitativa          
##  5 941   Seguiment d'indicadors de sosten… Seguiment d'i… quantitativa          
##  6 876   Baròmetre de la bicicleta 2017    Baròmetre de … quantitativa          
##  7 875   Seguiment d'indicadors de sosten… Seguiment d'i… quantitativa          
##  8 865   Seguiment d'indicadors de percep… Seguiment d'i… quantitativa          
##  9 819   Baròmetre 2015 de percepció i co… Baròmetre 201… quantitativa          
## 10 807   Seguiment d'Indicadors de Sosten… Seguiment d'i… quantitativa          
## # ℹ 40 more rows
## # ℹ 24 more variables: `Metode de recollida de dades` <fct>, Objectius <chr>,
## #   `Ambit territorial` <fct>, Cost <dbl>, `Promotors enquesta` <chr>,
## #   `Executors enquesta` <chr>, `Promotors estudi` <chr>,
## #   `Executors estudi` <chr>, `Data de treball de camp` <chr>,
## #   `Dia inici treball de camp` <date>, `Dia final treball de camp` <date>,
## #   Univers <chr>, Mostra <chr>, `Mostra estudis quantitatius` <dbl>, …

In addition to the built-in argument to search through the columns of
the survey title, the study title, the objectives, the summary and the
tags (descriptors), it is possible to combine CEOmeta()
with dplyr’s filter() to limit the results of
studies returned.

For example, to get the studies that have been performed using
Internet to get the data:

CEOmeta() |> 
  filter(`Metode de recollida de dades` == "internet")

## # A tibble: 49 × 28
##    REO   `Titol enquesta`                  `Titol estudi` `Metodologia enquesta`
##    <fct> <chr>                             <chr>          <fct>                 
##  1 1049  Enquesta sobre les prioritats en… Enquesta sobr… quantitativa          
##  2 1047  Enquesta sobre la percepció de l… Enquesta sobr… quantitativa          
##  3 1041  Enquesta sobre ètica a l'Adminis… Enquesta sobr… quantitativa          
##  4 1020  Polarització i convivència a Esp… Polarització … quantitativa          
##  5 1018  Enquesta de Satisfacció dels Ser… Enquesta de S… quantitativa          
##  6 1016  Enquesta a ens locals sobre polí… Enquesta a en… quantitativa          
##  7 1010  Enquesta metodològica i d'actitu… Enquesta meto… quantitativa          
##  8 1000  Enquesta panel sobre valors i CO… Enquesta pane… quantitativa          
##  9 995   Enquesta de satisfacció dels ser… Enquesta de s… quantitativa          
## 10 993   Enquesta de satisfacció dels ser… Enquesta de s… quantitativa          
## # ℹ 39 more rows
## # ℹ 24 more variables: `Metode de recollida de dades` <fct>, Objectius <chr>,
## #   `Ambit territorial` <fct>, Cost <dbl>, `Promotors enquesta` <chr>,
## #   `Executors enquesta` <chr>, `Promotors estudi` <chr>,
## #   `Executors estudi` <chr>, `Data de treball de camp` <chr>,
## #   `Dia inici treball de camp` <date>, `Dia final treball de camp` <date>,
## #   Univers <chr>, Mostra <chr>, `Mostra estudis quantitatius` <dbl>, …

Or to get studies with a specific quantitative sample size limit:

CEOmeta() |>
  filter(`Mostra estudis quantitatius` < 500)

## # A tibble: 170 × 28
##    REO   `Titol enquesta`                  `Titol estudi` `Metodologia enquesta`
##    <fct> <chr>                             <chr>          <fct>                 
##  1 990   IPLAENSA Opinió i satisfacció de… IPLAENSA Opin… quantitativa          
##  2 989   Enquesta de satisfacció de l'usu… Enquesta de s… quantitativa          
##  3 984   iPLAENSA Satisfacció dels assegu… iPLAENSA Sati… quantitativa          
##  4 983   iPLAENSA: Satisfacció dels asseg… iPLAENSA: Sat… quantitativa          
##  5 964   Enquesta satisfacció familiars r… Enquesta sati… quantitativa          
##  6 963   Enquesta satisfacció familiars c… Enquesta sati… quantitativa          
##  7 957   Avaluació del grau de satisfacci… Avaluació del… quantitativa          
##  8 950   Enquesta de satisfacció hospital… Enquesta de s… quantitativa          
##  9 933   iPLAENSA: Enquesta d'opinió i sa… iPLAENSA: Enq… quantitativa          
## 10 930   iPLAENSA: Satisfacció dels asseg… iPLAENSA: Sat… quantitativa          
## # ℹ 160 more rows
## # ℹ 24 more variables: `Metode de recollida de dades` <fct>, Objectius <chr>,
## #   `Ambit territorial` <fct>, Cost <dbl>, `Promotors enquesta` <chr>,
## #   `Executors enquesta` <chr>, `Promotors estudi` <chr>,
## #   `Executors estudi` <chr>, `Data de treball de camp` <chr>,
## #   `Dia inici treball de camp` <date>, `Dia final treball de camp` <date>,
## #   Univers <chr>, Mostra <chr>, `Mostra estudis quantitatius` <dbl>, …

Restrict by time

Metadata can be retrieved for a specific period of time, by using the
arguments date_start and date_end, also using
the YYYY-MM-DD format. In this case the dates that are taken into
account are dates where the study gets into the records, not the
fieldwork dates.

CEOmeta(date_start = "2019-01-01", date_end = "2019-12-31")

## # A tibble: 45 × 28
##    REO   `Titol enquesta`                  `Titol estudi` `Metodologia enquesta`
##    <fct> <chr>                             <chr>          <fct>                 
##  1 954   Baròmetre d'Opinió Política. 3a … Baròmetre d'O… quantitativa          
##  2 953   Enquesta de satisfacció dels ser… Enquesta de s… quantitativa          
##  3 952   Percepció sobre el debat territo… Percepció sob… quantitativa          
##  4 951   Cosmopolitisme i localisme a Cat… Cosmopolitism… quantitativa          
##  5 950   Enquesta de satisfacció hospital… Enquesta de s… quantitativa          
##  6 949   Enquesta sobre civisme i valors … Enquesta sobr… quantitativa          
##  7 948   Enquesta sobre el debat de polít… Enquesta sobr… quantitativa          
##  8 947   Baròmetre sanitari de Catalunya.… Baròmetre san… quantitativa          
##  9 946   Òmnibus de la Generalitat de Cat… Òmnibus de la… quantitativa          
## 10 945   Baròmetre de satisfacció dels tu… Baròmetre de … quantitativa          
## # ℹ 35 more rows
## # ℹ 24 more variables: `Metode de recollida de dades` <fct>, Objectius <chr>,
## #   `Ambit territorial` <fct>, Cost <dbl>, `Promotors enquesta` <chr>,
## #   `Executors enquesta` <chr>, `Promotors estudi` <chr>,
## #   `Executors estudi` <chr>, `Data de treball de camp` <chr>,
## #   `Dia inici treball de camp` <date>, `Dia final treball de camp` <date>,
## #   Univers <chr>, Mostra <chr>, `Mostra estudis quantitatius` <dbl>, …
…
CEOmeta(search = "Medi ambient a", browse = TRUE, browse_translate = "de")

CEOsearch(): Access to the variable and value
labels

Contrary to CEOdata() and CEOmeta(),
CEOsearch() needs at least one argument: the survey data
(microdata) for which we want to extract the variable labels and the
value labels. By default it provides the variable labels in a tidy
object:

CEOsearch(d)  # equivalent to CEOsearch(d, where = "variables")

## # A tibble: 1,231 × 2
##    Variable       Label                                                      
##    <chr>          <chr>                                                      
##  1 PONDERA        Coeficients de ponderació                                  
##  2 ORDRECINE      Número d'ordre de registre cine                            
##  3 ORDRE_REVISADA Número d'ordre de registre original (variable anonimitzada)
##  4 REO            Número de registre                                         
##  5 METODOLOGIA    Metodologia d'enquestació                                  
##  6 BOP_NUM        Número d'ordre del baròmetre                               
##  7 ANY            Any de realització del baròmetre                           
##  8 MES            Mes de realització del baròmetre                           
##  9 DIA            Dia                                                        
## 10 HORA_INI       Hora d'inici de l'entrevista (variable anonimitzada)       
## # ℹ 1,221 more rows

Equivalently, the use of where = "values" provides with
a tidy object containing the value labels. Notice that in this case the
variable names are repeated to accommodate each of the different value
labels.

CEOsearch(d, where = "values")

## # A tibble: 16,354 × 2
##    Variable    Value        
##    <fct>       <fct>        
##  1 METODOLOGIA Presencial   
##  2 METODOLOGIA Telefònica   
##  3 METODOLOGIA En línia     
##  4 BOP_NUM     Març 14 - 746
##  5 BOP_NUM     Oct. 14 -758 
##  6 BOP_NUM     Feb 15 -774  
##  7 BOP_NUM     Juny 15 -795 
##  8 BOP_NUM     Oct. 15 -804 
##  9 BOP_NUM     Feb. 16 -816 
## 10 BOP_NUM     Juny 16 -826 
## # ℹ 16,344 more rows
…
Of course, variable labels and values can be merged into a single
object using a combination of join and
CEOsearch():

CEOsearch(d) |>
  left_join(CEOsearch(d, where = "values"))

## Joining with `by = join_by(Variable)`

## # A tibble: 16,462 × 3
##    Variable       Label                                                    Value
##    <chr>          <chr>                                                    <fct>
##  1 PONDERA        Coeficients de ponderació                                <NA> 
##  2 ORDRECINE      Número d'ordre de registre cine                          <NA> 
##  3 ORDRE_REVISADA Número d'ordre de registre original (variable anonimitz… <NA> 
##  4 REO            Número de registre                                       <NA> 
##  5 METODOLOGIA    Metodologia d'enquestació                                Pres…
##  6 METODOLOGIA    Metodologia d'enquestació                                Tele…
##  7 METODOLOGIA    Metodologia d'enquestació                                En l…
##  8 BOP_NUM        Número d'ordre del baròmetre                             Març…
##  9 BOP_NUM        Número d'ordre del baròmetre                             Oct.…
## 10 BOP_NUM        Número d'ordre del baròmetre                             Feb …
## # ℹ 16,452 more rows
…
