Parsing Europe PMC FTP files
…
#     PMCID Title Authors  Year Journal Volume Pages `Published online` `Date received` DOI   Publisher
#     <chr> <chr> <chr>   <int> <chr>   <chr>  <chr> <chr>              <chr>           <chr> <chr>    
#   1 PMC6… Endo… Dana B…  2018 ACG Ca… 5      e87   2018-12-5          2018-7-8        10.1… American…
#   2 PMC6… Chro… Scott …  2018 ACG Ca… 5      e94   2018-12-5          2018-5-5        10.1… American…
#   3 PMC6… Bile… Steffi…  2018 ACG Ca… 5      e88   2018-12-5          2018-5-7        10.1… American…
#   4 PMC6… New … Gordon…  2018 ACG Ca… 5      e92   2018-12-5          2018-3-3        10.1… American…
#   5 PMC6… Bile… Michae…  2018 ACG Ca… 5      e89   2018-12-5          2017-11-3       10.1… American…
#   6 PMC6… Fuso… Akshay…  2018 ACG Ca… 5      e99   2018-12-19         2018-3-8        10.1… American…
#   7 PMC6… Chor… Marcia…  2019 Genes … 20     56-68 2018-1-24          2017-9-1        10.1… Nature P…
#   8 PMC6… The … Tao Zh…  2019 Spinal… 57     141-… 2018-8-8           2017-12-19      10.1… Nature P…
#   9 PMC6… Natu… Marjol…  2019 Molecu… 20     115-… 2018-12-16         2018-10-22      10.1… Elsevier 
#  10 PMC6… Pred… Yury O…  2019 Molecu… 20     63-78 2018-11-16         2018-9-10       10.1… Elsevier 
#  # ℹ 2 more variables: Issue <chr>, PMID <chr>
txt
#  # A tibble: 1,073 × 5
#     PMCID      section      paragraph sentence text                                                  
#     <chr>      <chr>            <int>    <int> <chr>                                                 
#   1 PMC6358576 Title                1        1 Endoscopic versus Surgical Intervention for Jejunal B…
#   2 PMC6358576 Abstract             1        1 Bezoar-induced small bowel obstruction is a rare enti…
#   3 PMC6358576 Abstract             1        2 The cornerstone of treatment for intestinal bezoars h…
#   4 PMC6358576 Abstract             1        3 We present a patient with obstructive jejunal phytobe…
#   5 PMC6358576 Introduction         1        1 Bezoars are aggregates of undigested foreign material…
#   6 PMC6358576 Introduction         1        2 There are currently four classifications of bezoars: …
#   7 PMC6358576 Introduction         1        3 Endoscopic treatment of bezoars causing intestinal ob…
#   8 PMC6358576 Case Report          1        1 A 60-year old diabetic woman with a past cholecystect…
#   9 PMC6358576 Case Report          1        2 Physical examination revealed mild diffuse abdominal …
#  10 PMC6358576 Case Report          1        3 Computed tomography (CT) of the abdomen and pelvis re…
#  # ℹ 1,063 more rows
