…
## Experiment and data

In brief, $^{15}N$-enriched ammonium was dripped in two streams in Trinidad, and samples of the different foodweb compartments were taken during the drip and after the drip in several transects in each stream. The transects were located at different locations downstream of each drip. The drip phase lasted 10 days, and the post-drip phase lasted 30 days. Here is a glimpse of the dataset (we will use only the data from one stream for simplicity, but for a real analysis one could keep both streams and use stream identity as a covariate to estimate the stream effect on flows - see the [case study about eelgrasses](https://matthieu-bruneaux.gitlab.io/isotracer/articles/case-study-mcroy-1970.html) for an example of treatments comparison):


``` r
lalaja
```

```
## # A tibble: 247 × 6
## # Groups:   stream, transect [3]
##    stream transect   compartment mgN.per.m2 prop15N time.days
##    <chr>  <chr>      <chr>            <dbl>   <dbl>     <dbl>
##  1 UL     transect.1 NH4              0.300 0.0240          0
##  2 UL     transect.1 NO3             31.5   0.00397         0
##  3 UL     transect.2 NH4              0.300 0.0140          0
##  4 UL     transect.2 NO3             31.5   0.00407         0
##  5 UL     transect.3 NH4              0.300 0.00694         0
##  6 UL     transect.3 NO3             31.5   0.00413         0
##  7 UL     transect.1 arg              2.31  0.00366         0
##  8 UL     transect.2 arg              2.31  0.00366         0
##  9 UL     transect.3 arg              2.31  0.00366         0
## 10 UL     transect.1 epi            329.    0.00366         0
## # ℹ 237 more rows
```
…
