…
<img src="figures/z-fig-130-unnamed-chunk-12-1.jpeg" style="display: block; margin: auto;" />

Looks good! Now let's simulate some observed data from this system:


``` r
spl <- proj %>% sample_from(at = c(2, 4, 6, 8, 10))
spl
```

```
## # A tibble: 25 × 4
##     time comp       size   prop
##    <dbl> <chr>     <dbl>  <dbl>
##  1     2 algae.sp1 0.763 0.0282
##  2     4 algae.sp1 0.551 0.0661
##  3     6 algae.sp1 0.521 0.0750
##  4     8 algae.sp1 0.438 0.119 
##  5    10 algae.sp1 0.437 0.106 
##  6     2 algae.sp2 0.975 0.0340
##  7     4 algae.sp2 0.747 0.0414
##  8     6 algae.sp2 0.806 0.0659
##  9     8 algae.sp2 0.960 0.112 
## 10    10 algae.sp2 0.944 0.0944
## # ℹ 15 more rows
```
…
