…
or to a tibble:


``` r
z <- tibble::as_tibble(as.matrix(fit))
z
```

```
## # A tibble: 2,000 × 8
##       eta lambda_algae lambda_daphnia lambda_NH4 upsilon_algae_to_daphnia
##     <dbl>        <dbl>          <dbl>      <dbl>                    <dbl>
##  1 0.139        0.0708        0.0256      0.0940                   0.0996
##  2 0.190        0.0719        0.0281      0.0481                   0.0804
##  3 0.163        0.0948        0.0584      0.0838                   0.0643
##  4 0.197        0.123         0.0113      0.190                    0.111 
##  5 0.164        0.159         0.00969     0.211                    0.0996
##  6 0.137        0.221         0.00839     0.134                    0.0957
##  7 0.0963       0.199         0.120       0.133                    0.0724
##  8 0.0729       0.0443        0.00226     0.0916                   0.0598
##  9 0.103        0.0577        0.0593      0.134                    0.0809
## 10 0.144        0.199         0.0214      0.156                    0.0647
## # ℹ 1,990 more rows
## # ℹ 3 more variables: upsilon_daphnia_to_NH4 <dbl>, upsilon_NH4_to_algae <dbl>,
## #   zeta <dbl>
```
…
