…
# vascr_instrument_list

    Code
      vascr_instrument_list()
    Output
      [1] "ECIS"        "xCELLigence" "cellZscope" 

# vascr_units_table

    Code
      vascr_units_table()
    Output
      # A tibble: 22 x 4
         Unit  Content                     Modeled Instrument
         <chr> <chr>                       <lgl>   <chr>     
       1 Alpha ohm<sup>1/2</sup> cm        TRUE    ECIS      
       2 Cm    Cm (&#956;F/cm<sup>2</sup>) TRUE    ECIS      
       3 Drift Drift (%)                   TRUE    ECIS      
       4 Rb    Rb (ohm cm<sup>2</sup>)     TRUE    ECIS      
       5 RMSE  Model Fit RMSE              TRUE    ECIS      
       6 C     Capacitance (nF, 0 Hz)      FALSE   ECIS      
       7 C     Capacitance (nF, 0 Hz)      FALSE   cellZscope
       8 P     Phase (radians, 0 Hz)       FALSE   ECIS      
       9 P     Phase (radians, 0 Hz)       FALSE   cellZscope
      10 R     Resistance (ohm, 0 Hz)      FALSE   ECIS      
      # i 12 more rows
…
