# Vascr Import Works

    Code
      suppressMessages(vascr_import("ECIS", raw, modeled, "ECIS_Data"))
    Output
      # A tibble: 14,400 x 9
          Time Well  Frequency Unit  Value Instrument Experiment Excluded Sample
         <dbl> <chr>     <dbl> <fct> <dbl> <chr>      <chr>      <chr>    <chr> 
       1     0 A01        1000 R      394. ECIS       ECIS_Data  no       NA    
       2     0 A01       16000 R      223. ECIS       ECIS_Data  no       NA    
       3     0 A01        2000 R      316. ECIS       ECIS_Data  no       NA    
       4     0 A01         250 R      824. ECIS       ECIS_Data  no       NA    
       5     0 A01       32000 R      212. ECIS       ECIS_Data  no       NA    
       6     0 A01        4000 R      267. ECIS       ECIS_Data  no       NA    
       7     0 A01         500 R      533. ECIS       ECIS_Data  no       NA    
       8     0 A01       64000 R      205. ECIS       ECIS_Data  no       NA    
       9     0 A01        8000 R      240. ECIS       ECIS_Data  no       NA    
      10     0 B01        1000 R      388. ECIS       ECIS_Data  no       NA    
      # i 14,390 more rows

---

    Code
      vascr_import("cellzscope", raw, model, "cellZscope")
    Output
      # A tibble: 88,288 x 8
          Time Unit               Well  Value Experiment Frequency Instrument Sample  
         <dbl> <chr>              <chr> <dbl> <chr>          <dbl> <chr>      <chr>   
       1  0.03 CPE_A(sⁿ⁻¹·µF/cm²) A01    NA   cellZscope         0 cellZscope " 80,00~
       2  0.03 CPE_A(sⁿ⁻¹·µF/cm²) A02    46.8 cellZscope         0 cellZscope " 80,00~
       3  0.03 CPE_A(sⁿ⁻¹·µF/cm²) A04    42.9 cellZscope         0 cellZscope " 20,00~
       4  0.03 CPE_A(sⁿ⁻¹·µF/cm²) A05    NA   cellZscope         0 cellZscope " 20,00~
       5  0.03 CPE_A(sⁿ⁻¹·µF/cm²) B01    NA   cellZscope         0 cellZscope " 80,00~
       6  0.03 CPE_A(sⁿ⁻¹·µF/cm²) B02    NA   cellZscope         0 cellZscope " 80,00~
       7  0.03 CPE_A(sⁿ⁻¹·µF/cm²) B04    NA   cellZscope         0 cellZscope " 20,00~
       8  0.03 CPE_A(sⁿ⁻¹·µF/cm²) B05    NA   cellZscope         0 cellZscope " 20,00~
       9  1.3  CPE_A(sⁿ⁻¹·µF/cm²) A01    46.1 cellZscope         0 cellZscope " 80,00~
      10  1.3  CPE_A(sⁿ⁻¹·µF/cm²) A02    51.8 cellZscope         0 cellZscope " 80,00~
      # i 88,278 more rows

---

    Code
      vascr_import("sciospec", raw, model, "ScioSpec")
    Message
      Joining with `by = join_by(channel)`
      Joining with `by = join_by(time)`
    Output
      # A tibble: 16,160 x 11
         channel      Frequency Unit    Value Well  Instrument  Time Experiment Sample
         <chr>            <dbl> <chr>   <dbl> <chr> <chr>      <dbl> <chr>      <chr> 
       1 Channel: EC~      100. R      20261. D02   sciospec       0 ScioSpec   D02   
       2 Channel: EC~      100. I     -19551. D02   sciospec       0 ScioSpec   D02   
       3 Channel: EC~      110. R      18171. D02   sciospec       0 ScioSpec   D02   
       4 Channel: EC~      110. I     -15598. D02   sciospec       0 ScioSpec   D02   
       5 Channel: EC~      120. R      17839. D02   sciospec       0 ScioSpec   D02   
       6 Channel: EC~      120. I     -16083. D02   sciospec       0 ScioSpec   D02   
       7 Channel: EC~      132. R      17475. D02   sciospec       0 ScioSpec   D02   
       8 Channel: EC~      132. I     -14845. D02   sciospec       0 ScioSpec   D02   
       9 Channel: EC~      145. R      17380. D02   sciospec       0 ScioSpec   D02   
      10 Channel: EC~      145. I     -13290. D02   sciospec       0 ScioSpec   D02   
      # i 16,150 more rows
      # i 2 more variables: SampleID <dbl>, Excluded <chr>

---

    Data didn't import, wrong instument typed

---

    Code
      vascr_import("xCELLigence", raw, experiment = "xCELLigence")
    Output
      # A tibble: 6,336 x 10
          Time Unit  Value Well  Sample      Frequency Experiment  Instrument SampleID
         <dbl> <chr> <dbl> <chr> <chr>           <dbl> <chr>       <chr>         <int>
       1  0    CI     1    A01   HCMVEC80000     10000 xCELLigence xCELLigen~        1
       2  0    CI     1    A02   HCMVEC80000     10000 xCELLigence xCELLigen~        1
       3  0    CI     1    A03   HCMVEC80000     10000 xCELLigence xCELLigen~        1
       4  1.54 CI     3.59 A01   HCMVEC80000     10000 xCELLigence xCELLigen~        1
       5  1.54 CI     3.56 A02   HCMVEC80000     10000 xCELLigence xCELLigen~        1
       6  1.54 CI     3.72 A03   HCMVEC80000     10000 xCELLigence xCELLigen~        1
       7  3.21 CI     3.51 A01   HCMVEC80000     10000 xCELLigence xCELLigen~        1
       8  3.21 CI     3.48 A02   HCMVEC80000     10000 xCELLigence xCELLigen~        1
       9  3.21 CI     3.48 A03   HCMVEC80000     10000 xCELLigence xCELLigen~        1
      10  4.87 CI     3.39 A01   HCMVEC80000     10000 xCELLigence xCELLigen~        1
      # i 6,326 more rows
      # i 1 more variable: Excluded <chr>
…
# Apply map

    Code
      vascr_apply_map(data.df = growth.df, map = lookup)
    Message
      ! Wells found in imported data but not map: A02 A03 B02 B03 C02 C03 D01 D02 D03 E01 E03 F01 F03 G01 G03 H01 H02 H03 A04 A05 A06 B04 B05 B06 C04 C05 C06 D04 D05 D06 E04 E05 E06 F04 F05 F06 G04 G05 G06 H04 H05 H06 A07 A08 A09 B07 B08 B09 C07 C08 C09 D07 D08 D09 E07 E08 E09 F07 F08 F09 G07 G08 G09 H07 H08 H09
      Joining with `by = join_by(Well)`
    Output
      # A tibble: 146,370 x 14
          Time Unit  Well  Value Frequency Experiment  cells line  Instrument Excluded
         <dbl> <chr> <chr> <dbl>     <dbl> <fct>       <chr> <chr> <chr>      <chr>   
       1     0 Alpha A01      NA         0 1 : Experi~ 35000 HCME~ ECIS       no      
       2     0 Alpha A02      NA         0 1 : Experi~ 35000 HCME~ ECIS       no      
       3     0 Alpha A03      NA         0 1 : Experi~ 35000 HCME~ ECIS       no      
       4     0 Alpha B01      NA         0 1 : Experi~ 30000 HCME~ ECIS       no      
       5     0 Alpha B02      NA         0 1 : Experi~ 30000 HCME~ ECIS       no      
       6     0 Alpha B03      NA         0 1 : Experi~ 30000 HCME~ ECIS       no      
       7     0 Alpha C01      NA         0 1 : Experi~ 25000 HCME~ ECIS       no      
       8     0 Alpha C02      NA         0 1 : Experi~ 25000 HCME~ ECIS       no      
       9     0 Alpha C03      NA         0 1 : Experi~ 25000 HCME~ ECIS       no      
      10     0 Alpha D01      NA         0 1 : Experi~ 20000 HCME~ ECIS       no      
      # i 146,360 more rows
      # i 4 more variables: SampleID <int>, Sample <fct>, Vehicle <chr>, HCMVEC <chr>

---

    Code
      vascr_apply_map(growth.df %>% vascr_subset(well = c("A1")) %>% select(-Sample),
      lookup)
    Message
      ! Wells found in map but not imported data: NA NA NA NA NA
      Joining with `by = join_by(Well)`
    Output
      # A tibble: 1,950 x 14
          Time Unit  Well  Value Frequency Experiment  cells line  Instrument Excluded
         <dbl> <chr> <chr> <dbl>     <dbl> <fct>       <chr> <chr> <chr>      <chr>   
       1     5 Alpha A01    2.69         0 1 : Experi~ 35000 HCME~ ECIS       no      
       2     5 Cm    A01   37.9          0 1 : Experi~ 35000 HCME~ ECIS       no      
       3     5 Drift A01   -0.94         0 1 : Experi~ 35000 HCME~ ECIS       no      
       4     5 Rb    A01    0            0 1 : Experi~ 35000 HCME~ ECIS       no      
       5     5 RMSE  A01    0.01         0 1 : Experi~ 35000 HCME~ ECIS       no      
       6    10 Alpha A01    3.34         0 1 : Experi~ 35000 HCME~ ECIS       no      
       7    10 Cm    A01   18.8          0 1 : Experi~ 35000 HCME~ ECIS       no      
       8    10 Drift A01   -1.82         0 1 : Experi~ 35000 HCME~ ECIS       no      
       9    10 Rb    A01    0            0 1 : Experi~ 35000 HCME~ ECIS       no      
      10    10 RMSE  A01    0.02         0 1 : Experi~ 35000 HCME~ ECIS       no      
      # i 1,940 more rows
      # i 4 more variables: SampleID <int>, Sample <fct>, Vehicle <chr>, HCMVEC <chr>
…
---

    Code
      vascr_explode(growth.df)
    Output
      # A tibble: 146,370 x 14
          Time Unit  Well  Value Sample  Frequency Experiment cells.x line  Instrument
         <dbl> <chr> <chr> <dbl> <chr>       <dbl> <fct>      <chr>   <chr> <chr>     
       1     0 Alpha A01      NA 35,000~         0 1 : Exper~ 35000   HCME~ ECIS      
       2     0 Alpha A02      NA 35,000~         0 1 : Exper~ 35000   HCME~ ECIS      
       3     0 Alpha A03      NA 35,000~         0 1 : Exper~ 35000   HCME~ ECIS      
       4     0 Alpha B01      NA 30,000~         0 1 : Exper~ 30000   HCME~ ECIS      
       5     0 Alpha B02      NA 30,000~         0 1 : Exper~ 30000   HCME~ ECIS      
       6     0 Alpha B03      NA 30,000~         0 1 : Exper~ 30000   HCME~ ECIS      
       7     0 Alpha C01      NA 25,000~         0 1 : Exper~ 25000   HCME~ ECIS      
       8     0 Alpha C02      NA 25,000~         0 1 : Exper~ 25000   HCME~ ECIS      
       9     0 Alpha C03      NA 25,000~         0 1 : Exper~ 25000   HCME~ ECIS      
      10     0 Alpha D01      NA 20,000~         0 1 : Exper~ 20000   HCME~ ECIS      
      # i 146,360 more rows
      # i 4 more variables: SampleID <int>, Excluded <chr>, cells.y <chr>,
      #   D3_line <chr>
…
# edit name works

    Code
      vascr_edit_name(growth.df, "HCMEC D3", "HCMEC/D3")
    Output
      # A tibble: 146,370 x 12
         Sample     Time Unit  Well  Value Frequency Experiment cells line  Instrument
         <chr>     <dbl> <chr> <chr> <dbl>     <dbl> <fct>      <chr> <chr> <chr>     
       1 35,000_c~     0 Alpha A01      NA         0 1 : Exper~ 35000 HCME~ ECIS      
       2 35,000_c~     0 Alpha A02      NA         0 1 : Exper~ 35000 HCME~ ECIS      
       3 35,000_c~     0 Alpha A03      NA         0 1 : Exper~ 35000 HCME~ ECIS      
       4 35,000_c~     0 Cm    A01      NA         0 1 : Exper~ 35000 HCME~ ECIS      
       5 35,000_c~     0 Cm    A02      NA         0 1 : Exper~ 35000 HCME~ ECIS      
       6 35,000_c~     0 Cm    A03      NA         0 1 : Exper~ 35000 HCME~ ECIS      
       7 35,000_c~     0 Drift A01      NA         0 1 : Exper~ 35000 HCME~ ECIS      
       8 35,000_c~     0 Drift A02      NA         0 1 : Exper~ 35000 HCME~ ECIS      
       9 35,000_c~     0 Drift A03      NA         0 1 : Exper~ 35000 HCME~ ECIS      
      10 35,000_c~     0 Rb    A01      NA         0 1 : Exper~ 35000 HCME~ ECIS      
      # i 146,360 more rows
      # i 2 more variables: SampleID <int>, Excluded <chr>
…
