…
---

    Code
      cc_data
    Output
      # A tibble: 135 x 10
      # Rowwise:  Experiment
         Well.x SampleID.x Sample.x     Experiment values.x Well.y SampleID.y Sample.y
         <chr>       <int> <chr>        <fct>      <list>   <chr>       <int> <chr>   
       1 A01             1 35,000_cell~ 1 : Exper~ <dbl>    A01             1 35,000_~
       2 A01             1 35,000_cell~ 1 : Exper~ <dbl>    A02             1 35,000_~
       3 A01             1 35,000_cell~ 1 : Exper~ <dbl>    A03             1 35,000_~
       4 A01             1 20,000_cell~ 1 : Exper~ <dbl>    D01             4 35,000_~
       5 A01             1 20,000_cell~ 1 : Exper~ <dbl>    D02             4 35,000_~
       6 A01             1 20,000_cell~ 1 : Exper~ <dbl>    D03             4 35,000_~
       7 A01             1 5,000_cells~ 1 : Exper~ <dbl>    G01             7 35,000_~
       8 A01             1 5,000_cells~ 1 : Exper~ <dbl>    G02             7 35,000_~
       9 A01             1 5,000_cells~ 1 : Exper~ <dbl>    G03             7 35,000_~
      10 A02             1 35,000_cell~ 1 : Exper~ <dbl>    A01             1 35,000_~
      # i 125 more rows
      # i 2 more variables: values.y <list>, cc <dbl>

---

    Code
      cc_data
    Output
      # A tibble: 162 x 10
      # Rowwise:  Experiment
         Well.x SampleID.x Sample.x     Experiment values.x Well.y SampleID.y Sample.y
         <chr>       <int> <chr>        <fct>      <list>   <chr>       <int> <chr>   
       1 A01             1 35,000_cell~ 1 : Exper~ <dbl>    A01             1 35,000_~
       2 A01             1 35,000_cell~ 1 : Exper~ <dbl>    A02             1 35,000_~
       3 A01             1 35,000_cell~ 1 : Exper~ <dbl>    A03             1 35,000_~
       4 A01             1 35,000_cell~ 1 : Exper~ <dbl>    D01             4 20,000_~
       5 A01             1 20,000_cell~ 1 : Exper~ <dbl>    D02             4 35,000_~
       6 A01             1 35,000_cell~ 1 : Exper~ <dbl>    D03             4 20,000_~
       7 A01             1 5,000_cells~ 1 : Exper~ <dbl>    G01             7 35,000_~
       8 A01             1 35,000_cell~ 1 : Exper~ <dbl>    G02             7 5,000_c~
       9 A01             1 5,000_cells~ 1 : Exper~ <dbl>    G03             7 35,000_~
      10 A02             1 35,000_cell~ 1 : Exper~ <dbl>    A01             1 35,000_~
      # i 152 more rows
      # i 2 more variables: values.y <list>, cc <dbl>

---

    Code
      cc_data
    Output
      # A tibble: 162 x 10
      # Rowwise:  Experiment
         Well.x SampleID.x Sample.x     Experiment values.x Well.y SampleID.y Sample.y
         <chr>       <int> <fct>        <fct>      <list>   <chr>       <int> <fct>   
       1 A01             1 35,000_cell~ 1 : Exper~ <dbl>    A01             1 35,000_~
       2 A01             1 35,000_cell~ 1 : Exper~ <dbl>    A02             1 35,000_~
       3 A01             1 35,000_cell~ 1 : Exper~ <dbl>    A03             1 35,000_~
       4 A01             1 35,000_cell~ 1 : Exper~ <dbl>    D01             4 20,000_~
       5 A01             1 35,000_cell~ 1 : Exper~ <dbl>    D02             4 20,000_~
       6 A01             1 35,000_cell~ 1 : Exper~ <dbl>    D03             4 20,000_~
       7 A01             1 35,000_cell~ 1 : Exper~ <dbl>    G01             7 5,000_c~
       8 A01             1 35,000_cell~ 1 : Exper~ <dbl>    G02             7 5,000_c~
       9 A01             1 35,000_cell~ 1 : Exper~ <dbl>    G03             7 5,000_c~
      10 A02             1 35,000_cell~ 1 : Exper~ <dbl>    A01             1 35,000_~
      # i 152 more rows
      # i 2 more variables: values.y <list>, cc <dbl>
…
