…
---

    Code
      suppressMessages(import_sciospec(data_path))
    Output
      # A tibble: 16,160 x 11
         channel      Frequency Unit    Value Well  Instrument  Time Experiment Sample
         <chr>            <dbl> <chr>   <dbl> <chr> <chr>      <dbl> <lgl>      <chr> 
       1 Channel: EC~      100. R      20261. D02   sciospec       0 NA         D02   
       2 Channel: EC~      100. I     -19551. D02   sciospec       0 NA         D02   
       3 Channel: EC~      110. R      18171. D02   sciospec       0 NA         D02   
       4 Channel: EC~      110. I     -15598. D02   sciospec       0 NA         D02   
       5 Channel: EC~      120. R      17839. D02   sciospec       0 NA         D02   
       6 Channel: EC~      120. I     -16083. D02   sciospec       0 NA         D02   
       7 Channel: EC~      132. R      17475. D02   sciospec       0 NA         D02   
       8 Channel: EC~      132. I     -14845. D02   sciospec       0 NA         D02   
       9 Channel: EC~      145. R      17380. D02   sciospec       0 NA         D02   
      10 Channel: EC~      145. I     -13290. D02   sciospec       0 NA         D02   
      # i 16,150 more rows
      # i 2 more variables: SampleID <dbl>, Excluded <chr>

---

    Code
      suppressMessages(import_sciospec(data_path, shear = TRUE))
    Output
      # A tibble: 16,160 x 11
         channel      Frequency Unit    Value Well  Instrument  Time Experiment Sample
         <chr>            <dbl> <chr>   <dbl> <chr> <chr>      <dbl> <lgl>      <chr> 
       1 Channel: EC~      100. R      20261. F01   sciospec       0 NA         F01   
       2 Channel: EC~      100. I     -19551. F01   sciospec       0 NA         F01   
       3 Channel: EC~      110. R      18171. F01   sciospec       0 NA         F01   
       4 Channel: EC~      110. I     -15598. F01   sciospec       0 NA         F01   
       5 Channel: EC~      120. R      17839. F01   sciospec       0 NA         F01   
       6 Channel: EC~      120. I     -16083. F01   sciospec       0 NA         F01   
       7 Channel: EC~      132. R      17475. F01   sciospec       0 NA         F01   
       8 Channel: EC~      132. I     -14845. F01   sciospec       0 NA         F01   
       9 Channel: EC~      145. R      17380. F01   sciospec       0 NA         F01   
      10 Channel: EC~      145. I     -13290. F01   sciospec       0 NA         F01   
      # i 16,150 more rows
      # i 2 more variables: SampleID <dbl>, Excluded <chr>
