…
## Usage

Some possible implementations of the `washex` package include

``` r
library(washex)
library(tidyverse)

sponsors_2007 <- getSponsors("2007-08")
sponsors_2007 %>% 
  group_by(District) %>%
  summarize(prop_repub = round(mean(Party == "R"),3))
#> # A tibble: 49 x 2
#>    District prop_repub
#>    <chr>         <dbl>
#>  1 1             0    
#>  2 10            0.75 
#>  3 11            0    
#>  4 12            1    
#>  5 13            1    
#>  6 14            1    
#>  7 15            1    
#>  8 16            0.667
#>  9 17            0.667
#> 10 18            1    
#> # ... with 39 more rows
…
