…
### Extracting parameters, trajectories and flows

If you are interested in getting detailed tables containing all the samples of the parameter posteriors, you can use the `tidy_mcmc()` function:


``` r
tidy_mcmc(run)
```

```
## # A tibble: 2,000 × 3
##    mcmc.chain mcmc.iteration mcmc.parameters
##         <int>          <int> <list>         
##  1          1              1 <dbl [8]>      
##  2          1              2 <dbl [8]>      
##  3          1              3 <dbl [8]>      
##  4          1              4 <dbl [8]>      
##  5          1              5 <dbl [8]>      
##  6          1              6 <dbl [8]>      
##  7          1              7 <dbl [8]>      
##  8          1              8 <dbl [8]>      
##  9          1              9 <dbl [8]>      
## 10          1             10 <dbl [8]>      
## # ℹ 1,990 more rows
```

By default the parameter values are nested into a list column, but you can also get a flat table with `spread = TRUE`:


``` r
tidy_mcmc(run, spread = TRUE)
```

```
## # A tibble: 2,000 × 10
##    mcmc.chain mcmc.iteration    eta lambda_algae lambda_daphnia lambda_NH4
##         <int>          <int>  <dbl>        <dbl>          <dbl>      <dbl>
##  1          1              1 0.113        0.0383        0.00535     0.0704
##  2          1              2 0.242        0.0941        0.0627      0.0302
##  3          1              3 0.130        0.140         0.0291      0.164 
##  4          1              4 0.0921       0.203         0.0176      0.278 
##  5          1              5 0.0901       0.299         0.0170      0.252 
##  6          1              6 0.103        0.142         0.0596      0.156 
##  7          1              7 0.113        0.160         0.0202      0.0660
##  8          1              8 0.0978       0.0302        0.0200      0.0110
##  9          1              9 0.142        0.0859        0.0325      0.0658
## 10          1             10 0.117        0.0398        0.0456      0.0897
## # ℹ 1,990 more rows
## # ℹ 4 more variables: upsilon_algae_to_daphnia <dbl>, upsilon_daphnia_to_NH4 <dbl>,
## #   upsilon_NH4_to_algae <dbl>, zeta <dbl>
```

The above table only contains the primary parameters. If you are interested in getting the predicted trajectories for individual MCMC samples, you can use the `tidy_trajectories()` function:


``` r
# We have to also provide the original network model `m`
tt <- tidy_trajectories(m, run, n = 200)
tt
```


```
## # A tibble: 200 × 4
##    mcmc.chain mcmc.iteration mcmc.parameters trajectories    
##         <int>          <int> <list>          <list>          
##  1          4             28 <dbl [8]>       <tibble [1 × 5]>
##  2          2             87 <dbl [8]>       <tibble [1 × 5]>
##  3          2            319 <dbl [8]>       <tibble [1 × 5]>
##  4          4            295 <dbl [8]>       <tibble [1 × 5]>
##  5          1             71 <dbl [8]>       <tibble [1 × 5]>
##  6          2            184 <dbl [8]>       <tibble [1 × 5]>
##  7          1            371 <dbl [8]>       <tibble [1 × 5]>
##  8          2            257 <dbl [8]>       <tibble [1 × 5]>
##  9          2            198 <dbl [8]>       <tibble [1 × 5]>
## 10          1            307 <dbl [8]>       <tibble [1 × 5]>
## # ℹ 190 more rows
```
…
<img src="figures/z-fig-090-unnamed-chunk-22-1.jpeg" style="display: block; margin: auto;" />

Finally, if what you are interested in are not the trajectories per se but the actual flows of nutrient during the experiment, you can use the `tidy_flows()` function to extract flows in a similar way:


``` r
#' Again, note that we also provide the original network model `m`
tf <- tidy_flows(m, run, n = 200)
tf
```


```
## # A tibble: 200 × 4
##    mcmc.chain mcmc.iteration mcmc.parameters flows             
##  *      <int>          <int> <list>          <list>            
##  1          1            372 <dbl [8]>       <gropd_df [6 × 3]>
##  2          2            215 <dbl [8]>       <gropd_df [6 × 3]>
##  3          4            226 <dbl [8]>       <gropd_df [6 × 3]>
##  4          1            172 <dbl [8]>       <gropd_df [6 × 3]>
##  5          1            222 <dbl [8]>       <gropd_df [6 × 3]>
##  6          2            221 <dbl [8]>       <gropd_df [6 × 3]>
##  7          3            310 <dbl [8]>       <gropd_df [6 × 3]>
##  8          2            205 <dbl [8]>       <gropd_df [6 × 3]>
##  9          2             34 <dbl [8]>       <gropd_df [6 × 3]>
## 10          2            110 <dbl [8]>       <gropd_df [6 × 3]>
## # ℹ 190 more rows
```
…
