KibioR - Introduction
…
4.3 $pull(): Download a dataset from Elasticsearch

The $pull() method downloads datasets. It can retrieve all or parts of datasets.

s <- kc$pull("storms")
s %>% names()

## [1] "storms"

Results are stored in a list of tibbles.

s$storms

## # A tibble: 10,010 x 14
##    name   year month   day  hour   lat  long status category  wind pressure
##    <chr> <int> <int> <int> <int> <dbl> <dbl> <chr>  <chr>    <int>    <int>
##  1 Ike    2008     9     7    18  21   -74   hurri… 3          105      946
##  2 Ike    2008     9     8     0  21.1 -75.2 hurri… 4          115      945
##  3 Ike    2008     9     8     2  21.1 -75.7 hurri… 4          115      945
##  4 Ike    2008     9     8     6  21.1 -76.5 hurri… 3          100      950
##  5 Ike    2008     9     8    12  21.1 -77.8 hurri… 2           85      960
##  6 Ike    2008     9     8    18  21.2 -79.1 hurri… 1           75      964
##  7 Ike    2008     9     9     0  21.5 -80.3 hurri… 1           70      965
##  8 Ike    2008     9     9     6  22   -81.4 hurri… 1           70      965
##  9 Ike    2008     9     9    12  22.4 -82.4 hurri… 1           70      965
## 10 Ike    2008     9     9    14  22.6 -82.9 hurri… 1           70      965
## # … with 10,000 more rows, and 3 more variables: ts_diameter <dbl>,
## #   hu_diameter <dbl>, kid <int>
…
The $export() method create file and export in-memory dataset or Elasticsearch index to this file.

#> Create temp files with data
storms_memory_tmp <- tempfile(fileext=".csv")
storms_elastic_tmp <- tempfile(fileext=".csv")

#> export a in-memory dataset to a file
dplyr::storms %>% kc$export(data = ., filepath = storms_memory_tmp)

## [1] "/tmp/RtmpVAwsWi/file243436451ae3.csv"

kc$import(storms_memory_tmp) %>% tibble::as_tibble()

## # A tibble: 10,010 x 13
##    name   year month   day  hour   lat  long status category  wind pressure
##    <chr> <int> <int> <int> <int> <dbl> <dbl> <chr>     <int> <int>    <int>
##  1 Amy    1975     6    27     0  27.5 -79   tropi…       -1    25     1013
##  2 Amy    1975     6    27     6  28.5 -79   tropi…       -1    25     1013
##  3 Amy    1975     6    27    12  29.5 -79   tropi…       -1    25     1013
##  4 Amy    1975     6    27    18  30.5 -79   tropi…       -1    25     1013
##  5 Amy    1975     6    28     0  31.5 -78.8 tropi…       -1    25     1012
##  6 Amy    1975     6    28     6  32.4 -78.7 tropi…       -1    25     1012
##  7 Amy    1975     6    28    12  33.3 -78   tropi…       -1    25     1011
##  8 Amy    1975     6    28    18  34   -77   tropi…       -1    30     1006
##  9 Amy    1975     6    29     0  34.4 -75.8 tropi…        0    35     1004
## 10 Amy    1975     6    29     6  34   -74.8 tropi…        0    40     1002
## # … with 10,000 more rows, and 2 more variables: ts_diameter <dbl>,
## #   hu_diameter <dbl>

#> export an Elasticsearch index to a file
"storms" %>% kc$export(data = ., filepath = storms_elastic_tmp)

## [1] "/tmp/RtmpVAwsWi/file24343220815.csv"

kc$import(storms_elastic_tmp) %>% tibble::as_tibble()

## # A tibble: 10,010 x 14
##    name   year month   day  hour   lat  long status category  wind pressure
##    <chr> <int> <int> <int> <int> <dbl> <dbl> <chr>     <int> <int>    <int>
##  1 Ike    2008     9     7    18  21   -74   hurri…        3   105      946
##  2 Ike    2008     9     8     0  21.1 -75.2 hurri…        4   115      945
##  3 Ike    2008     9     8     2  21.1 -75.7 hurri…        4   115      945
##  4 Ike    2008     9     8     6  21.1 -76.5 hurri…        3   100      950
##  5 Ike    2008     9     8    12  21.1 -77.8 hurri…        2    85      960
##  6 Ike    2008     9     8    18  21.2 -79.1 hurri…        1    75      964
##  7 Ike    2008     9     9     0  21.5 -80.3 hurri…        1    70      965
##  8 Ike    2008     9     9     6  22   -81.4 hurri…        1    70      965
##  9 Ike    2008     9     9    12  22.4 -82.4 hurri…        1    70      965
## 10 Ike    2008     9     9    14  22.6 -82.9 hurri…        1    70      965
## # … with 10,000 more rows, and 3 more variables: ts_diameter <dbl>,
## #   hu_diameter <dbl>, kid <int>
…
## [1] "/tmp/RtmpVAwsWi/file243412667717.csv.zip"

Note: kibior is using rio (Chan et al. 2018) that can export much more formats. See rio documentation and rio::install_formats() function.

4.11 $import(): Get a file content to a new Elasticsearch index

The $import() method can duplicate a dataset retrieved from a file to a in-memory variable, a new Elasticsearch index or both.

#> import data from file
kc$import(filepath = storms_memory_tmp)

## # A tibble: 10,010 x 13
##    name   year month   day  hour   lat  long status category  wind pressure
##    <chr> <int> <int> <int> <int> <dbl> <dbl> <chr>     <int> <int>    <int>
##  1 Amy    1975     6    27     0  27.5 -79   tropi…       -1    25     1013
##  2 Amy    1975     6    27     6  28.5 -79   tropi…       -1    25     1013
##  3 Amy    1975     6    27    12  29.5 -79   tropi…       -1    25     1013
##  4 Amy    1975     6    27    18  30.5 -79   tropi…       -1    25     1013
##  5 Amy    1975     6    28     0  31.5 -78.8 tropi…       -1    25     1012
##  6 Amy    1975     6    28     6  32.4 -78.7 tropi…       -1    25     1012
##  7 Amy    1975     6    28    12  33.3 -78   tropi…       -1    25     1011
##  8 Amy    1975     6    28    18  34   -77   tropi…       -1    30     1006
##  9 Amy    1975     6    29     0  34.4 -75.8 tropi…        0    35     1004
## 10 Amy    1975     6    29     6  34   -74.8 tropi…        0    40     1002
## # … with 10,000 more rows, and 2 more variables: ts_diameter <dbl>,
## #   hu_diameter <dbl>

#> import data from file and send it to a new 
#> Elasticsearch index, with default configuration
kc$import(filepath = storms_memory_tmp, 
        push_index = "storms_file",
        push_mode = "recreate")

## # A tibble: 10,010 x 14
##    name   year month   day  hour   lat  long status category  wind pressure
##    <chr> <int> <int> <int> <int> <dbl> <dbl> <chr>     <int> <int>    <int>
##  1 Sean   2011    11    10    18  30.5 -70   tropi…        0    55      983
##  2 Sean   2011    11    11     0  31   -69   tropi…        0    55      984
##  3 Sean   2011    11    11     6  32.2 -67.2 tropi…        0    50      987
##  4 Sean   2011    11    11    12  33.4 -65.3 tropi…        0    45      991
##  5 Sean   2011    11    11    18  34.8 -62.6 tropi…        0    40      995
##  6 Albe…  2012     5    19     6  32.8 -77.1 tropi…       -1    30     1008
##  7 Albe…  2012     5    19    12  32.5 -77.3 tropi…        0    40     1005
##  8 Albe…  2012     5    19    18  32.3 -77.6 tropi…        0    45      997
##  9 Albe…  2012     5    20     0  32.1 -78.1 tropi…        0    50      995
## 10 Albe…  2012     5    20     6  31.9 -78.7 tropi…        0    45      998
## # … with 10,000 more rows, and 3 more variables: ts_diameter <dbl>,
## #   hu_diameter <dbl>, kid <int>

kc$list()

## [1] "starwars" "storms"     "storms_file"

As $export(), it can also read directly from zipped files.

#> import data from file and send it to a new 
#> Elasticsearch index, with default configuration
kc$import(storms_memory_zip)

## # A tibble: 10,010 x 13
##    name   year month   day  hour   lat  long status category  wind pressure
##    <chr> <int> <int> <int> <int> <dbl> <dbl> <chr>     <int> <int>    <int>
##  1 Amy    1975     6    27     0  27.5 -79   tropi…       -1    25     1013
##  2 Amy    1975     6    27     6  28.5 -79   tropi…       -1    25     1013
##  3 Amy    1975     6    27    12  29.5 -79   tropi…       -1    25     1013
##  4 Amy    1975     6    27    18  30.5 -79   tropi…       -1    25     1013
##  5 Amy    1975     6    28     0  31.5 -78.8 tropi…       -1    25     1012
##  6 Amy    1975     6    28     6  32.4 -78.7 tropi…       -1    25     1012
##  7 Amy    1975     6    28    12  33.3 -78   tropi…       -1    25     1011
##  8 Amy    1975     6    28    18  34   -77   tropi…       -1    30     1006
##  9 Amy    1975     6    29     0  34.4 -75.8 tropi…        0    35     1004
## 10 Amy    1975     6    29     6  34   -74.8 tropi…        0    40     1002
## # … with 10,000 more rows, and 2 more variables: ts_diameter <dbl>,
## #   hu_diameter <dbl>
…
s$storms

## # A tibble: 722 x 14
##    name   year month   day  hour   lat  long status category  wind pressure
##    <chr> <int> <int> <int> <int> <dbl> <dbl> <chr>  <chr>    <int>    <int>
##  1 Debby  1988     9     6     6  21.5 -107. tropi… -1          30     1005
##  2 Debby  1988     9     6    12  22   -107. tropi… -1          25     1005
##  3 Debby  1988     9     6    18  22.5 -108. tropi… -1          25     1006
##  4 Debby  1988     9     7     0  23   -108  tropi… -1          25     1006
##  5 Debby  1988     9     7     6  23.5 -108. tropi… -1          25     1007
##  6 Debby  1988     9     7    12  23.9 -108. tropi… -1          25     1007
##  7 Debby  1988     9     7    18  24.2 -109. tropi… -1          25     1007
##  8 Debby  1988     9     8     0  24.4 -109. tropi… -1          25     1008
##  9 Debby  1988     9     8     6  24.3 -109. tropi… -1          20     1008
## 10 Debby  1988     9     8    12  24.2 -109. tropi… -1          20     1008
## # … with 712 more rows, and 3 more variables: ts_diameter <dbl>,
## #   hu_diameter <dbl>, kid <int>
…
We can apply the same request and found some new results.

#> search all, same request as before
s <- kc$search("storms_*", 
            query = "wind:>25 && pressure:>30", 
            columns = c("name", "year", "month", "lat", "long", "status"), 
            head = FALSE)
#> assemble results if needed
do.call(rbind, s)

## # A tibble: 96 x 6
##    month  year name       lat  long status             
##  * <int> <int> <chr>    <dbl> <dbl> <chr>              
##  1     6  1993 AL011993  25.4 -77.5 tropical depression
##  2     6  1993 AL011993  26.1 -75.8 tropical depression
##  3     6  1993 AL011993  26.7 -74   tropical depression
##  4     6  1993 AL011993  27.8 -71.8 tropical depression
##  5    12  2005 Zeta      23.9 -35.6 tropical depression
##  6    12  2005 Zeta      24.2 -36.1 tropical storm     
##  7    12  2005 Zeta      24.7 -36.6 tropical storm     
##  8    12  2005 Zeta      25.2 -37   tropical storm     
##  9    12  2005 Zeta      25.6 -37.3 tropical storm     
## 10    12  2005 Zeta      25.7 -37.6 tropical storm     
## # … with 86 more rows
…
#> searching premium or ideal quality of diamonds, 
#> with a price inferior to 10k$, a carat superior to 1.4,
#> a z between 2.2 and 5.4 included, and not colors E or H. 
#> we only want some columns.
kc$search("diamonds", 
        query = "cut:(premium || ideal) 
            && price:<10000 
            && carat:>1.4 
            && z:[2.2 TO 5.4] 
            && -color:(E || H)", 
        columns = c("carat", "color", "depth", "clarity", "price", "z"), 
        head = FALSE)

## $diamonds
## # A tibble: 765 x 6
##    depth color clarity price carat     z
##    <dbl> <chr> <chr>   <int> <dbl> <dbl>
##  1  62.4 J     SI1      8176  1.59  4.66
##  2  62.7 I     SI1      8193  1.51  4.59
##  3  61.5 J     VS2      8203  1.51  4.54
##  4  62   J     VS1      8207  1.54  4.62
##  5  62   J     VS2      8217  1.51  4.54
##  6  62.2 I     SI2      8220  1.62  4.69
##  7  62.4 J     SI1      8221  1.57  4.65
##  8  60.3 J     VVS2     8227  1.59  4.59
##  9  62.6 I     SI2      8228  1.57  4.63
## 10  62   I     SI2      8254  1.54  4.56
## # … with 755 more rows
…
## $diamonds
## # A tibble: 552 x 6
##    depth color clarity price carat     z
##    <dbl> <chr> <chr>   <int> <dbl> <dbl>
##  1  62.8 I     SI1      8574  1.51  4.58
##  2  61.4 G     SI2      8580  1.5   4.52
##  3  62   G     SI2      8580  1.5   4.52
##  4  62.8 G     SI1      8599  1.43  4.49
##  5  62.2 J     SI1      8610  1.65  4.7 
##  6  62.7 D     SI2      8631  1.52  4.59
##  7  60.8 G     SI2      8637  1.51  4.51
##  8  61.9 I     SI2      8637  1.53  4.56
##  9  62   G     SI2      8643  1.57  4.62
## 10  62.1 I     SI1      8685  1.5   4.56
## # … with 542 more rows
…
Elasticsearch has some reserved characters : + - = && || > < ! ( ) { } [ ] ^ " ~ * ? : \ /

You should remove them before pushing them into Elasticsearch. If it is not possible or you want to retrieve data from someone else that contains reserved characters, you should try to query with a keyword field.

5.5 $push() details

5.5.1 Define a unique IDs column

When pushing data with default parameters, kibior will define unique IDs for each record (each line of a table) and add them as metadata. You can retrieve them by using $pull(keep_metadata = TRUE).

#> With the storms index
kc$pull("storms", keep_metadata = TRUE)$storms

## # A tibble: 10,010 x 21
##    `_index` `_type` `_id` `_version` `_seq_no` `_primary_term` found `_source.name` `_source.year` `_source.month`
##    <chr>    <chr>   <chr>      <int>     <int>           <int> <lgl> <chr>                   <int>           <int>
##  1 storms   _doc    10001          1     10000               1 TRUE  Kate                     2015              11
##  2 storms   _doc    10002          1     10001               1 TRUE  Kate                     2015              11
##  3 storms   _doc    10003          1     10002               1 TRUE  Kate                     2015              11
##  4 storms   _doc    10004          1     10003               1 TRUE  Kate                     2015              11
##  5 storms   _doc    10005          1     10004               1 TRUE  Kate                     2015              11
##  6 storms   _doc    10006          1     10005               1 TRUE  Kate                     2015              11
##  7 storms   _doc    10007          1     10006               1 TRUE  Kate                     2015              11
##  8 storms   _doc    10008          1     10007               1 TRUE  Kate                     2015              11
##  9 storms   _doc    10009          1     10008               1 TRUE  Kate                     2015              11
## 10 storms   _doc    10010          1     10009               1 TRUE  Kate                     2015              11
## # … with 10,000 more rows, and 11 more variables: `_source.day` <int>, `_source.hour` <int>, `_source.lat` <dbl>,
## #   `_source.long` <dbl>, `_source.status` <chr>, `_source.category` <chr>, `_source.wind` <int>,
## #   `_source.pressure` <int>, `_source.ts_diameter` <dbl>, `_source.hu_diameter` <dbl>, `_source.kid` <int>
…
## [1] "storm_with_our_id"

#> and see 
s <- kc$pull("storm_with_our_id", 
             columns = "a_new_unique_id",
             keep_metadata = TRUE)$storm_with_our_id
s %>% dplyr::select(c("_id", "_source.a_new_unique_id"))

## # A tibble: 10,010 x 2
##    `_id`   `_source.a_new_unique_id`
##    <chr>   <chr>                    
##  1 aaa8991 aaa8991                  
##  2 aaa8992 aaa8992                  
##  3 aaa8993 aaa8993                  
##  4 aaa8994 aaa8994                  
##  5 aaa8995 aaa8995                  
##  6 aaa8996 aaa8996                  
##  7 aaa8997 aaa8997                  
##  8 aaa8998 aaa8998                  
##  9 aaa8999 aaa8999                  
## 10 aaa9000 aaa9000                  
## # … with 10,000 more rows

Caution here: the columns parameter does not apply to metadata.

#> columns match nothing except actual pushed data columns
kc$pull("storms", keep_metadata = TRUE, columns = c("_id", "_version"))$storms

## # A tibble: 10,010 x 7
##    `_index` `_type` `_id` `_version` `_seq_no` `_primary_term` found
##    <chr>    <chr>   <chr>      <int>     <int>           <int> <lgl>
##  1 storms   _doc    10001          1     10000               1 TRUE 
##  2 storms   _doc    10002          1     10001               1 TRUE 
##  3 storms   _doc    10003          1     10002               1 TRUE 
##  4 storms   _doc    10004          1     10003               1 TRUE 
##  5 storms   _doc    10005          1     10004               1 TRUE 
##  6 storms   _doc    10006          1     10005               1 TRUE 
##  7 storms   _doc    10007          1     10006               1 TRUE 
##  8 storms   _doc    10008          1     10007               1 TRUE 
##  9 storms   _doc    10009          1     10008               1 TRUE 
## 10 storms   _doc    10010          1     10009               1 TRUE 
## # … with 10,000 more rows
…
