# The function differentiate() works

    Code
      differentiate(vespa64$igp[[1]])
    Output
      # A tibble: 100 x 5
          time         w         x         y         z
         <int> <dec:.5!> <dec:.5!> <dec:.5!> <dec:.5!>
       1     1   0.99998  -0.00519  -0.00222  -0.00040
       2     2   0.99998  -0.00529  -0.00305  -0.00057
       3     3   0.99998  -0.00534  -0.00367  -0.00094
       4     4   0.99998  -0.00447  -0.00352  -0.00119
       5     5   0.99999  -0.00374  -0.00345  -0.00140
       6     6   0.99999  -0.00292  -0.00331  -0.00158
       7     7   0.99999  -0.00212  -0.00327  -0.00182
       8     8   0.99999  -0.00166  -0.00341  -0.00209
       9     9   0.99999  -0.00145  -0.00371  -0.00229
      10    10   0.99999  -0.00168  -0.00394  -0.00239
      # i 90 more rows

---

    Code
      differentiate(vespa64$igp)
    Output
      [[1]]
      # A tibble: 100 x 5
          time         w         x         y         z
         <int> <dec:.5!> <dec:.5!> <dec:.5!> <dec:.5!>
       1     1   0.99998  -0.00519  -0.00222  -0.00040
       2     2   0.99998  -0.00529  -0.00305  -0.00057
       3     3   0.99998  -0.00534  -0.00367  -0.00094
       4     4   0.99998  -0.00447  -0.00352  -0.00119
       5     5   0.99999  -0.00374  -0.00345  -0.00140
       6     6   0.99999  -0.00292  -0.00331  -0.00158
       7     7   0.99999  -0.00212  -0.00327  -0.00182
       8     8   0.99999  -0.00166  -0.00341  -0.00209
       9     9   0.99999  -0.00145  -0.00371  -0.00229
      10    10   0.99999  -0.00168  -0.00394  -0.00239
      # i 90 more rows
      
      [[2]]
      # A tibble: 100 x 5
          time         w         x         y         z
         <int> <dec:.5!> <dec:.5!> <dec:.5!> <dec:.5!>
       1     1   0.99998  -0.00562  -0.00244   0.00021
       2     2   0.99998  -0.00562  -0.00285   0.00006
       3     3   0.99998  -0.00577  -0.00337  -0.00028
       4     4   0.99998  -0.00569  -0.00364  -0.00055
       5     5   0.99998  -0.00508  -0.00369  -0.00088
       6     6   0.99999  -0.00380  -0.00343  -0.00120
       7     7   0.99999  -0.00288  -0.00344  -0.00154
       8     8   0.99999  -0.00221  -0.00365  -0.00188
       9     9   0.99999  -0.00171  -0.00389  -0.00215
      10    10   0.99999  -0.00133  -0.00390  -0.00228
      # i 90 more rows
      
      [[3]]
      # A tibble: 100 x 5
          time         w         x         y         z
         <int> <dec:.5!> <dec:.5!> <dec:.5!> <dec:.5!>
       1     1   0.99998  -0.00564   0.00059  -0.00011
       2     2   0.99998  -0.00653  -0.00025   0.00072
       3     3   0.99997  -0.00744  -0.00093   0.00096
       4     4   0.99997  -0.00702  -0.00130   0.00112
       5     5   0.99998  -0.00613  -0.00167   0.00103
       6     6   0.99998  -0.00524  -0.00202   0.00100
       7     7   0.99999  -0.00422  -0.00243   0.00097
       8     8   0.99999  -0.00337  -0.00290   0.00093
       9     9   0.99999  -0.00273  -0.00343   0.00088
      10    10   0.99999  -0.00217  -0.00386   0.00082
      # i 90 more rows
      
      [[4]]
      # A tibble: 100 x 5
          time         w         x         y         z
         <int> <dec:.5!> <dec:.5!> <dec:.5!> <dec:.5!>
       1     1   0.99998  -0.00579   0.00081   0.00039
       2     2   0.99998  -0.00622  -0.00025   0.00075
       3     3   0.99998  -0.00672  -0.00079   0.00097
       4     4   0.99998  -0.00668  -0.00127   0.00110
       5     5   0.99998  -0.00595  -0.00164   0.00107
       6     6   0.99999  -0.00497  -0.00197   0.00101
       7     7   0.99999  -0.00384  -0.00233   0.00092
       8     8   0.99999  -0.00290  -0.00278   0.00089
       9     9   0.99999  -0.00212  -0.00346   0.00084
      10    10   0.99999  -0.00164  -0.00408   0.00069
      # i 90 more rows
      
      [[5]]
      # A tibble: 100 x 5
          time         w         x         y         z
         <int> <dec:.5!> <dec:.5!> <dec:.5!> <dec:.5!>
       1     1   0.99999  -0.00494  -0.00206  -0.00098
       2     2   0.99999  -0.00476  -0.00252  -0.00043
       3     3   0.99998  -0.00460  -0.00319  -0.00053
       4     4   0.99998  -0.00427  -0.00347  -0.00086
       5     5   0.99999  -0.00392  -0.00362  -0.00121
       6     6   0.99999  -0.00341  -0.00363  -0.00155
       7     7   0.99999  -0.00265  -0.00348  -0.00185
       8     8   0.99999  -0.00195  -0.00346  -0.00213
       9     9   0.99999  -0.00150  -0.00362  -0.00232
      10    10   0.99999  -0.00147  -0.00385  -0.00245
      # i 90 more rows
      
      [[6]]
      # A tibble: 100 x 5
          time         w         x         y         z
         <int> <dec:.5!> <dec:.5!> <dec:.5!> <dec:.5!>
       1     1   0.99998  -0.00559  -0.00017  -0.00074
       2     2   0.99998  -0.00554  -0.00178  -0.00025
       3     3   0.99998  -0.00576  -0.00300  -0.00024
       4     4   0.99998  -0.00560  -0.00360  -0.00046
       5     5   0.99998  -0.00499  -0.00363  -0.00068
       6     6   0.99998  -0.00423  -0.00354  -0.00099
       7     7   0.99999  -0.00294  -0.00330  -0.00145
       8     8   0.99999  -0.00196  -0.00327  -0.00184
       9     9   0.99999  -0.00145  -0.00353  -0.00224
      10    10   0.99999  -0.00113  -0.00376  -0.00254
      # i 90 more rows
      
      [[7]]
      # A tibble: 100 x 5
          time         w         x         y         z
         <int> <dec:.5!> <dec:.5!> <dec:.5!> <dec:.5!>
       1     1   0.99999  -0.00372   0.00203  -0.00002
       2     2   0.99999  -0.00331   0.00219   0.00036
       3     3   0.99999  -0.00327   0.00189   0.00090
       4     4   0.99999  -0.00338   0.00139   0.00124
       5     5   0.99999  -0.00332   0.00087   0.00151
       6     6   0.99999  -0.00322   0.00051   0.00189
       7     7   0.99999  -0.00281  -0.00032   0.00198
       8     8   0.99999  -0.00231  -0.00112   0.00200
       9     9   0.99999  -0.00204  -0.00167   0.00197
      10    10   0.99999  -0.00195  -0.00211   0.00199
      # i 90 more rows
      
      [[8]]
      # A tibble: 100 x 5
          time         w         x         y         z
         <int> <dec:.5!> <dec:.5!> <dec:.5!> <dec:.5!>
       1     1   0.99999  -0.00268   0.00201   0.00192
       2     2   0.99999  -0.00331   0.00215   0.00235
       3     3   0.99999  -0.00350   0.00154   0.00239
       4     4   0.99999  -0.00351   0.00084   0.00235
       5     5   0.99999  -0.00331   0.00001   0.00229
       6     6   0.99999  -0.00281  -0.00100   0.00218
       7     7   0.99999  -0.00231  -0.00198   0.00208
       8     8   0.99999  -0.00176  -0.00286   0.00203
       9     9   0.99999  -0.00141  -0.00365   0.00199
      10    10   0.99999  -0.00131  -0.00417   0.00196
      # i 90 more rows
      
      [[9]]
      # A tibble: 100 x 5
          time         w         x         y         z
         <int> <dec:.5!> <dec:.5!> <dec:.5!> <dec:.5!>
       1     1   0.99998  -0.00660  -0.00025   0.00077
       2     2   0.99997  -0.00756  -0.00152   0.00041
       3     3   0.99996  -0.00843  -0.00282   0.00005
       4     4   0.99996  -0.00806  -0.00360  -0.00054
       5     5   0.99997  -0.00708  -0.00399  -0.00117
       6     6   0.99998  -0.00532  -0.00402  -0.00195
       7     7   0.99998  -0.00340  -0.00364  -0.00268
       8     8   0.99999  -0.00181  -0.00309  -0.00341
       9     9   0.99999  -0.00083  -0.00239  -0.00385
      10    10   0.99999  -0.00050  -0.00168  -0.00391
      # i 90 more rows
      
      [[10]]
      # A tibble: 100 x 5
          time         w         x         y         z
         <int> <dec:.5!> <dec:.5!> <dec:.5!> <dec:.5!>
       1     1   0.99997  -0.00770   0.00050   0.00029
       2     2   0.99997  -0.00795  -0.00116   0.00050
       3     3   0.99996  -0.00800  -0.00262   0.00012
       4     4   0.99996  -0.00788  -0.00348  -0.00040
       5     5   0.99997  -0.00702  -0.00386  -0.00105
       6     6   0.99998  -0.00560  -0.00387  -0.00179
       7     7   0.99998  -0.00370  -0.00348  -0.00242
       8     8   0.99999  -0.00199  -0.00300  -0.00292
       9     9   0.99999  -0.00051  -0.00242  -0.00337
      10    10   0.99999   0.00011  -0.00186  -0.00363
      # i 90 more rows
      
      [[11]]
      # A tibble: 100 x 5
          time         w         x         y         z
         <int> <dec:.5!> <dec:.5!> <dec:.5!> <dec:.5!>
       1     1   0.99997  -0.00743   0.00259  -0.00012
       2     2   0.99997  -0.00724   0.00165   0.00007
       3     3   0.99998  -0.00657   0.00033   0.00007
       4     4   0.99999  -0.00510  -0.00094  -0.00007
       5     5   0.99999  -0.00389  -0.00223  -0.00030
       6     6   0.99999  -0.00302  -0.00371  -0.00060
       7     7   0.99998  -0.00288  -0.00490  -0.00084
       8     8   0.99998  -0.00271  -0.00547  -0.00112
       9     9   0.99998  -0.00243  -0.00535  -0.00144
      10    10   0.99999  -0.00190  -0.00428  -0.00155
      # i 90 more rows
      
      [[12]]
      # A tibble: 100 x 5
          time         w         x         y         z
         <int> <dec:.5!> <dec:.5!> <dec:.5!> <dec:.5!>
       1     1   0.99996  -0.00766   0.00346  -0.00017
       2     2   0.99997  -0.00745   0.00226   0.00036
       3     3   0.99998  -0.00668   0.00066   0.00054
       4     4   0.99998  -0.00573  -0.00129   0.00062
       5     5   0.99998  -0.00520  -0.00306   0.00057
       6     6   0.99998  -0.00460  -0.00444   0.00026
       7     7   0.99998  -0.00401  -0.00523  -0.00014
       8     8   0.99998  -0.00307  -0.00532  -0.00073
       9     9   0.99999  -0.00213  -0.00438  -0.00133
      10    10   0.99999  -0.00160  -0.00352  -0.00178
      # i 90 more rows
      
      [[13]]
      # A tibble: 100 x 5
          time         w         x         y         z
         <int> <dec:.5!> <dec:.5!> <dec:.5!> <dec:.5!>
       1     1   0.99999  -0.00362  -0.00259   0.00018
       2     2   0.99998  -0.00401  -0.00414   0.00031
       3     3   0.99999  -0.00338  -0.00369  -0.00041
       4     4   0.99999  -0.00253  -0.00303  -0.00109
       5     5   0.99999  -0.00155  -0.00226  -0.00181
       6     6   1.00000  -0.00081  -0.00163  -0.00231
       7     7   1.00000  -0.00041  -0.00123  -0.00268
       8     8   0.99999  -0.00043  -0.00110  -0.00300
       9     9   0.99999  -0.00087  -0.00117  -0.00314
      10    10   0.99999  -0.00146  -0.00136  -0.00300
      # i 90 more rows
      
      [[14]]
      # A tibble: 100 x 5
          time         w         x         y         z
         <int> <dec:.5!> <dec:.5!> <dec:.5!> <dec:.5!>
       1     1   0.99999  -0.00359  -0.00178   0.00074
       2     2   0.99999  -0.00418  -0.00255   0.00033
       3     3   0.99999  -0.00384  -0.00318  -0.00021
       4     4   0.99999  -0.00315  -0.00334  -0.00080
       5     5   0.99999  -0.00225  -0.00319  -0.00142
       6     6   0.99999  -0.00133  -0.00294  -0.00198
       7     7   0.99999  -0.00067  -0.00269  -0.00234
       8     8   0.99999  -0.00046  -0.00252  -0.00257
       9     9   0.99999  -0.00071  -0.00245  -0.00270
      10    10   0.99999  -0.00134  -0.00235  -0.00271
      # i 90 more rows
      
      [[15]]
      # A tibble: 100 x 5
          time         w         x         y         z
         <int> <dec:.5!> <dec:.5!> <dec:.5!> <dec:.5!>
       1     1   0.99999  -0.00455  -0.00186   0.00107
       2     2   0.99999  -0.00417  -0.00301   0.00094
       3     3   0.99999  -0.00350  -0.00384   0.00040
       4     4   0.99999  -0.00267  -0.00426  -0.00022
       5     5   0.99999  -0.00167  -0.00424  -0.00088
       6     6   0.99999  -0.00074  -0.00403  -0.00150
       7     7   0.99999  -0.00014  -0.00371  -0.00194
       8     8   0.99999   0.00010  -0.00333  -0.00217
       9     9   0.99999  -0.00011  -0.00291  -0.00215
      10    10   0.99999  -0.00070  -0.00251  -0.00198
      # i 90 more rows
      
      [[16]]
      # A tibble: 100 x 5
          time         w         x         y         z
         <int> <dec:.5!> <dec:.5!> <dec:.5!> <dec:.5!>
       1     1   0.99998  -0.00546  -0.00077   0.00127
       2     2   0.99999  -0.00472  -0.00212   0.00115
       3     3   0.99999  -0.00414  -0.00309   0.00074
       4     4   0.99999  -0.00333  -0.00364   0.00027
       5     5   0.99999  -0.00238  -0.00387  -0.00028
       6     6   0.99999  -0.00138  -0.00380  -0.00085
       7     7   0.99999  -0.00069  -0.00371  -0.00139
       8     8   0.99999  -0.00038  -0.00365  -0.00181
       9     9   0.99999  -0.00051  -0.00369  -0.00202
      10    10   0.99999  -0.00096  -0.00373  -0.00206
      # i 90 more rows
      
      [[17]]
      # A tibble: 100 x 5
          time         w         x         y         z
         <int> <dec:.5!> <dec:.5!> <dec:.5!> <dec:.5!>
       1     1   0.99999  -0.00430   0.00027  -0.00133
       2     2   0.99999  -0.00398  -0.00032  -0.00147
       3     3   0.99999  -0.00398  -0.00032  -0.00173
       4     4   0.99999  -0.00376  -0.00028  -0.00193
       5     5   0.99999  -0.00350  -0.00015  -0.00225
       6     6   0.99999  -0.00310  -0.00002  -0.00255
       7     7   0.99999  -0.00276   0.00003  -0.00282
       8     8   0.99999  -0.00259   0.00007  -0.00299
       9     9   0.99999  -0.00253   0.00007  -0.00309
      10    10   0.99999  -0.00255   0.00006  -0.00311
      # i 90 more rows
      
      [[18]]
      # A tibble: 100 x 5
          time         w         x         y         z
         <int> <dec:.5!> <dec:.5!> <dec:.5!> <dec:.5!>
       1     1   0.99999  -0.00479  -0.00072  -0.00115
       2     2   0.99999  -0.00443  -0.00084  -0.00139
       3     3   0.99999  -0.00412  -0.00062  -0.00177
       4     4   0.99999  -0.00368  -0.00041  -0.00205
       5     5   0.99999  -0.00323  -0.00032  -0.00242
       6     6   0.99999  -0.00271  -0.00027  -0.00276
       7     7   0.99999  -0.00223  -0.00016  -0.00303
       8     8   0.99999  -0.00218  -0.00007  -0.00333
       9     9   0.99999  -0.00217  -0.00010  -0.00337
      10    10   0.99999  -0.00231  -0.00017  -0.00337
      # i 90 more rows
      
      [[19]]
      # A tibble: 100 x 5
          time         w         x         y         z
         <int> <dec:.5!> <dec:.5!> <dec:.5!> <dec:.5!>
       1     1   0.99999  -0.00375   0.00135   0.00012
       2     2   0.99999  -0.00387   0.00020   0.00040
       3     3   0.99999  -0.00440  -0.00105   0.00059
       4     4   0.99999  -0.00465  -0.00186   0.00058
       5     5   0.99999  -0.00476  -0.00249   0.00047
       6     6   0.99999  -0.00459  -0.00294   0.00021
       7     7   0.99998  -0.00443  -0.00338  -0.00021
       8     8   0.99998  -0.00408  -0.00378  -0.00070
       9     9   0.99998  -0.00366  -0.00398  -0.00108
      10    10   0.99998  -0.00341  -0.00410  -0.00141
      # i 90 more rows
      
      [[20]]
      # A tibble: 100 x 5
          time         w         x         y         z
         <int> <dec:.5!> <dec:.5!> <dec:.5!> <dec:.5!>
       1     1   0.99998  -0.00539  -0.00145   0.00035
       2     2   0.99998  -0.00518  -0.00239   0.00063
       3     3   0.99998  -0.00525  -0.00303   0.00032
       4     4   0.99998  -0.00481  -0.00327  -0.00015
       5     5   0.99999  -0.00399  -0.00334  -0.00063
       6     6   0.99999  -0.00330  -0.00348  -0.00104
       7     7   0.99999  -0.00296  -0.00382  -0.00140
       8     8   0.99999  -0.00269  -0.00426  -0.00174
       9     9   0.99998  -0.00253  -0.00448  -0.00192
      10    10   0.99998  -0.00262  -0.00445  -0.00193
      # i 90 more rows
      
      [[21]]
      # A tibble: 100 x 5
          time         w         x         y         z
         <int> <dec:.5!> <dec:.5!> <dec:.5!> <dec:.5!>
       1     1   0.99998  -0.00559  -0.00068  -0.00068
       2     2   0.99999  -0.00501  -0.00088  -0.00076
       3     3   0.99999  -0.00484  -0.00074  -0.00117
       4     4   0.99999  -0.00436  -0.00057  -0.00157
       5     5   0.99999  -0.00400  -0.00036  -0.00210
       6     6   0.99999  -0.00370  -0.00021  -0.00262
       7     7   0.99999  -0.00351  -0.00014  -0.00294
       8     8   0.99999  -0.00331  -0.00006  -0.00307
       9     9   0.99999  -0.00333  -0.00002  -0.00317
      10    10   0.99999  -0.00357  -0.00001  -0.00326
      # i 90 more rows
      
      [[22]]
      # A tibble: 100 x 5
          time         w         x         y         z
         <int> <dec:.5!> <dec:.5!> <dec:.5!> <dec:.5!>
       1     1   0.99999  -0.00488  -0.00124  -0.00039
       2     2   0.99999  -0.00516  -0.00137  -0.00081
       3     3   0.99999  -0.00502  -0.00103  -0.00128
       4     4   0.99999  -0.00435  -0.00052  -0.00173
       5     5   0.99999  -0.00371  -0.00026  -0.00216
       6     6   0.99999  -0.00320  -0.00026  -0.00262
       7     7   0.99999  -0.00267  -0.00023  -0.00284
       8     8   0.99999  -0.00250  -0.00022  -0.00299
       9     9   0.99999  -0.00278  -0.00030  -0.00314
      10    10   0.99999  -0.00323  -0.00042  -0.00321
      # i 90 more rows
      
      [[23]]
      # A tibble: 100 x 5
          time         w         x         y         z
         <int> <dec:.5!> <dec:.5!> <dec:.5!> <dec:.5!>
       1     1   0.99999  -0.00424   0.00085   0.00012
       2     2   0.99999  -0.00405  -0.00038   0.00075
       3     3   0.99999  -0.00438  -0.00145   0.00091
       4     4   0.99999  -0.00468  -0.00234   0.00078
       5     5   0.99998  -0.00468  -0.00292   0.00043
       6     6   0.99998  -0.00455  -0.00336  -0.00016
       7     7   0.99998  -0.00425  -0.00358  -0.00065
       8     8   0.99998  -0.00397  -0.00391  -0.00116
       9     9   0.99998  -0.00370  -0.00425  -0.00169
      10    10   0.99998  -0.00372  -0.00450  -0.00211
      # i 90 more rows
      
      [[24]]
      # A tibble: 100 x 5
          time         w         x         y         z
         <int> <dec:.5!> <dec:.5!> <dec:.5!> <dec:.5!>
       1     1   0.99999  -0.00460   0.00025  -0.00041
       2     2   0.99999  -0.00394  -0.00033   0.00045
       3     3   0.99999  -0.00415  -0.00139   0.00054
       4     4   0.99999  -0.00448  -0.00233   0.00056
       5     5   0.99998  -0.00461  -0.00307   0.00036
       6     6   0.99998  -0.00457  -0.00363  -0.00001
       7     7   0.99998  -0.00422  -0.00396  -0.00051
       8     8   0.99998  -0.00391  -0.00431  -0.00101
       9     9   0.99998  -0.00363  -0.00463  -0.00147
      10    10   0.99998  -0.00336  -0.00476  -0.00182
      # i 90 more rows
      
      [[25]]
      # A tibble: 100 x 5
          time         w         x         y         z
         <int> <dec:.5!> <dec:.5!> <dec:.5!> <dec:.5!>
       1     1   1.00000  -0.00076  -0.00245  -0.00075
       2     2   0.99999  -0.00216  -0.00358  -0.00064
       3     3   0.99999  -0.00303  -0.00399  -0.00058
       4     4   0.99998  -0.00384  -0.00431  -0.00056
       5     5   0.99998  -0.00477  -0.00462  -0.00057
       6     6   0.99997  -0.00592  -0.00492  -0.00047
       7     7   0.99997  -0.00659  -0.00483  -0.00050
       8     8   0.99996  -0.00708  -0.00479  -0.00050
       9     9   0.99996  -0.00740  -0.00468  -0.00051
      10    10   0.99996  -0.00733  -0.00422  -0.00055
      # i 90 more rows
      
      [[26]]
      # A tibble: 100 x 5
          time         w         x         y         z
         <int> <dec:.5!> <dec:.5!> <dec:.5!> <dec:.5!>
       1     1   0.99999  -0.00336  -0.00371   0.00095
       2     2   0.99999  -0.00349  -0.00373   0.00054
       3     3   0.99999  -0.00351  -0.00351   0.00027
       4     4   0.99999  -0.00375  -0.00327  -0.00004
       5     5   0.99999  -0.00314  -0.00286  -0.00027
       6     6   0.99999  -0.00238  -0.00248  -0.00059
       7     7   0.99999  -0.00201  -0.00250  -0.00083
       8     8   0.99999  -0.00167  -0.00273  -0.00105
       9     9   0.99999  -0.00157  -0.00291  -0.00121
      10    10   0.99999  -0.00205  -0.00331  -0.00134
      # i 90 more rows
…
