…
## Usage

``` r
library(I14Y)
```

### Get concepts and codelists

You can get the full concept public catalog with
`i14y_search_concept()`:

``` r
i14y_search_concept()
#> # A tibble: 500 × 31
#>    accessRights businessEvents conceptValueType id        identifiers lifeEvents
#>    <lgl>        <list>         <chr>            <chr>     <list>      <list>    
#>  1 NA           <list [0]>     CodeList         08d92cdc… <chr [1]>   <list [0]>
#>  2 NA           <list [0]>     CodeList         08d92cdc… <chr [1]>   <list [0]>
#>  3 NA           <list [0]>     CodeList         08d92cdc… <chr [1]>   <list [0]>
#>  4 NA           <list [0]>     CodeList         08d92cdc… <chr [1]>   <list [0]>
#>  5 NA           <list [0]>     CodeList         08d92cdc… <chr [1]>   <list [0]>
#>  6 NA           <list [0]>     CodeList         08d9407c… <chr [1]>   <list [0]>
#>  7 NA           <list [0]>     CodeList         08d93fc7… <chr [1]>   <list [0]>
#>  8 NA           <list [0]>     CodeList         08d9407c… <chr [1]>   <list [0]>
#>  9 NA           <list [0]>     CodeList         08d92cdc… <chr [1]>   <list [0]>
#> 10 NA           <list [0]>     Numeric          08d93fba… <chr [1]>   <list [0]>
#> # ℹ 490 more rows
#> # ℹ 25 more variables: publicationLevel <chr>, publicationLevelProposal <lgl>,
#> #   registrationStatus <chr>, registrationStatusProposal <lgl>, status <chr>,
#> #   themes <list>, type <chr>, validFrom <chr>, validTo <chr>, version <chr>,
#> #   description.de <chr>, description.en <chr>, description.fr <chr>,
#> #   description.it <chr>, description.rm <lgl>, publisherName.de <chr>,
#> #   publisherName.en <chr>, publisherName.fr <chr>, publisherName.it <chr>, …
```
…
As showed in the `conceptType` column, some concepts have the type
“CodeList”. You can get the codelist (i.e. the “content”) of a concept
using `i14y_get_codelist()`, with the value from the `id` column.

``` r
i14y_get_codelist(
  id = "08d94604-e058-62a2-aa25-53f84b974201" # for DV_NOGA_DIVISION
)
#> # A tibble: 88 × 48
#>    Code  ParentCode Name_de       Name_fr Name_it Name_rm Name_en Description_de
#>    <chr> <lgl>      <chr>         <chr>   <chr>   <lgl>   <chr>   <lgl>         
#>  1 01    NA         Landwirtscha… Cultur… Produz… NA      Crop a… NA            
#>  2 02    NA         Forstwirtsch… Sylvic… Silvic… NA      Forest… NA            
#>  3 03    NA         Fischerei un… Pêche … Pesca … NA      Fishin… NA            
#>  4 05    NA         Kohlenbergbau Extrac… Estraz… NA      Mining… NA            
#>  5 06    NA         Gewinnung vo… Extrac… Estraz… NA      Extrac… NA            
#>  6 07    NA         Erzbergbau    Extrac… Estraz… NA      Mining… NA            
#>  7 08    NA         Gewinnung vo… Autres… Altre … NA      Other … NA            
#>  8 09    NA         Erbringung v… Servic… Attivi… NA      Mining… NA            
#>  9 10    NA         Herstellung … Indust… Indust… NA      Manufa… NA            
#> 10 11    NA         Getränkehers… Fabric… Produz… NA      Manufa… NA            
#> # ℹ 78 more rows
#> # ℹ 40 more variables: Description_fr <lgl>, Description_it <lgl>,
#> #   Description_rm <lgl>, Description_en <lgl>, Annotation_ABBREV_Type <chr>,
#> #   Annotation_ABBREV_Title <lgl>, Annotation_ABBREV_URI <lgl>,
#> #   Annotation_ABBREV_Identifier <lgl>, Annotation_ABBREV_Text_de <chr>,
#> #   Annotation_ABBREV_Text_fr <chr>, Annotation_ABBREV_Text_it <chr>,
#> #   Annotation_ABBREV_Text_rm <lgl>, Annotation_ABBREV_Text_en <chr>, …
```
…
income_by_job_and_gender <- BFS::bfs_get_data(
  number_bfs = "px-x-0304010000_201", 
  language = "de",
  query = list(
    Jahr = "2022", 
    Geschlecht = c("1", "2"),
    Wirtschaftsabteilung = income_by_job_and_gender_meta$values[[3]],
    'Zentralwert und andere Perzentile' = "1"
  )
)

income_by_job_and_gender
#> # A tibble: 164 × 5
#>    Jahr  Wirtschaftsabteilung                  Geschlecht Zentralwert und ande…¹
#>    <chr> <chr>                                 <chr>      <chr>                 
#>  1 2022  Wirtschaftsabteilung - Total          Frauen     Zentralwert           
#>  2 2022  Wirtschaftsabteilung - Total          Männer     Zentralwert           
#>  3 2022  05-43 Sektor 2: Produktion            Frauen     Zentralwert           
#>  4 2022  05-43 Sektor 2: Produktion            Männer     Zentralwert           
#>  5 2022  > 8 Gewinnung von Steinen und Erden,… Frauen     Zentralwert           
#>  6 2022  > 8 Gewinnung von Steinen und Erden,… Männer     Zentralwert           
#>  7 2022  > 9 Erbringung von Dienstleistungen … Frauen     Zentralwert           
#>  8 2022  > 9 Erbringung von Dienstleistungen … Männer     Zentralwert           
#>  9 2022  > 10 Herstellung von Nahrungs- und F… Frauen     Zentralwert           
#> 10 2022  > 10 Herstellung von Nahrungs- und F… Männer     Zentralwert           
#> # ℹ 154 more rows
#> # ℹ abbreviated name: ¹​`Zentralwert und andere Perzentile`
#> # ℹ 1 more variable: `Monatlicher Bruttolohn` <dbl>
```
…
noga_division <- i14y_get_codelist(
  id = "08d94604-e058-62a2-aa25-53f84b974201" # for DV_NOGA_DIVISION
) |>
  mutate(Code = as.numeric(Code))

income_by_job_and_gender |>
  filter(!str_detect(Wirtschaftsabteilung, "Sektor")) |> # remove sectors
  mutate(Code = readr::parse_number(Wirtschaftsabteilung)) |> # extract code
  left_join(noga_division, by = "Code") |>
  select(Wirtschaftsabteilung, Name_en, Name_fr, Name_it)
#> # A tibble: 160 × 4
#>    Wirtschaftsabteilung                                  Name_en Name_fr Name_it
#>    <chr>                                                 <chr>   <chr>   <chr>  
#>  1 Wirtschaftsabteilung - Total                          <NA>    <NA>    <NA>   
#>  2 Wirtschaftsabteilung - Total                          <NA>    <NA>    <NA>   
#>  3 > 8 Gewinnung von Steinen und Erden, sonstiger Bergb… Other … Autres… Altre …
#>  4 > 8 Gewinnung von Steinen und Erden, sonstiger Bergb… Other … Autres… Altre …
#>  5 > 9 Erbringung von Dienstleistungen für den Bergbau … Mining… Servic… Attivi…
#>  6 > 9 Erbringung von Dienstleistungen für den Bergbau … Mining… Servic… Attivi…
#>  7 > 10 Herstellung von Nahrungs- und Futtermitteln      Manufa… Indust… Indust…
#>  8 > 10 Herstellung von Nahrungs- und Futtermitteln      Manufa… Indust… Indust…
#>  9 > 11 Getränkeherstellung                              Manufa… Fabric… Produz…
#> 10 > 11 Getränkeherstellung                              Manufa… Fabric… Produz…
#> # ℹ 150 more rows
```

### Search and get datasets

You can search in the public catalog for datasets, data services or
public services with `i14y_search_catalog()`:

``` r
i14y_search_catalog()
#> # A tibble: 688 × 37
#>    businessEvents conceptValueType id    identifiers lifeEvents publicationLevel
#>    <list>         <chr>            <chr> <list>      <list>     <chr>           
#>  1 <df [0 × 0]>   <NA>             171b… <chr [1]>   <df>       Public          
#>  2 <df [0 × 0]>   <NA>             0aae… <chr [1]>   <df>       Public          
#>  3 <df [0 × 0]>   <NA>             15d7… <chr [1]>   <df>       Public          
#>  4 <df [0 × 0]>   <NA>             14e6… <chr [1]>   <df>       Public          
#>  5 <df [0 × 0]>   <NA>             1f97… <chr [1]>   <df>       Public          
#>  6 <df [0 × 0]>   <NA>             08b7… <chr [1]>   <df>       Public          
#>  7 <df [0 × 0]>   <NA>             17ec… <chr [1]>   <df>       Public          
#>  8 <df [0 × 0]>   <NA>             49fe… <chr [1]>   <df>       Public          
#>  9 <df [0 × 0]>   <NA>             4cfc… <chr [1]>   <df>       Public          
#> 10 <df [0 × 0]>   <NA>             6ef8… <chr [1]>   <df>       Public          
#> # ℹ 678 more rows
#> # ℹ 31 more variables: publicationLevelProposal <lgl>,
#> #   registrationStatus <chr>, registrationStatusProposal <lgl>, status <chr>,
#> #   themes <list>, type <chr>, validFrom <chr>, validTo <chr>, version <chr>,
#> #   accessRights.code <chr>, accessRights.uri <chr>,
#> #   accessRights.name.de <chr>, accessRights.name.en <chr>,
#> #   accessRights.name.fr <chr>, accessRights.name.it <chr>, …
```
…
We see using `i14y_get_dataset_distributions()` that the dataset above
is accessible using the Nomenclatures endpoint of the I14Y API. You can
get a nomenclature dataset level with `i14y_get_nomenclature_level()`.

``` r
i14y_get_nomenclature_level(
  identifier = "HCL_NOGA",
  level = 2,
  language = "de"
)
#> # A tibble: 88 × 3
#>    Code  Parent Name_de                                                         
#>    <chr> <chr>  <chr>                                                           
#>  1 01    A      Landwirtschaft, Jagd und damit verbundene Tätigkeiten           
#>  2 02    A      Forstwirtschaft und Holzeinschlag                               
#>  3 03    A      Fischerei und Aquakultur                                        
#>  4 05    B      Kohlenbergbau                                                   
#>  5 06    B      Gewinnung von Erdöl und Erdgas                                  
#>  6 07    B      Erzbergbau                                                      
#>  7 08    B      Gewinnung von Steinen und Erden, sonstiger Bergbau              
#>  8 09    B      Erbringung von Dienstleistungen für den Bergbau und für die Gew…
#>  9 10    C      Herstellung von Nahrungs- und Futtermitteln                     
#> 10 11    C      Getränkeherstellung                                             
#> # ℹ 78 more rows
```

You can get nomenclature multi levels with
`i14y_get_nomenclature_level_multi()`:

``` r
# https://www.i14y.admin.ch/fr/catalog/datasets/HCL_CH_ISCO_19_PROF_1_2_2
i14y_get_nomenclature_level_multiple(
  identifier = "HCL_NOGA",
  levelFrom = 1,
  levelTo = 2,
  language = "de"
)
#> # A tibble: 109 × 4
#>    Abschnitt Abteilung Code  Name_de                                            
#>    <chr>     <chr>     <chr> <chr>                                              
#>  1 A         <NA>      A     LAND- UND FORSTWIRTSCHAFT, FISCHEREI               
#>  2 <NA>      01        01    Landwirtschaft, Jagd und damit verbundene Tätigkei…
#>  3 <NA>      02        02    Forstwirtschaft und Holzeinschlag                  
#>  4 <NA>      03        03    Fischerei und Aquakultur                           
#>  5 B         <NA>      B     BERGBAU UND GEWINNUNG VON STEINEN UND ERDEN        
#>  6 <NA>      05        05    Kohlenbergbau                                      
#>  7 <NA>      06        06    Gewinnung von Erdöl und Erdgas                     
#>  8 <NA>      07        07    Erzbergbau                                         
#>  9 <NA>      08        08    Gewinnung von Steinen und Erden, sonstiger Bergbau 
#> 10 <NA>      09        09    Erbringung von Dienstleistungen für den Bergbau un…
#> # ℹ 99 more rows
```
…
Note that other official Swiss datasets from the Swiss Federal
Statistical Office (BFS) can be accessed using the
[BFS](https://felixluginbuhl.com/BFS/) R package.

### Data structure

You can search for data structure of a dataset. Let’s search for example
for the SpiGes project:

``` r
i14y_search_catalog(query = "SpiGes")
#> # A tibble: 21 × 37
#>    businessEvents conceptValueType id    identifiers lifeEvents publicationLevel
#>    <list>         <chr>            <chr> <list>      <list>     <chr>           
#>  1 <list [0]>     CodeList         08db… <chr [1]>   <list [0]> Public          
#>  2 <list [0]>     <NA>             18d8… <chr [1]>   <list [0]> Public          
#>  3 <list [0]>     <NA>             0da6… <chr [1]>   <list [0]> Public          
#>  4 <list [0]>     <NA>             18e6… <chr [1]>   <list [0]> Public          
#>  5 <list [0]>     <NA>             27c1… <chr [1]>   <list [0]> Public          
#>  6 <list [0]>     <NA>             49d9… <chr [1]>   <list [0]> Public          
#>  7 <list [0]>     <NA>             4b6d… <chr [1]>   <list [0]> Public          
#>  8 <list [0]>     <NA>             6a26… <chr [1]>   <list [0]> Public          
#>  9 <list [0]>     <NA>             75d4… <chr [1]>   <list [0]> Public          
#> 10 <list [0]>     <NA>             7d41… <chr [1]>   <list [0]> Public          
#> # ℹ 11 more rows
#> # ℹ 31 more variables: publicationLevelProposal <lgl>,
#> #   registrationStatus <chr>, registrationStatusProposal <lgl>, status <chr>,
#> #   themes <list>, type <chr>, validFrom <chr>, validTo <chr>, version <chr>,
#> #   accessRights.code <chr>, accessRights.uri <chr>,
#> #   accessRights.name.de <chr>, accessRights.name.en <chr>,
#> #   accessRights.name.fr <chr>, accessRights.name.it <chr>, …
```
…
nomenclature_info$hasDataStructures
#> [1] TRUE
```

You can get its data structure with `i14y_get_data_structure()`:

``` r
library(tibble)

data_structure <- i14y_get_data_structure(identifier = "SpiGes_Erhebung_Administratives")

# get "data_structure$variables" data.frame
as_tibble(as.data.frame(data_structure$variables))
#> # A tibble: 33 × 9
#>    id    identifier position role  type  description.cultureC…¹ description.text
#>    <chr> <chr>         <int> <chr> <chr> <chr>                  <chr>           
#>  1 af3b… aufenthal…        1 Meas… Nume… de                     "Erfassung der …
#>  2 ae25… eintritts…        2 Meas… Code… de                     "Beschreibung d…
#>  3 9d33… einw_inst…        3 Meas… Code… de                     "Wer hat die In…
#>  4 d3cd… tarif             4 Meas… Code… de                     "Mit dieser Spe…
#>  5 5a6c… admin_url…        5 Meas… Nume… de                     "Verlässt ein P…
#>  6 fa36… nationali…        6 Meas… Code… de                     "ISO-Kode des H…
#>  7 4895… eintritts…        7 Meas… Date  de                     "Angabe des Ein…
#>  8 0f75… austritt_…        8 Meas… Code… de                     "Wohin wurde de…
#>  9 576e… wohnkanton        9 Meas… Code… de                     "Für Personen m…
#> 10 3669… chlz             10 Meas… Nume… de                     "Kumulierte chL…
#> # ℹ 23 more rows
#> # ℹ abbreviated name: ¹​description.cultureCode
#> # ℹ 2 more variables: name.cultureCode <chr>, name.text <chr>
```
…
