Simulation from species 1 life history
…
Assess the observed survival rates

We can compute the survival rates like this:

surv_rates <- summarize_survival_from_census(slurped$census_postkill)

That returns a list. One part of the list is a tibble with observed survival fractions. The first 40 rows look like this:

surv_rates$survival_tibble %>%
  slice(1:40)
#> # A tibble: 40 x 7
#>     year   pop   age sex        n cohort surv_fract
#>    <int> <int> <int> <chr>  <int>  <int>      <dbl>
#>  1    20     0    20 female     1      0        0  
#>  2    20     0    19 female     2      1        0.5
#>  3    21     0    20 female     1      1        0  
#>  4    20     0    18 female     1      2        1  
#>  5    21     0    19 female     1      2        1  
#>  6    22     0    20 female     1      2        0  
#>  7    20     0    17 female     2      3        1  
#>  8    21     0    18 female     2      3        1  
#>  9    22     0    19 female     2      3        1  
#> 10    23     0    20 female     2      3        0  
#> # … with 30 more rows
…
This is telling us there are 194 half-first-cousin pairs, 130 half-avuncular (aunt/uncle with niece/nephew) pairs, and so forth.

A closer look within the dominant relationships

As noted before, the table just lists the dominant relationship of each pair. If you want to quickly assess, within those dominant categories, how many specific ancestry match matrices underlie them, you can look at the dr_counts component of the output:

relat_counts$dr_counts
#> # A tibble: 65 x 7
#>    dom_relat dr_hits   max_hit anc_match_matrix     n tot_dom ID               
#>    <chr>     <list>      <int> <list>           <int>   <int> <chr>            
#>  1 FC        <int [2]>       1 <lgl [7 × 7]>      280    1572 001-FC[1,1] - 280
#>  2 FC        <int [2]>       1 <lgl [7 × 7]>      258    1572 002-FC[1,1] - 258
#>  3 FC        <int [2]>       1 <lgl [7 × 7]>      255    1572 003-FC[1,1] - 255
#>  4 FC        <int [2]>       1 <lgl [7 × 7]>      192    1572 004-FC[1,1] - 192
#>  5 FC        <int [2]>       1 <lgl [7 × 7]>      134    1572 005-FC[1,1] - 134
#>  6 FC        <int [2]>       1 <lgl [7 × 7]>      129    1572 006-FC[1,1] - 129
#>  7 FC        <int [2]>       1 <lgl [7 × 7]>      105    1572 007-FC[1,1] - 105
#>  8 FC        <int [2]>       1 <lgl [7 × 7]>      103    1572 008-FC[1,1] - 103
#>  9 FC        <int [2]>       2 <lgl [7 × 7]>       26    1572 009-FC[2,2] - 26 
#> 10 FC        <int [2]>       2 <lgl [7 × 7]>       24    1572 010-FC[2,2] - 24 
#> # … with 55 more rows
…
Tallying all the ancestry match matrices

At times, for example, when looking for the more bizarre relationships, you might just want to visualize all the ancestry match matrices in order of the number of times that they occur. The number of different ancestry match matrices (and the matrices themselves) can be accessed with:

relat_counts$anc_mat_counts
#> # A tibble: 65 x 2
#>    anc_match_matrix     n
#>    <list>           <int>
#>  1 <lgl [7 × 7]>      280
#>  2 <lgl [7 × 7]>      258
#>  3 <lgl [7 × 7]>      255
#>  4 <lgl [7 × 7]>      244
#>  5 <lgl [7 × 7]>      223
#>  6 <lgl [7 × 7]>      202
#>  7 <lgl [7 × 7]>      192
#>  8 <lgl [7 × 7]>      167
#>  9 <lgl [7 × 7]>      134
#> 10 <lgl [7 × 7]>      129
#> # … with 55 more rows
…
That is still a lot of pairs, so let us downsample to 150 samples so that our figures are not overwhelmed by connected components.

set.seed(10)
ssp_1gen <- downsample_pairs(
  S = slurped_1gen$samples,
  P = crel_1gen,
  n = 150
)

And also tally up the number of pairs in different connected components:

ssp_1gen$ds_pairs %>%
  count(conn_comp) %>%
  arrange(desc(n))
#> # A tibble: 27 x 2
#>    conn_comp     n
#>        <dbl> <int>
#>  1         3    14
#>  2        14     8
#>  3        12     7
#>  4        17     7
#>  5         2     6
#>  6        10     6
#>  7         7     3
#>  8        25     3
#>  9        24     2
#> 10         1     1
#> # … with 17 more rows
…
