…
The `comparison_cellDivision` function divides a scan up into a grid of
cells. The `cellIndex` column represents the `row,col` location in the
original scan each cell inhabits. Each cell is stored as an `.x3p`
object in the `cellHeightValues` column. The benefit of using a `tibble`
structure is that processes such as removing rows can be accomplished
using simple `dplyr` commands such as `filter`.

``` r
cellTibble <- fadul1.1_processed %>%
  comparison_cellDivision(numCells = c(8,8))

cellTibble
#> # A tibble: 64 x 2
#>    cellIndex cellHeightValues
#>    <chr>     <named list>    
#>  1 1, 1      <x3p>           
#>  2 1, 2      <x3p>           
#>  3 1, 3      <x3p>           
#>  4 1, 4      <x3p>           
#>  5 1, 5      <x3p>           
#>  6 1, 6      <x3p>           
#>  7 1, 7      <x3p>           
#>  8 1, 8      <x3p>           
#>  9 2, 1      <x3p>           
#> 10 2, 2      <x3p>           
#> # ... with 54 more rows
```

The `comparison_getTargetRegions` function extracts a region from a
target scan (in this case Fadul 1-2) to be paired with each cell in the
reference scan.

``` r
cellTibble <- cellTibble %>%
  mutate(regionHeightValues = comparison_getTargetRegions(cellHeightValues = cellHeightValues,
                                                          target = fadul1.2_processed))

cellTibble
#> # A tibble: 64 x 3
#>    cellIndex cellHeightValues regionHeightValues
#>    <chr>     <named list>     <named list>      
#>  1 1, 1      <x3p>            <x3p>             
#>  2 1, 2      <x3p>            <x3p>             
#>  3 1, 3      <x3p>            <x3p>             
#>  4 1, 4      <x3p>            <x3p>             
#>  5 1, 5      <x3p>            <x3p>             
#>  6 1, 6      <x3p>            <x3p>             
#>  7 1, 7      <x3p>            <x3p>             
#>  8 1, 8      <x3p>            <x3p>             
#>  9 2, 1      <x3p>            <x3p>             
#> 10 2, 2      <x3p>            <x3p>             
#> # ... with 54 more rows
```
We want to exclude cells and regions that are mostly missing from the
scan. The `comparison_calcPropMissing` function calculates the
proportion of missing values in a surface matrix. The call below
excludes rows in which either the cell or region contain more that 85%
missing values.

``` r
cellTibble <- cellTibble %>%
  mutate(cellPropMissing = comparison_calcPropMissing(cellHeightValues),
         regionPropMissing = comparison_calcPropMissing(regionHeightValues)) %>%
  filter(cellPropMissing <= .85 & regionPropMissing <= .85)

cellTibble %>%
  select(cellIndex,cellPropMissing,regionPropMissing)
#> # A tibble: 24 x 3
#>    cellIndex cellPropMissing regionPropMissing
#>    <chr>               <dbl>             <dbl>
#>  1 1, 6               0.809              0.805
#>  2 2, 7               0.624              0.699
#>  3 2, 8               0.846              0.756
#>  4 3, 8               0.343              0.632
#>  5 4, 8               0.130              0.568
#>  6 5, 1               0.108              0.765
#>  7 5, 7               0.829              0.481
#>  8 5, 8               0.0522             0.508
#>  9 6, 1               0.314              0.689
#> 10 6, 2               0.340              0.602
#> # ... with 14 more rows
```
…
``` r
cellTibble <- cellTibble  %>%
  mutate(cellHeightValues = comparison_standardizeHeights(cellHeightValues),
         regionHeightValues = comparison_standardizeHeights(regionHeightValues)) %>%
  mutate(cellHeightValues_replaced = comparison_replaceMissing(cellHeightValues),
         regionHeightValues_replaced = comparison_replaceMissing(regionHeightValues)) %>%
  mutate(fft_ccf_df = comparison_fft_ccf(cellHeightValues = cellHeightValues_replaced,
                                         regionHeightValues = regionHeightValues_replaced))

cellTibble %>%
  tidyr::unnest(cols = fft_ccf_df) %>%
  select(cellIndex,fft_ccf,x,y)
#> # A tibble: 24 x 4
#>    cellIndex fft_ccf     x     y
#>    <chr>       <dbl> <dbl> <dbl>
#>  1 1, 6        0.242    -6   -24
#>  2 2, 7        0.184    55    32
#>  3 2, 8        0.213    53    54
#>  4 3, 8        0.158   -22   -60
#>  5 4, 8        0.176    -2    13
#>  6 5, 1        0.211   -15   -47
#>  7 5, 7        0.117    21    16
#>  8 5, 8        0.166     8   -48
#>  9 6, 1        0.322   -56   -78
#> 10 6, 2        0.272     8   -46
#> # ... with 14 more rows
```
…
``` r
cellTibble %>%
  dplyr::mutate(alignedTargetCell = comparison_alignedTargetCell(cellHeightValues = .data$cellHeightValues,
                                                                   regionHeightValues = .data$regionHeightValues,
                                                                   target = fadul1.2_processed,
                                                                   theta = 0,
                                                                   fft_ccf_df = .data$fft_ccf_df)) %>%
    dplyr::mutate(pairwiseCompCor = purrr::map2_dbl(.data$cellHeightValues,.data$alignedTargetCell,
                                             ~ cor(c(.x$surface.matrix),c(.y$surface.matrix),
                                                   use = "pairwise.complete.obs"))) %>%
    tidyr::unnest(.data$fft_ccf_df) %>%
  select(cellIndex,x,y,pairwiseCompCor)
#> # A tibble: 24 x 4
#>    cellIndex     x     y pairwiseCompCor
#>    <chr>     <dbl> <dbl>           <dbl>
#>  1 1, 6         -6   -24           0.558
#>  2 2, 7         55    32           0.377
#>  3 2, 8         53    54           0.751
#>  4 3, 8        -22   -60           0.373
#>  5 4, 8         -2    13           0.420
#>  6 5, 1        -15   -47           0.449
#>  7 5, 7         21    16           0.511
#>  8 5, 8          8   -48           0.355
#>  9 6, 1        -56   -78           0.590
#> 10 6, 2          8   -46           0.555
#> # ... with 14 more rows
```
…
``` r
kmComparisonFeatures <- purrr::map_dfr(seq(-30,30,by = 3),
                                       ~ comparison_allTogether(reference = fadul1.1_processed,
                                                                target = fadul1.2_processed,
                                                                
                                                                theta = .,
                                                                returnX3Ps = TRUE))

kmComparisonFeatures %>%
  arrange(theta,cellIndex)
#> # A tibble: 506 x 11
#>    cellIndex     x     y fft_ccf pairwiseCompCor theta refMissingCount
#>    <chr>     <dbl> <dbl>   <dbl>           <dbl> <dbl>           <dbl>
#>  1 2, 7        -28   -54   0.203           0.399   -30            2970
#>  2 3, 1        -22    38   0.414           0.778   -30            2301
#>  3 3, 8        -17   -21   0.255           0.612   -30            1584
#>  4 4, 1        -11    35   0.287           0.756   -30            1467
#>  5 4, 8         -8   -25   0.230           0.656   -30             610
#>  6 5, 1         -1    35   0.300           0.677   -30             516
#>  7 5, 7          2    19   0.113           0.479   -30            3946
#>  8 5, 8          1   -22   0.227           0.599   -30             245
#>  9 6, 1          7    34   0.433           0.793   -30            1475
#> 10 6, 2         10    28   0.282           0.801   -30            1594
#> # ... with 496 more rows, and 4 more variables: targMissingCount <dbl>,
#> #   jointlyMissing <dbl>, cellHeightValues <named list>,
#> #   alignedTargetCell <named list>
```
…
The original method of [Song
(2013)](https://tsapps.nist.gov/publication/get_pdf.cfm?pub_id=911193)
considers only the similarity features at which the maximum correlation
is attained for each cell across all rotations considered. Since there
is ambiguity in exactly how the correlation is computed in the original
methods, we will consider the features at which specifically the maximum
`pairwiseCompCor` is attained (instead of using the `fft_ccf` column).

``` r
kmComparisonFeatures %>%
  group_by(cellIndex) %>%
  top_n(n = 1,wt = pairwiseCompCor)
#> # A tibble: 26 x 11
#> # Groups:   cellIndex [26]
#>    cellIndex     x     y fft_ccf pairwiseCompCor theta refMissingCount
#>    <chr>     <dbl> <dbl>   <dbl>           <dbl> <dbl>           <dbl>
#>  1 7, 6         21    -1   0.147           0.471   -30             341
#>  2 4, 8         -7   -12   0.246           0.702   -27             610
#>  3 7, 4          7    10   0.215           0.721   -27            1908
#>  4 8, 5         10     6   0.247           0.603   -27             244
#>  5 2, 7        -14   -33   0.228           0.432   -24            2970
#>  6 3, 8         -7     5   0.277           0.699   -24            1584
#>  7 4, 1         -4    11   0.375           0.850   -24            1467
#>  8 5, 1         -4    11   0.363           0.852   -24             516
#>  9 6, 1         -3    11   0.437           0.832   -24            1475
#> 10 6, 2         -1    10   0.302           0.849   -24            1594
#> # ... with 16 more rows, and 4 more variables: targMissingCount <dbl>,
#> #   jointlyMissing <dbl>, cellHeightValues <named list>,
#> #   alignedTargetCell <named list>
```
…
#>  9 5, 1         -1   -13   0.361           0.837    24            1664
#> 10 5, 8          1    -8   0.387           0.811    24             244
#> 11 6, 1         -2   -11   0.348           0.831    24            1482
#> 12 6, 8          1    -3   0.489           0.885    24            1475
#> 13 7, 3         -1   -10   0.359           0.885    24             993
#> 14 7, 7         -3    -7   0.238           0.720    24             331
#> 15 8, 4         -4    -7   0.270           0.761    24             235
#> 16 7, 5        -11    -6   0.285           0.729    27            1213
#> 17 7, 6         -9     0   0.220           0.682    27              17
#> # ... with 3 more variables: targMissingCount <dbl>, jointlyMissing <dbl>,
#> #   direction <chr>
#> 
#> 
#> $highCMCs
#> # A tibble: 25 x 10
#>    cellIndex     x     y fft_ccf pairwiseCompCor theta refMissingCount
#>    <chr>     <dbl> <dbl>   <dbl>           <dbl> <dbl>           <dbl>
#>  1 7, 4          7    10   0.215           0.721   -27            1908
#>  2 3, 8         -7     5   0.277           0.699   -24            1584
#>  3 4, 1         -4    11   0.375           0.850   -24            1467
#>  4 5, 1         -4    11   0.363           0.852   -24             516
#>  5 6, 1         -3    11   0.437           0.832   -24            1475
#>  6 6, 2         -1    10   0.302           0.849   -24            1594
#>  7 6, 7         -4     4   0.167           0.592   -24             990
#>  8 7, 1         -4     8   0.172           0.771   -24            4026
#>  9 7, 7         -3     3   0.366           0.829   -24             331
#> 10 8, 3         -1    12   0.279           0.747   -24            1447
#> # ... with 15 more rows, and 3 more variables: targMissingCount <dbl>,
#> #   jointlyMissing <dbl>, direction <chr>
```
…
