Pulling Reports with rdfp
…
                               list(dimensions = 'MONTH_AND_YEAR',
                                    dimensions = 'AD_UNIT_ID',
                                    dimensions = 'AD_UNIT_NAME',
                                    dimensions = 'ADVERTISER_NAME',
                                    dimensions = 'ORDER_NAME',
                                    dimensions = 'LINE_ITEM_NAME',
                                    adUnitView = 'FLAT',
                                    columns = 'AD_SERVER_IMPRESSIONS', 
                                    columns = 'AD_SERVER_CLICKS',
                                    dateRangeType = 'LAST_WEEK')
                             )
                      )
report_data <- dfp_full_report_wrapper(request_data)
report_data[,c('Dimension.MONTH_AND_YEAR', 'Dimension.AD_UNIT_ID', 'Column.AD_SERVER_CLICKS')]
#> # A tibble: 19,237 x 3
#>    Dimension.MONTH_AND_YEAR Dimension.AD_UNIT_ID Column.AD_SERVER_CLICKS
#>    <chr>                                   <dbl>                   <dbl>
#>  1 2019-05                           21677451947                       1
#>  2 2019-05                           21677451947                       0
#>  3 2019-05                           21677451947                       0
#>  4 2019-05                           21677451947                     157
#>  5 2019-05                           21677451947                      31
#>  6 2019-05                           21677451947                       0
#>  7 2019-05                           21677451947                      47
#>  8 2019-05                           21677451947                      14
#>  9 2019-05                           21677451947                      28
#> 10 2019-05                           21677451947                      48
#> # … with 19,227 more rows

Working with Saved Queries

DFP has a feature that allows for saving query criteria. These queries can be pulled back via the API and the criteria submitted back so that you always run the same report each time, or can easily replicate a query that another person has created in the UI.

# look for a particular saved query
request_data <- list(filterStatement=list(query="WHERE id = 936165016"))
this_result <- dfp_getSavedQueriesByStatement(request_data, as_df=FALSE)
this_report_query <- this_result$reportQuery

# resubmit the report job with the saved query
request_data <- list(reportJob=list(reportQuery = this_report_query))
report_data <- dfp_full_report_wrapper(request_data)
report_data[,c('Dimension.AD_UNIT_ID', 'Column.AD_SERVER_CLICKS')]
#> # A tibble: 11,363 x 2
#>    Dimension.AD_UNIT_ID Column.AD_SERVER_CLICKS
#>                   <dbl>                   <dbl>
#>  1          21677553895                       0
#>  2          21677553895                       0
#>  3          21677553895                       0
#>  4          21677553895                       0
#>  5          21677451944                       0
#>  6          21677451944                       0
#>  7          21677451947                      11
#>  8          21677451947                      30
#>  9          21677451947                       1
#> 10          21677451947                       2
#> # … with 11,353 more rows
…
