…
The main function is `mtscr_scores()` which returns a dataframe with
scored responses. It takes a dataframe with responses, an ID column, an
item column and a score column as arguments. The score column should
contain semantic distance scores for each response. The function adds
columns with scores for each person. The number of creativity scores is
based on a given number of top answers provided by the `top` argument.

``` r
library("mtscr")
data("mtscr_creativity", package = "mtscr")

mtscr_score(mtscr_creativity, id, item, SemDis_MEAN, top = 1:2)
#> # A tibble: 149 × 3
#>    id    .creativity_score_top1 .creativity_score_top2
#>    <chr>                  <dbl>                  <dbl>
#>  1 84176                 0.142                  0.0681
#>  2 84177                -0.508                 -0.494 
#>  3 84178                -0.0733                -0.0995
#>  4 84188                 0.529                  0.527 
#>  5 84193                -0.299                 -0.350 
#>  6 84206                -0.312                 -0.301 
#>  7 84211                -0.0464                 0.0356
#>  8 84226                 0.238                  0.210 
#>  9 84228                 0.137                  0.139 
#> 10 84236                 0.459                  0.422 
#> # ℹ 139 more rows
```
…
