Getting Started with ipf
…
This vignette walks through a complete raking workflow using the
bundled anes24 dataset, which is taken from a subset of the
2024 American National Election Study https://electionstudies.org/data-center/2024-time-series-study/.

Setup

library(ipf)
library(tibble)
data(anes24)

The data contains 966 respondents from the ANES 2024 face-to-face
sample:

anes24
#> # A tibble: 966 × 7
#>    state sex    race     income     education    married  presidential
#>    <chr> <chr>  <chr>    <chr>      <chr>        <chr>    <chr>       
#>  1 CO    Female White    Over $100k <NA>         Divorced Trump       
#>  2 CA    Male   White    Over $100k <NA>         Married  Harris      
#>  3 NC    Female White    <NA>       Bachelor's   Married  Harris      
#>  4 MA    Male   <NA>     Over $100k Some college Married  Trump       
#>  5 WA    Female Black    <NA>       Bachelor's   Married  <NA>        
#>  6 GA    Male   White    $50k-$100k <NA>         <NA>     Trump       
#>  7 AR    Male   Black    Under $50k <NA>         <NA>     Harris      
#>  8 TX    Male   Hispanic Under $50k Some college <NA>     Trump       
#>  9 OR    Male   White    Under $50k <NA>         Divorced <NA>        
#> 10 AL    Female White    Under $50k <NA>         Divorced <NA>        
#> # ℹ 956 more rows
…
