…
<!-- end list -->

``` r
library(danstat)
user_input = list(list(code = "ieland", values = c(5100, 5128)),
                  list(code = "køn", values = c(1,2)),
                  list(code = "tid", values = NA))

get_data(table_id = "folk1c", variables = user_input)
#> # A tibble: 192 x 4
#>   IELAND  KØN   TID    INDHOLD
#>   <chr>   <chr> <chr>    <dbl>
#> 1 Denmark Men   2008Q1 2465810
#> 2 Denmark Men   2008Q2 2466036
#> 3 Denmark Men   2008Q3 2467712
#> 4 Denmark Men   2008Q4 2469977
#> 5 Denmark Men   2009Q1 2470457
#> # … with 187 more rows
```
…
