…
library(APCalign)
```

To demonstrate how to use 'APCalign', we will use an example dataset `gbif_lite` which is documented in `?gbif_lite`



```r
dim(gbif_lite)
#> [1] 129   7

gbif_lite |> print(n = 6)
#> # A tibble: 129 × 7
#>   species     infraspecificepithet taxonrank decimalLongitude decimalLatitude scientificname
#>   <chr>       <chr>                <chr>                <dbl>           <dbl> <chr>         
#> 1 Tetratheca… <NA>                 SPECIES               145.           -37.4 Tetratheca ci…
#> 2 Peganum ha… <NA>                 SPECIES               139.           -33.3 Peganum harma…
#> 3 Calotis mu… <NA>                 SPECIES               115.           -24.3 Calotis multi…
#> 4 Leptosperm… <NA>                 SPECIES               151.           -34.0 Leptospermum …
#> 5 Lepidosper… <NA>                 SPECIES               142.           -37.3 Lepidosperma …
#> 6 Enneapogon… <NA>                 SPECIES               129.           -17.8 Enneapogon po…
#> # ℹ 123 more rows
#> # ℹ 1 more variable: verbatimscientificname <chr>
```
…
If you would like to learn more about each of these step, take a look at the section [Closer look at name alignment and updating with 'APCalign'](#closer-look)  


```r
library(dplyr)

updated_gbif_names <- gbif_lite |> 
  pull(species) |> 
  create_taxonomic_update_lookup(resources = resources)
#> Checking alignments of 121 taxa
#>   -> 0 names already matched; 0 names checked but without a match; 121 taxa yet to be checked

updated_gbif_names |> 
  print(n = 6)
#> # A tibble: 129 × 12
#>   original_name aligned_name accepted_name suggested_name genus taxon_rank taxonomic_dataset
#>   <chr>         <chr>        <chr>         <chr>          <chr> <chr>      <chr>            
#> 1 Tetratheca c… Tetratheca … Tetratheca c… Tetratheca ci… Tetr… species    APC              
#> 2 Peganum harm… Peganum har… Peganum harm… Peganum harma… Pega… species    APC              
#> 3 Calotis mult… Calotis mul… Calotis mult… Calotis multi… Calo… species    APC              
#> 4 Leptospermum… Leptospermu… Leptospermum… Leptospermum … Lept… species    APC              
#> 5 Lepidosperma… Lepidosperm… Lepidosperma… Lepidosperma … Lepi… species    APC              
#> 6 Enneapogon p… Enneapogon … Enneapogon p… Enneapogon po… Enne… species    APC              
#> # ℹ 123 more rows
#> # ℹ 5 more variables: taxonomic_status <chr>, scientific_name_authorship <chr>,
#> #   aligned_reason <chr>, update_reason <chr>, number_of_collapsed_taxa <dbl>
```
…
**Note** that `align_taxa` **does not** seek to update outdated taxonomy. That process occurs during [update_taxonomy](#update) process. `align_taxa` instead aligns each name input to the closest match amongst names documented by the APC and APNI.  


```r
library(dplyr)

aligned_gbif_taxa <- gbif_lite |> 
  pull(species) |> 
  align_taxa(resources = resources)
#> Checking alignments of 121 taxa
#>   -> 0 names already matched; 0 names checked but without a match; 121 taxa yet to be checked

aligned_gbif_taxa |> 
  print(n = 6)
#> # A tibble: 129 × 7
#>   original_name        cleaned_name aligned_name taxonomic_dataset taxon_rank aligned_reason
#>   <chr>                <chr>        <chr>        <chr>             <chr>      <chr>         
#> 1 Tetratheca ciliata   Tetratheca … Tetratheca … APC               species    Exact match o…
#> 2 Peganum harmala      Peganum har… Peganum har… APC               species    Exact match o…
#> 3 Calotis multicaulis  Calotis mul… Calotis mul… APC               species    Exact match o…
#> 4 Leptospermum triner… Leptospermu… Leptospermu… APC               species    Exact match o…
#> 5 Lepidosperma latera… Lepidosperm… Lepidosperm… APC               species    Exact match o…
#> 6 Enneapogon polyphyl… Enneapogon … Enneapogon … APC               species    Exact match o…
#> # ℹ 123 more rows
#> # ℹ 1 more variable: alignment_code <chr>
```
…
### Updating to APC-accepted names {#update}

`update_taxonomy()` uses the information generated by `align_taxa()` to, whenever possible, update names to APC-accepted names.  


```r
updated_gbif_taxa <- aligned_gbif_taxa |> 
  update_taxonomy(resources = resources)

updated_gbif_taxa |> 
  print(n = 6)
#> # A tibble: 129 × 21
#>   original_name           aligned_name  accepted_name suggested_name genus family taxon_rank
#>   <chr>                   <chr>         <chr>         <chr>          <chr> <chr>  <chr>     
#> 1 Tetratheca ciliata      Tetratheca c… Tetratheca c… Tetratheca ci… Tetr… Elaeo… species   
#> 2 Peganum harmala         Peganum harm… Peganum harm… Peganum harma… Pega… Nitra… species   
#> 3 Calotis multicaulis     Calotis mult… Calotis mult… Calotis multi… Calo… Aster… species   
#> 4 Leptospermum trinervium Leptospermum… Leptospermum… Leptospermum … Lept… Myrta… species   
#> 5 Lepidosperma laterale   Lepidosperma… Lepidosperma… Lepidosperma … Lepi… Cyper… species   
#> 6 Enneapogon polyphyllus  Enneapogon p… Enneapogon p… Enneapogon po… Enne… Poace… species   
#> # ℹ 123 more rows
#> # ℹ 14 more variables: taxonomic_dataset <chr>, taxonomic_status <chr>,
#> #   taxonomic_status_aligned <chr>, aligned_reason <chr>, update_reason <chr>,
#> #   subclass <chr>, taxon_distribution <chr>, scientific_name_authorship <chr>,
#> #   taxon_ID <chr>, taxon_ID_genus <chr>, scientific_name_ID <chr>, canonical_name <chr>,
#> #   row_number <dbl>, number_of_collapsed_taxa <dbl>
```
…
