ale function handling of various datatypes for x • ale
…
gear
ordered
Number of forward gears

carb
integer
Number of carburetors

country
factor
Country of car manufacturer

print(var_cars)
#> # A tibble: 32 × 12
#>      mpg   cyl  disp    hp  drat    wt  qsec vs    am    gear   carb country
#>    <dbl> <int> <dbl> <dbl> <dbl> <dbl> <dbl> <lgl> <lgl> <ord> <int> <fct>  
#>  1  21       6  160    110  3.9   2.62  16.5 FALSE TRUE  four      4 Japan  
#>  2  21       6  160    110  3.9   2.88  17.0 FALSE TRUE  four      4 Japan  
#>  3  22.8     4  108     93  3.85  2.32  18.6 TRUE  TRUE  four      1 Japan  
#>  4  21.4     6  258    110  3.08  3.22  19.4 TRUE  FALSE three     1 USA    
#>  5  18.7     8  360    175  3.15  3.44  17.0 FALSE FALSE three     2 USA    
#>  6  18.1     6  225    105  2.76  3.46  20.2 TRUE  FALSE three     1 USA    
#>  7  14.3     8  360    245  3.21  3.57  15.8 FALSE FALSE three     4 USA    
#>  8  24.4     4  147.    62  3.69  3.19  20   TRUE  FALSE four      2 Germany
#>  9  22.8     4  141.    95  3.92  3.15  22.9 TRUE  FALSE four      2 Germany
#> 10  19.2     6  168.   123  3.92  3.44  18.3 TRUE  FALSE four      4 Germany
#> # ℹ 22 more rows
…
