ALE-based statistics for statistical inference and effect sizes • ale
…
By default, the ale package centres ALE values on the
median of the outcome variable; in our dataset, the median of all the
schools’ average mathematics achievement scores is 12.9. With ALE
centred on the median, the weighted sum of ALE y values (weighted on
ale_n) above the median is approximately equal to the
weighted sum of those below the median. So, in the ALE plots above, when
you consider the number of instances indicated by the rug plots and
category percentages, the average weighted ALE y approximately equals
the median.

Here is the ALE data structure for a numeric variable,
academic_ratio:

mb_gam$ale$data$academic_ratio
#> # A tibble: 65 × 7
#>    ale_x ale_n ale_y ale_y_lo ale_y_mean ale_y_median ale_y_hi
#>    <dbl> <int> <dbl>    <dbl>      <dbl>        <dbl>    <dbl>
#>  1  0        1  9.25     6.34       9.25         9.41     12.1
#>  2  0.05     2 11.0      9.04      11.0         11.0      12.9
#>  3  0.09     1 11.8     10.6       11.8         11.9      12.9
#>  4  0.1      2 12.0     11.1       12.0         12.0      13.3
#>  5  0.13     1 12.5     11.3       12.5         12.3      14.0
#>  6  0.14     2 12.3     11.2       12.3         12.2      14.1
#>  7  0.17     1 12.3     11.4       12.3         12.4      13.7
#>  8  0.18     4 12.4     11.6       12.4         12.3      13.9
#>  9  0.19     3 12.5     11.6       12.5         12.4      13.7
#> 10  0.2      3 12.5     11.5       12.5         12.3      13.7
#> # ℹ 55 more rows
…
