Introduction to dnapath
…
4.1 No pathway information

The differential network analysis compares the gene-gene association network between the two groups (stage ii vs stage iv). The dnapath package enables the use of known pathway information into the analysis, but a pathway list is not required. The dnapath() method can be run on the full gene expression dataset, without using pathways:

# Run dnapath using the gene expression and group information from meso dataset.
results <- dnapath(meso$gene_expression, 
                   pathway_list = NULL, 
                   group_labels = meso$groups)
results

## Differential network analysis between stageii (group 1) and stageiv (group 2).
## Results for an unnamed pathway (out of 1 pathways analyzed) containing 150 genes.
## Pathway p-value = 0.475. The mean expression of genes in the pathway is 9.3 in group 1 and 9.4 in group 2.
## # A tibble: 150 × 6
##    pathway genes  dc_score p_value mean_expr1 mean_expr2
##    <chr>   <chr>     <dbl>   <dbl>      <dbl>      <dbl>
##  1 unnamed 246175   0.116  0.00990       9.34       9.34
##  2 unnamed 2475     0.165  0.0297       10.2       10.3 
##  3 unnamed 1616     0.139  0.0297       10.9       10.7 
##  4 unnamed 8793     0.149  0.0396        6.90       7.02
##  5 unnamed 9099     0.122  0.0396        8.91       9.29
##  6 unnamed 94241    0.131  0.0495       10.1       10.1 
##  7 unnamed 5933     0.0466 0.0495        5.95       6.30
##  8 unnamed 29117    0.151  0.0594        9.95      10.0 
##  9 unnamed 91875    0.0940 0.0594        7.24       7.43
## 10 unnamed 8797     0.0884 0.0594        6.43       6.27
## # ℹ 140 more rows
…
