01 Data Preparation
…
#>  6 Argentina                           NA                    NA <NA>            
#>  7 Chile                               NA                    NA <NA>            
#>  8 Germany                             NA                    NA <NA>            
#>  9 Italy                               NA                    NA <NA>            
#> 10 Paraguay                            NA                    NA <NA>            
#> 11 Portugal                            NA                    NA <NA>            
#> 12 Spain                               NA                    NA <NA>            
#> 13 United Kingdom                      NA                    NA <NA>            
#> 14 United States of …                  NA                    NA <NA>            
#> 15 Uruguay                             NA                    NA <NA>            
#> # ℹ 2 more variables: last_date_cases <fct>, length_of_stay <dbl>
#> 
#>   // flows
#> 
#> # A tibble: 100 × 3
#>    from             to         n
#>    <chr>            <chr>  <dbl>
#>  1 Espirito Santo   Italy  2828.
#>  2 Minas Gerais     Italy 15714.
#>  3 Rio de Janeiro   Italy  8164.
#>  4 Sao Paulo        Italy 34039.
#>  5 Southeast Brazil Italy 76282.
#>  6 Espirito Santo   Spain  3270.
#>  7 Minas Gerais     Spain 18176.
#>  8 Rio de Janeiro   Spain  9443.
#>  9 Sao Paulo        Spain 39371.
#> 10 Southeast Brazil Spain 88231.
#> # ℹ 90 more rows
…
