Introduction to finna
…
This vignette provides an overview of how to use the finna
package.

To make a simple search use the following code.

N.B In the search_finna() default limit of 100
records is being used. Specify ‘limit’ argument for more records.

library(finna)
record <- search_finna("sibelius")
print(record)

## # A tibble: 100 × 10
##    id                Title Author Year  Language Formats Subjects Library Series
##    <chr>             <chr> <chr>  <chr> <chr>    <chr>   <chr>    <chr>   <chr> 
##  1 lapinkirjasto.15… Sibe… Sibel… 2001  <NA>     Äänite… <NA>     Lapin … <NA>  
##  2 av-arkki.dc.4839  Sibe… Pieti… 2015  <NA>     Taidet… experim… AV-ark… <NA>  
##  3 lahdenmuseo.lkm-… Sibe… Favén… <NA>  <NA>     Taidet… kaljuus… Lahden… <NA>  
##  4 anders.94feef04-… Sibe… Lampi… 1995  fin      Kirja,… Sibeliu… Anders… <NA>  
##  5 anders.d1a6bef4-… Sibe… Lampi… 1984  fin      Kirja,… Sibeliu… Anders… <NA>  
##  6 heili.a0028c3d-b… Sibe… Lampi… 1984  fin      Kirja,… Sibeliu… Heili-… <NA>  
##  7 lukki.33147       Sibe… Ringb… 1948  swe      Kirja,… Sibeliu… Lukki-… <NA>  
##  8 slsbib.584        Sibe… Ringb… 1948  swe      Kirja,… Jean Si… Svensk… <NA>  
##  9 helmet.1830976    Sibe… Barne… 2007  eng      Kirja,… Sibeliu… Helmet… <NA>  
## 10 abo.kortkat_0441… Sibe… Ottaw… 1968  <NA>     Kirja,… <NA>     Åbo Ak… <NA>  
## # ℹ 90 more rows
## # ℹ 1 more variable: last_indexed <chr>

Searching as subject

library(finna)
record <- search_finna(query = '"orkesterimusiikki"', type = "Subject", lng = "en-gb")
print(record)

## # A tibble: 100 × 10
##    id            Title     Author Year  Language Formats Subjects Library Series
##    <chr>         <chr>     <chr>  <chr> <chr>    <chr>   <chr>    <chr>   <chr> 
##  1 fikka.1505988 Konsertt… Helsi… 1902  swe      Book m… orkeste… The Na… <NA>  
##  2 fikka.1505975 Konsertt… Helsi… 1912  fin      Book m… 1910-lu… The Na… <NA>  
##  3 fikka.1505980 Konsertt… Helsi… 1912  fin      Book m… 1910-lu… The Na… <NA>  
##  4 fikka.1506009 Konsertt… Helsi… 1916  fin      Book m… 1910-lu… The Na… <NA>  
##  5 fikka.1506017 Konsertt… Helsi… 1904  fin      Book m… 1900-19… The Na… <NA>  
##  6 fikka.1506016 Konsertt… Helsi… 1904  fin      Book m… 1900-19… The Na… <NA>  
##  7 fikka.1505881 Konsertt… Orkes… 1892  swe      Book m… 1890-lu… The Na… <NA>  
##  8 fikka.1506019 Konsertt… Helsi… 1907  swe      Book m… 1900-19… The Na… <NA>  
##  9 fikka.1505982 Konsertt… Helsi… 1898  fin      Book m… 1890-lu… The Na… <NA>  
## 10 fikka.1506018 Konsertt… Helsi… 1902  fin      Book m… 1900-19… The Na… <NA>  
## # ℹ 90 more rows
## # ℹ 1 more variable: last_indexed <chr>

Bulk search

I we need a bulk download we use
search_finna("sibelius", limit = Inf) where we add the term
limit = Inf.

Search phrase examples

library(finna)
phrase <- search_finna("bicycle")
print(phrase)

## # A tibble: 100 × 10
##    id                Title Author Year  Language Formats Subjects Library Series
##    <chr>             <chr> <chr>  <chr> <chr>    <chr>   <chr>    <chr>   <chr> 
##  1 vaari.565915      Bicy… Scios… 1983  eng      Kirja,… <NA>     Varast… <NA>  
##  2 eepos.2088987     Bicy… Gaddy… 1987  eng      Äänite… <NA>     Eepos-… <NA>  
##  3 jamk.99372411640… Bicy… Leagu… 1984  eng      Opinnä… Cycling… Jyväsk… <NA>  
##  4 turkuamk_finna.9… Bicy… Sica,… 1981  eng      Kirja,… Italia.… Turun … <NA>  
##  5 kavi_kirjasto.34… Bicy… Barto… 1952  eng      Kirja,… kaunoki… Taide-… <NA>  
##  6 helmet.1928272    Bicy… Kalim… 2009  zxx      Äänite… 2000-lu… Helmet… <NA>  
##  7 piki.914540       Bicy… <NA>   2009  zxx      Äänite… <NA>     PIKI-k… <NA>  
##  8 lastu.234274      Bicy… Byrne… 2010  eng      Kirja,… Byrne, … Lastu-… <NA>  
##  9 vaari.565339      Bicy… <NA>   <NA>  eng      Kirja,… <NA>     Varast… <NA>  
## 10 fikka.5372420     Bicy… <NA>   2009  <NA>     Äänite… <NA>     Kansal… <NA>  
## # ℹ 90 more rows
## # ℹ 1 more variable: last_indexed <chr>
…
+

The + sign indicates that the search term must be found in every
search result.

For example, if you are looking for material that must feature
economics and which may also feature Keynes:

library(finna)
search_oper <- search_finna("+economics Keynes”)")
print(search_oper)

## # A tibble: 100 × 10
##    id                Title Author Year  Language Formats Subjects Library Series
##    <chr>             <chr> <chr>  <chr> <chr>    <chr>   <chr>    <chr>   <chr> 
##  1 uef.998588837059… Keyn… Lawso… 1985  eng      Kirja,… <NA>     Itä-Su… <NA>  
##  2 abo.991952734059… Keyn… Lawso… 1989  eng      Kirja,… <NA>     Åbo Ak… <NA>  
##  3 hanna.29001       The … Harri… 1947  eng      Kirja,… Keynes.… Svensk… <NA>  
##  4 fikka.567288      The … Harri… 1948  eng      Kirja,… Keynes,… Kansal… <NA>  
##  5 utu.991459665540… The … Harri… 1968  eng      Kirja,… <NA>     Turun … <NA>  
##  6 vaari.1080451     The … Harri… 1965  eng      Kirja,… <NA>     Varast… <NA>  
##  7 ekk.991689954006… The … Harri… 1949  eng      Kirja,… keynesi… Edusku… <NA>  
##  8 tuni.99329737420… The … Harri… 1950  eng      Kirja,… Keynes,… Tamper… <NA>  
##  9 vaari.113512      The … Harri… 1949  eng      Kirja,… <NA>     Varast… <NA>  
## 10 jamk.99362852690… Keyn… Kurok… 2013  eng      Kirja,… Keynes,… Jyväsk… Routl…
## # ℹ 90 more rows
## # ℹ 1 more variable: last_indexed <chr>

!-

The symbols !- remove any search results which feature the search
term following the operator !-.

For example, if you want to find material that feature the term
economics but not the term Keynes:

library(finna)
search_oper <- search_finna("economics !-Keynes”)")
print(search_oper)

## # A tibble: 100 × 10
##    id             Title    Author Year  Language Formats Subjects Library Series
##    <chr>          <chr>    <chr>  <chr> <chr>    <chr>   <chr>    <chr>   <chr> 
##  1 jykdok.2187751 Economi… Econo… 2019  eng      Kirja,… public … Jyväsk… Publi…
##  2 jykdok.2187830 Economi… Econo… 2020  eng      Kirja,… public … Jyväsk… Publi…
##  3 jykdok.2187909 Economi… Econo… 2020  eng      Kirja,… economi… Jyväsk… Publi…
##  4 jykdok.2187982 Economi… Econo… 2020  eng      Kirja,… public … Jyväsk… Publi…
##  5 jykdok.2191390 Europe … Econo… 2017  eng      Kirja,… economy… Jyväsk… Minis…
##  6 jykdok.2187099 Economi… Econo… 2025  eng      Kirja,… economi… Jyväsk… Publi…
##  7 jykdok.2188062 Economi… Econo… 2020  eng      Kirja,… economi… Jyväsk… Publi…
##  8 jykdok.2189909 Economi… Econo… 2023  eng      Kirja,… public … Jyväsk… Publi…
##  9 jykdok.2190276 Economi… Econo… 2024  eng      Kirja,… public … Jyväsk… Publi…
## 10 jykdok.2190844 Economi… Econo… 2025  eng      Kirja,… public … Jyväsk… Publi…
## # ℹ 90 more rows
## # ℹ 1 more variable: last_indexed <chr>

NB! The !- operator cannot be used in single-word searches.

For example, the following search will yield no results:

library(finna)
search_oper <- search_finna("!-economics”)")
print(search_oper)

## # A tibble: 100 × 10
##    id            Title     Author Year  Language Formats Subjects Library Series
##    <chr>         <chr>     <chr>  <chr> <chr>    <chr>   <chr>    <chr>   <chr> 
##  1 3amk.116997   Terminol… Sanas… 2006  fin      Kirja,… Termino… 3AMK-k… TSK, …
##  2 3amk.209997   Päihdeti… <NA>   2017  fin      Kirja,… alkohol… 3AMK-k… Suome…
##  3 3amk.209999   Päihdeti… <NA>   2013  fin      Kirja,… alkohol… 3AMK-k… Suome…
##  4 3amk.211317   Sosiaali… <NA>   2019  fin      Kirja,… tilasto… 3AMK-k… Suome…
##  5 3amk.211318   Päihdeti… <NA>   2018  fin      Kirja,… alkohol… 3AMK-k… Suome…
##  6 3amk.292496   Koti- ja… Koti-… 2013  fin      Kirja,… Leisure… 3AMK-k… Sosia…
##  7 3amk.91452    Kybertur… Olin,… 2018  fin      Kirja,… kybertu… 3AMK-k… Sanas…
##  8 3amk.39381    Teknolog… Markk… 2003  fin      Kirja,… teknolo… 3AMK-k… Edusk…
##  9 3amk.55142    Työsuoje… Sanas… 2006  fin      Kirja,… Diction… 3AMK-k… TSK, …
## 10 jykdok.884085 Hyvä tie… Karja… 2002  fin      Kirja,… ethics;… Jyväsk… <NA>  
## # ℹ 90 more rows
## # ℹ 1 more variable: last_indexed <chr>
…
fuzzy_search <- search_finna("roam~")
print(fuzzy_search)

## NULL

Proximity search

Proximity searches look for material in which the search terms are
within a specified distance, but not necessarily one after the
other.

fuzzy_search <- search_finna("economics Keynes~10")
print(fuzzy_search)

## # A tibble: 100 × 10
##    id                Title Author Year  Language Formats Subjects Library Series
##    <chr>             <chr> <chr>  <chr> <chr>    <chr>   <chr>    <chr>   <chr> 
##  1 abo.991952734059… Keyn… Lawso… 1989  eng      Kirja,… <NA>     Åbo Ak… <NA>  
##  2 jamk.99362852690… Keyn… Kurok… 2013  eng      Kirja,… Keynes,… Jyväsk… Routl…
##  3 uef.998588837059… Keyn… Lawso… 1985  eng      Kirja,… <NA>     Itä-Su… <NA>  
##  4 vaari.1130778     Keyn… Gilbe… 1982  eng      Kirja,… Keynesi… Varast… <NA>  
##  5 ekk.993218740062… On K… Leijo… 1968  eng      Kirja,… Keynes,… Edusku… <NA>  
##  6 helmet.1199524    KEYN… CODDI… 1983  eng      Kirja,… <NA>     Helmet… <NA>  
##  7 helka.9916561935… The … Johns… 1978  eng      Kirja,… Keynes,… Helka-… <NA>  
##  8 vaari.2696406     The … Johns… 1978  eng      Kirja,… Keynes,… Varast… <NA>  
##  9 uef.998437037059… The … Johns… 1978  eng      Kirja,… <NA>     Itä-Su… <NA>  
## 10 aalto.9982217144… John… David… 2007  eng      Kirja,… Keynes,… Aalto-… Great…
## # ℹ 90 more rows
## # ℹ 1 more variable: last_indexed <chr>

Advanced search: to see available online

record <- search_finna("sibelius", filters = c("free_online_boolean:1"))
print(record)

## # A tibble: 100 × 10
##    id                Title Author Year  Language Formats Subjects Library Series
##    <chr>             <chr> <chr>  <chr> <chr>    <chr>   <chr>    <chr>   <chr> 
##  1 av-arkki.dc.4839  Sibe… Pieti… 2015  <NA>     Taidet… experim… AV-ark… <NA>  
##  2 lahdenmuseo.lkm-… Sibe… Favén… <NA>  <NA>     Taidet… kaljuus… Lahden… <NA>  
##  3 sibelius.DF70D25… Evel… <NA>   1875  <NA>     Kuva, … <NA>     Sibeli… <NA>  
##  4 helka.9913244350… Jean… Johns… 1959  eng      Kirja,… Compose… Helka-… <NA>  
##  5 jarvenpaantaidem… Jean… Eero … <NA>  <NA>     Taidet… maalaus… Järven… <NA>  
##  6 aboakademi_taide… Jean… Aalto… <NA>  <NA>     Taidet… <NA>     Åbo Ak… <NA>  
##  7 aboakademi_taide… Jean… Favén… 1936  <NA>     Taidet… <NA>     Åbo Ak… <NA>  
##  8 jarvenpaantaidem… Jean… Eero … <NA>  <NA>     Taidet… maalaus… Järven… <NA>  
##  9 kansallisgalleri… Jean… Järne… <NA>  <NA>     Taidet… <NA>     Kansal… <NA>  
## 10 visavuori.pju-50… SIBE… <NA>   1965  <NA>     Taidet… <NA>     Valkea… <NA>  
## # ℹ 90 more rows
## # ℹ 1 more variable: last_indexed <chr>

search image

For specific collection of images from specific organisation we can
search metadata for example: We take an image from organisation:
“Military Museum” and choose search key to be “Laatokka”. (https://www.finna.fi/Search/Results?lookfor=laatokka&type=AllFields&filter%5B%5D=%7Ebuilding%3A%220%2FSA-kuva%2F%22&limit=20&sort=relevance)

record <- search_finna("laatokka",filters = c('~building:"0/SA-kuva/"'))
print(record)

## # A tibble: 100 × 10
##    id                Title Author Year  Language Formats Subjects Library Series
##    <chr>             <chr> <chr>  <chr> <chr>    <chr>   <chr>    <chr>   <chr> 
##  1 sa-kuva.sa-kuva-… Hote… Manni… 1941  <NA>     Kuva, … <NA>     Sotamu… <NA>  
##  2 sa-kuva.sa-kuva-… Hote… Manni… 1941  <NA>     Kuva, … <NA>     Sotamu… <NA>  
##  3 sa-kuva.sa-kuva-… Laat… Sot.v… <NA>  <NA>     Kuva, … <NA>     Sotamu… <NA>  
##  4 sa-kuva.sa-kuva-… Aava… Saul … 1942  <NA>     Kuva, … <NA>     Sotamu… <NA>  
##  5 sa-kuva.sa-kuva-… Laat… Sot.v… 1942  <NA>     Kuva, … <NA>     Sotamu… <NA>  
##  6 sa-kuva.sa-kuva-… Taip… Sot.v… 1941  <NA>     Kuva, … <NA>     Sotamu… <NA>  
##  7 sa-kuva.sa-kuva-… Jouk… Kersa… 1944  <NA>     Kuva, … <NA>     Sotamu… <NA>  
##  8 sa-kuva.sa-kuva-… Hels… Saul … 1942  <NA>     Kuva, … <NA>     Sotamu… <NA>  
##  9 sa-kuva.sa-kuva-… Fiat… Hanho… 1941  <NA>     Kuva, … <NA>     Sotamu… <NA>  
## 10 sa-kuva.sa-kuva-… Vies… Sot.v… 1944  <NA>     Kuva, … <NA>     Sotamu… <NA>  
## # ℹ 90 more rows
## # ℹ 1 more variable: last_indexed <chr>

Similarly, we can do the same for specific search keysas follows:

record <- search_finna("sibelius", filters = c('~media_type_str_mv:"0/image/"'))
print(record)

## # A tibble: 100 × 10
##    id                Title Author Year  Language Formats Subjects Library Series
##    <chr>             <chr> <chr>  <chr> <chr>    <chr>   <chr>    <chr>   <chr> 
##  1 av-arkki.dc.4839  Sibe… Pieti… 2015  <NA>     Taidet… experim… AV-ark… <NA>  
##  2 lahdenmuseo.lkm-… Sibe… Favén… <NA>  <NA>     Taidet… kaljuus… Lahden… <NA>  
##  3 abo.kortkat_0441… Sibe… Ottaw… 1968  <NA>     Kirja,… <NA>     Åbo Ak… <NA>  
##  4 abo.kortkat_0518… Sibe… Picke… <NA>  <NA>     Kirja,… <NA>     Åbo Ak… <NA>  
##  5 abo.kortkat_0991… Sibe… Schou… 1949  <NA>     Kirja,… <NA>     Åbo Ak… <NA>  
##  6 abo.kortkat_1535… Sibe… Sugan… 1967  <NA>     Kirja,… <NA>     Åbo Ak… <NA>  
##  7 abo.kortkat_1648… Sibe… Tawas… 1968  <NA>     Kirja,… <NA>     Åbo Ak… <NA>  
##  8 abo.kortkat_0872… Sibe… Ringb… 1948  <NA>     Kirja,… <NA>     Åbo Ak… <NA>  
##  9 sibelius.DF70D25… Evel… <NA>   1875  <NA>     Kuva, … <NA>     Sibeli… <NA>  
## 10 jarvenpaantaidem… Jean… Eero … <NA>  <NA>     Taidet… maalaus… Järven… <NA>  
## # ℹ 90 more rows
## # ℹ 1 more variable: last_indexed <chr>

Audio book

record <- search_finna("sibelius", filters = c('~format:"1/Book/AudioBook/"'))
print(record)

## # A tibble: 100 × 10
##    id                Title Author Year  Language Formats Subjects Library Series
##    <chr>             <chr> <chr>  <chr> <chr>    <chr>   <chr>    <chr>   <chr> 
##  1 vaasa.55c4a01a-d… Aino… Kontt… 2019  fin      Kirja,… Sibeliu… Vaasan… <NA>  
##  2 anders.03b053ec-… Aino… Kontt… 2019  fin      Kirja,… Sibeliu… Anders… <NA>  
##  3 lastu.1707418     Aino… Kontt… 2020  fin      Kirja,… Sibeliu… Lastu-… <NA>  
##  4 rutakko.d8834d11… Aino… Kontt… 2019  fin      Kirja,… Sibeliu… Rutakk… <NA>  
##  5 eepos.2627672     Aino… Kontt… 2019  fin      Kirja,… Sibeliu… Eepos-… <NA>  
##  6 lapinkirjasto.80… Sibe… Matti… 1995  <NA>     Kirja,… Illalle… Lapin … <NA>  
##  7 tiekko.901913     The … Sibel… 1994  zxx      Kirja,… <NA>     Joki-k… <NA>  
##  8 jykdok.2299226    Aino… Kirve… 2020  fin      Kirja,… kirjeen… Jyväsk… <NA>  
##  9 ratamo.458604     Aino… Kirve… 2011  fin      Kirja,… <NA>     Ratamo… <NA>  
## 10 siilinjarvi.2337… Aino… Kirve… 2015  fin      Kirja,… <NA>     Siilin… <NA>  
## # ℹ 90 more rows
## # ℹ 1 more variable: last_indexed <chr>

Year of manufacture

record <- search_finna("sibelius", filters = c('search_daterange_mv:"overlap|[-5000 TO 5000]"'))
print(record)

## # A tibble: 100 × 10
##    id                Title Author Year  Language Formats Subjects Library Series
##    <chr>             <chr> <chr>  <chr> <chr>    <chr>   <chr>    <chr>   <chr> 
##  1 lapinkirjasto.15… Sibe… Sibel… 2001  <NA>     Äänite… <NA>     Lapin … <NA>  
##  2 av-arkki.dc.4839  Sibe… Pieti… 2015  <NA>     Taidet… experim… AV-ark… <NA>  
##  3 anders.94feef04-… Sibe… Lampi… 1995  fin      Kirja,… Sibeliu… Anders… <NA>  
##  4 anders.d1a6bef4-… Sibe… Lampi… 1984  fin      Kirja,… Sibeliu… Anders… <NA>  
##  5 heili.a0028c3d-b… Sibe… Lampi… 1984  fin      Kirja,… Sibeliu… Heili-… <NA>  
##  6 lukki.33147       Sibe… Ringb… 1948  swe      Kirja,… Sibeliu… Lukki-… <NA>  
##  7 slsbib.584        Sibe… Ringb… 1948  swe      Kirja,… Jean Si… Svensk… <NA>  
##  8 helmet.1830976    Sibe… Barne… 2007  eng      Kirja,… Sibeliu… Helmet… <NA>  
##  9 abo.kortkat_0441… Sibe… Ottaw… 1968  <NA>     Kirja,… <NA>     Åbo Ak… <NA>  
## 10 keski.2865837     Sibe… Sibel… 2017  zxx      Äänite… <NA>     Keski-… <NA>  
## # ℹ 90 more rows
## # ℹ 1 more variable: last_indexed <chr>

Search using Geofilter syntax (Geographical region)

record <- search_finna("trump", filters = c('{!geofilt sfield=location_geo pt=61.663987171517796,24.17263895273209 d=212.53603751769646}'))
print(record)

## # A tibble: 100 × 10
##    id                Title Author Year  Language Formats Subjects Library Series
##    <chr>             <chr> <chr>  <chr> <chr>    <chr>   <chr>    <chr>   <chr> 
##  1 lahdenmuseo.lkm-… Trump Welp … 2017  <NA>     Taidet… opportu… <NA>    <NA>  
##  2 museovirasto.1E1… naam… <NA>   <NA>  <NA>     Esine   naamiai… Suomen… <NA>  
##  3 museovirasto.810… Hels… Hoppa… 2018  <NA>     Kuva, … Helsink… Museov… <NA>  
##  4 museovirasto.276… Hels… Häkki… 2018  <NA>     Kuva, … Helsink… Museov… <NA>  
##  5 museovirasto.B22… Hels… Häkki… 2018  <NA>     Kuva, … Helsink… Museov… <NA>  
##  6 museovirasto.DC1… Hels… Häkki… 2018  <NA>     Kuva, … Helsink… Museov… <NA>  
##  7 museovirasto.178… Hels… Hoppa… 2018  <NA>     Kuva, … Helsink… Museov… <NA>  
##  8 museovirasto.75D… Hels… Hoppa… 2018  <NA>     Kuva, … Helsink… Museov… <NA>  
##  9 museovirasto.037… Hels… Hoppa… 2018  <NA>     Kuva, … Helsink… Museov… <NA>  
## 10 museovirasto.497… Hels… Hoppa… 2018  <NA>     Kuva, … Helsink… Museov… <NA>  
## # ℹ 90 more rows
## # ℹ 1 more variable: last_indexed <chr>
…
Narrowing the search

When narrowing search you can use codes as a combination as
follows

record <- search_finna("trump", filters = c('{!geofilt sfield=location_geo pt=61.663987171517796,24.17263895273209 d=212.53603751769646},author_facet:"Häkkinen,Hannu"'))
print(record)

## # A tibble: 100 × 10
##    id                Title Author Year  Language Formats Subjects Library Series
##    <chr>             <chr> <chr>  <chr> <chr>    <chr>   <chr>    <chr>   <chr> 
##  1 lahdenmuseo.lkm-… Trump Welp … 2017  <NA>     Taidet… opportu… <NA>    <NA>  
##  2 museovirasto.1E1… naam… <NA>   <NA>  <NA>     Esine   naamiai… Suomen… <NA>  
##  3 museovirasto.810… Hels… Hoppa… 2018  <NA>     Kuva, … Helsink… Museov… <NA>  
##  4 museovirasto.276… Hels… Häkki… 2018  <NA>     Kuva, … Helsink… Museov… <NA>  
##  5 museovirasto.B22… Hels… Häkki… 2018  <NA>     Kuva, … Helsink… Museov… <NA>  
##  6 museovirasto.DC1… Hels… Häkki… 2018  <NA>     Kuva, … Helsink… Museov… <NA>  
##  7 museovirasto.178… Hels… Hoppa… 2018  <NA>     Kuva, … Helsink… Museov… <NA>  
##  8 museovirasto.75D… Hels… Hoppa… 2018  <NA>     Kuva, … Helsink… Museov… <NA>  
##  9 museovirasto.037… Hels… Hoppa… 2018  <NA>     Kuva, … Helsink… Museov… <NA>  
## 10 museovirasto.497… Hels… Hoppa… 2018  <NA>     Kuva, … Helsink… Museov… <NA>  
## # ℹ 90 more rows
## # ℹ 1 more variable: last_indexed <chr>

specific search

record <- search_finna("era:'2010-luku'", filters = c('building:"0/3AMK/"'))

search without removing duplication

In order to search data without removing duplication example.

record <- search_finna('era:"2010-luku"', filters = c('~building:"0/3AMK/"', 'finna.deduplication:"1"'))
print(record)

## # A tibble: 100 × 10
##    id          Title       Author Year  Language Formats Subjects Library Series
##    <chr>       <chr>       <chr>  <chr> <chr>    <chr>   <chr>    <chr>   <chr> 
##  1 3amk.293263 Sukupolvie… Hämäl… 2021  fin      Kirja,… 2010-lu… 3AMK-k… Väest…
##  2 3amk.134144 Tervetuloa… Sjöbl… 2013  fin      Kirja,… opiskel… 3AMK-k… Siirt…
##  3 3amk.85597  Hyvinvoint… Taimi… 2015  fin      Kirja,… 2010-lu… 3AMK-k… Rapor…
##  4 3amk.264122 Moniulotte… Hämee… 2014  fin      Kirja,… 2010-lu… 3AMK-k… Ethno…
##  5 3amk.88454  Yksinäiste… Saari… 2016  fin      Kirja,… 2010-lu… 3AMK-k… <NA>  
##  6 3amk.132507 Toimeentul… Kuiva… 2013  fin      Kirja,… 2010-lu… 3AMK-k… Rapor…
##  7 3amk.123287 Hyvinvoinn… Kanga… 2010  fin      Kirja,… Public … 3AMK-k… <NA>  
##  8 3amk.284506 Virkamiesv… Murto… 2014  fin      Kirja,… 1980-lu… 3AMK-k… <NA>  
##  9 3amk.291790 Medioitunu… Reuna… 2021  fin      Kirja,… 2010-lu… 3AMK-k… <NA>  
## 10 3amk.298602 Hidasta ka… Kivij… 2022  fin      Kirja,… 2000-lu… 3AMK-k… Julka…
## # ℹ 90 more rows
## # ℹ 1 more variable: last_indexed <chr>
…
